<?xml version="1.0" encoding="UTF-8" standalone="no"?>
<!-- Created with Inkscape (http://www.inkscape.org/) -->

<svg
   xmlns:dc="http://purl.org/dc/elements/1.1/"
   xmlns:cc="http://creativecommons.org/ns#"
   xmlns:rdf="http://www.w3.org/1999/02/22-rdf-syntax-ns#"
   xmlns:svg="http://www.w3.org/2000/svg"
   xmlns="http://www.w3.org/2000/svg"
   xmlns:sodipodi="http://sodipodi.sourceforge.net/DTD/sodipodi-0.dtd"
   xmlns:inkscape="http://www.inkscape.org/namespaces/inkscape"
   width="210mm"
   height="297mm"
   viewBox="0 0 210 297"
   version="1.1"
   id="svg8"
   inkscape:version="0.92.4 5da689c313, 2019-01-14"
   sodipodi:docname="Fig_4.svg">
  <defs
     id="defs2" />
  <sodipodi:namedview
     id="base"
     pagecolor="#ffffff"
     bordercolor="#666666"
     borderopacity="1.0"
     inkscape:pageopacity="0.0"
     inkscape:pageshadow="2"
     inkscape:zoom="0.98994949"
     inkscape:cx="436.4261"
     inkscape:cy="816.20685"
     inkscape:document-units="mm"
     inkscape:current-layer="layer1"
     showgrid="false"
     inkscape:window-width="1366"
     inkscape:window-height="744"
     inkscape:window-x="0"
     inkscape:window-y="0"
     inkscape:window-maximized="1"
     showguides="false" />
  <metadata
     id="metadata5">
    <rdf:RDF>
      <cc:Work
         rdf:about="">
        <dc:format>image/svg+xml</dc:format>
        <dc:type
           rdf:resource="http://purl.org/dc/dcmitype/StillImage" />
        <dc:title />
      </cc:Work>
    </rdf:RDF>
  </metadata>
  <g
     inkscape:label="Layer 1"
     inkscape:groupmode="layer"
     id="layer1">
    <rect
       style="opacity:1;fill:none;fill-opacity:1;stroke:#000000;stroke-width:0.70555556;stroke-linecap:round;stroke-linejoin:bevel;stroke-miterlimit:4;stroke-dasharray:none;stroke-dashoffset:0;stroke-opacity:1;paint-order:normal"
       id="rect4747"
       width="126.62202"
       height="126.62202"
       x="54.243237"
       y="21.573929" />
    <rect
       style="opacity:1;fill:#b3b3b3;fill-opacity:1;stroke:#000000;stroke-width:0.70555556;stroke-linecap:round;stroke-linejoin:bevel;stroke-miterlimit:4;stroke-dasharray:none;stroke-dashoffset:0;stroke-opacity:1;paint-order:normal"
       id="rect4749"
       width="72.193451"
       height="73.70536"
       x="81.45752"
       y="48.032257" />
    <circle
       style="opacity:1;fill:#e6e6e6;fill-opacity:0.70508474;stroke:#000000;stroke-width:0.70555556;stroke-linecap:round;stroke-linejoin:bevel;stroke-miterlimit:4;stroke-dasharray:none;stroke-dashoffset:0;stroke-opacity:1;paint-order:normal"
       id="path4751-6"
       cx="70.571808"
       cy="59.371552"
       r="27.26767" />
    <circle
       id="path4774"
       style="opacity:1;fill:#000000;stroke:#000000;stroke-width:0.70555556;stroke-miterlimit:4;stroke-dasharray:none;stroke-opacity:1"
       cx="70.571808"
       cy="59.371552"
       r="1.5" />
    <circle
       style="opacity:1;fill:#e6e6e6;fill-opacity:0.70508477;stroke:#000000;stroke-width:0.70555556;stroke-linecap:round;stroke-linejoin:bevel;stroke-miterlimit:4;stroke-dasharray:none;stroke-dashoffset:0;stroke-opacity:0.98644068;paint-order:normal"
       id="path4751"
       cx="153.54636"
       cy="87.850166"
       r="27.26767" />
    <circle
       id="path4778"
       style="opacity:1;fill:#000000;stroke:#000000;stroke-width:0.70555556;stroke-miterlimit:4;stroke-dasharray:none;stroke-opacity:1"
       cx="153.54636"
       cy="87.850166"
       r="1.5" />
    <circle
       r="27.26767"
       cy="114.18764"
       cx="96.93895"
       id="circle4838"
       style="opacity:1;fill:#e6e6e6;fill-opacity:0.70508477;stroke:#000000;stroke-width:0.70555556;stroke-linecap:round;stroke-linejoin:bevel;stroke-miterlimit:4;stroke-dasharray:none;stroke-dashoffset:0;stroke-opacity:0.98644068;paint-order:normal" />
    <circle
       r="1.5"
       cy="114.18764"
       cx="96.93895"
       style="opacity:1;fill:#000000;stroke:#000000;stroke-width:0.70555556;stroke-miterlimit:4;stroke-dasharray:none;stroke-opacity:1"
       id="circle4840" />
    <text
       xml:space="preserve"
       style="font-style:normal;font-weight:normal;font-size:7.05555534px;line-height:1.25;font-family:Kalpurush;letter-spacing:0px;word-spacing:0px;fill:#000000;fill-opacity:1;stroke:none;stroke-width:0.26458332"
       x="124.00339"
       y="29.463203"
       id="text4882"><tspan
         sodipodi:role="line"
         x="124.00339"
         y="29.463203"
         style="font-size:4.23333359px;line-height:3.52777767px;text-align:center;text-anchor:middle;stroke-width:0.26458332"
         id="tspan9404">এখানে পয়সার কেন্দ্র পড়লে</tspan></text>
    <text
       xml:space="preserve"
       style="font-style:normal;font-weight:normal;font-size:4.23333311px;line-height:1.25;font-family:Kalpurush;letter-spacing:0px;word-spacing:0px;fill:#000000;fill-opacity:1;stroke:none;stroke-width:0.26458332"
       x="153.62775"
       y="95.0392"
       id="text4902"><tspan
         sodipodi:role="line"
         x="153.62775"
         y="95.0392"
         style="font-size:3.52777767px;line-height:0.35277778px;text-align:center;text-anchor:middle;fill:#000000;stroke-width:0.26458332"
         id="tspan9519">এই পয়সা টাইল ঘেঁষে থাকবে</tspan></text>
    <text
       xml:space="preserve"
       style="font-style:normal;font-weight:normal;font-size:4.23333311px;line-height:1.25;font-family:Kalpurush;letter-spacing:0px;word-spacing:0px;fill:#000000;fill-opacity:1;stroke:none;stroke-width:0.26458332"
       x="96.739136"
       y="126.18304"
       id="text4902-7"><tspan
         sodipodi:role="line"
         x="97.229202"
         y="126.18304"
         style="font-size:3.52777767px;line-height:0.35277778px;text-align:center;text-anchor:middle;fill:#000000;stroke-width:0.26458332"
         id="tspan4906-5">এই পয়সা টাইল এর সম্পূর্ণ </tspan><tspan
         sodipodi:role="line"
         x="97.229202"
         y="131.4747"
         style="font-size:3.52777767px;line-height:0.35277778px;text-align:center;text-anchor:middle;fill:#000000;stroke-width:0.26458332"
         id="tspan9528">ভেতরে থাকবে </tspan></text>
    <text
       xml:space="preserve"
       style="font-style:normal;font-weight:normal;font-size:4.23333311px;line-height:1.25;font-family:Kalpurush;letter-spacing:0px;word-spacing:0px;fill:#000000;fill-opacity:1;stroke:none;stroke-width:0.26458332"
       x="70.440895"
       y="66.65181"
       id="text4902-6"><tspan
         sodipodi:role="line"
         x="70.440895"
         y="66.65181"
         style="font-size:3.52777767px;line-height:0.35277778px;text-align:center;text-anchor:middle;fill:#000000;stroke-width:0.26458332"
         id="tspan4906-1">এই পয়সা টাইলের বাইরে চলে যাবে</tspan></text>
    <text
       xml:space="preserve"
       style="font-style:normal;font-weight:normal;font-size:3.52777767px;line-height:1.25;font-family:Kalpurush;letter-spacing:0px;word-spacing:0px;fill:#000000;fill-opacity:1;stroke:none;stroke-width:0.26458332"
       x="103.85371"
       y="34.813969"
       id="text9410"><tspan
         sodipodi:role="line"
         id="tspan9408"
         x="103.85371"
         y="34.813969"
         style="font-size:4.23333359px;stroke-width:0.26458332">তা টাইলের বাইরে চলে যাবে</tspan></text>
    <text
       xml:space="preserve"
       style="font-style:normal;font-weight:normal;font-size:7.05555534px;line-height:1.25;font-family:Kalpurush;letter-spacing:0px;word-spacing:0px;fill:#000000;fill-opacity:1;stroke:none;stroke-width:0.26458332"
       x="122.8644"
       y="54.580181"
       id="text4882-0"><tspan
         sodipodi:role="line"
         x="122.8644"
         y="54.580181"
         style="font-size:4.23333406px;line-height:3.52777767px;text-align:center;text-anchor:middle;stroke-width:0.26458332"
         id="tspan9404-9">এখানে পয়সার কেন্দ্র পড়লে</tspan></text>
    <text
       xml:space="preserve"
       style="font-style:normal;font-weight:normal;font-size:3.52777767px;line-height:1.25;font-family:Kalpurush;letter-spacing:0px;word-spacing:0px;fill:#000000;fill-opacity:1;stroke:none;stroke-width:0.26458332"
       x="103.51157"
       y="59.930946"
       id="text9410-3"><tspan
         sodipodi:role="line"
         id="tspan9408-6"
         x="103.51157"
         y="59.930946"
         style="font-size:4.23333406px;stroke-width:0.26458332">তা টাইলের ভেতরে থাকবে</tspan></text>
  </g>
</svg>
