<?xml version="1.0" encoding="UTF-8" standalone="no"?>
<!-- Created with Inkscape (http://www.inkscape.org/) -->

<svg
   xmlns:dc="http://purl.org/dc/elements/1.1/"
   xmlns:cc="http://creativecommons.org/ns#"
   xmlns:rdf="http://www.w3.org/1999/02/22-rdf-syntax-ns#"
   xmlns:svg="http://www.w3.org/2000/svg"
   xmlns="http://www.w3.org/2000/svg"
   xmlns:sodipodi="http://sodipodi.sourceforge.net/DTD/sodipodi-0.dtd"
   xmlns:inkscape="http://www.inkscape.org/namespaces/inkscape"
   width="210mm"
   height="297mm"
   viewBox="0 0 210 297"
   version="1.1"
   id="svg8"
   inkscape:version="0.92.4 5da689c313, 2019-01-14"
   sodipodi:docname="Fig_6.svg">
  <defs
     id="defs2" />
  <sodipodi:namedview
     id="base"
     pagecolor="#ffffff"
     bordercolor="#666666"
     borderopacity="1.0"
     inkscape:pageopacity="0.0"
     inkscape:pageshadow="2"
     inkscape:zoom="0.98994949"
     inkscape:cx="254.43188"
     inkscape:cy="672.0144"
     inkscape:document-units="mm"
     inkscape:current-layer="layer1"
     showgrid="false"
     inkscape:window-width="1366"
     inkscape:window-height="744"
     inkscape:window-x="0"
     inkscape:window-y="0"
     inkscape:window-maximized="1" />
  <metadata
     id="metadata5">
    <rdf:RDF>
      <cc:Work
         rdf:about="">
        <dc:format>image/svg+xml</dc:format>
        <dc:type
           rdf:resource="http://purl.org/dc/dcmitype/StillImage" />
        <dc:title />
      </cc:Work>
    </rdf:RDF>
  </metadata>
  <g
     inkscape:label="Layer 1"
     inkscape:groupmode="layer"
     id="layer1">
    <g
       id="g3597"
       transform="rotate(45,59.319803,106.68636)">
      <rect
         y="72.982903"
         x="39.243324"
         height="50.781212"
         width="50.781212"
         id="rect1042"
         style="fill:none;fill-opacity:0.89347079;stroke:#000000;stroke-width:0.35277778;stroke-miterlimit:4;stroke-dasharray:none;stroke-dashoffset:0;stroke-opacity:1" />
      <circle
         r="1.5"
         cy="72.982903"
         cx="39.243324"
         style="fill:#000000;stroke:none;stroke-width:1.05833328;stroke-miterlimit:4;stroke-dasharray:none"
         id="path1044" />
      <circle
         r="1.5"
         cy="72.982903"
         cx="90.024536"
         style="fill:#000000;stroke:none;stroke-width:1.05833328;stroke-miterlimit:4;stroke-dasharray:none"
         id="path1046" />
      <circle
         r="1.5"
         cy="123.76411"
         cx="90.024536"
         style="fill:#000000;stroke:none;stroke-width:1.05833328;stroke-miterlimit:4;stroke-dasharray:none"
         id="path1048" />
      <circle
         r="1.5"
         cy="123.76411"
         cx="39.243324"
         style="fill:#000000;stroke:none;stroke-width:1.05833328;stroke-miterlimit:4;stroke-dasharray:none"
         id="path1050" />
    </g>
  </g>
</svg>
