<?xml version="1.0" encoding="UTF-8" standalone="no"?>
<!-- Created with Inkscape (http://www.inkscape.org/) -->

<svg
   xmlns:dc="http://purl.org/dc/elements/1.1/"
   xmlns:cc="http://creativecommons.org/ns#"
   xmlns:rdf="http://www.w3.org/1999/02/22-rdf-syntax-ns#"
   xmlns:svg="http://www.w3.org/2000/svg"
   xmlns="http://www.w3.org/2000/svg"
   xmlns:sodipodi="http://sodipodi.sourceforge.net/DTD/sodipodi-0.dtd"
   xmlns:inkscape="http://www.inkscape.org/namespaces/inkscape"
   width="312.94046mm"
   height="87.288696mm"
   viewBox="0 0 312.94046 87.288696"
   version="1.1"
   id="svg8"
   inkscape:version="0.92.4 5da689c313, 2019-01-14"
   sodipodi:docname="Fig_21.svg">
  <defs
     id="defs2">
    <marker
       inkscape:isstock="true"
       style="overflow:visible"
       id="marker1376"
       refX="0"
       refY="0"
       orient="auto"
       inkscape:stockid="Arrow1Lend">
      <path
         transform="matrix(-0.8,0,0,-0.8,-10,0)"
         style="fill:#000000;fill-opacity:1;fill-rule:evenodd;stroke:#000000;stroke-width:1.00000003pt;stroke-opacity:1"
         d="M 0,0 5,-5 -12.5,0 5,5 Z"
         id="path1374"
         inkscape:connector-curvature="0" />
    </marker>
    <marker
       inkscape:stockid="Arrow1Lstart"
       orient="auto"
       refY="0"
       refX="0"
       id="Arrow1Lstart"
       style="overflow:visible"
       inkscape:isstock="true">
      <path
         id="path1060"
         d="M 0,0 5,-5 -12.5,0 5,5 Z"
         style="fill:#000000;fill-opacity:1;fill-rule:evenodd;stroke:#000000;stroke-width:1.00000003pt;stroke-opacity:1"
         transform="matrix(0.8,0,0,0.8,10,0)"
         inkscape:connector-curvature="0" />
    </marker>
  </defs>
  <sodipodi:namedview
     id="base"
     pagecolor="#ffffff"
     bordercolor="#666666"
     borderopacity="1.0"
     inkscape:pageopacity="0.0"
     inkscape:pageshadow="2"
     inkscape:zoom="0.7"
     inkscape:cx="414.50504"
     inkscape:cy="152.14786"
     inkscape:document-units="mm"
     inkscape:current-layer="layer1"
     showgrid="false"
     inkscape:window-width="1366"
     inkscape:window-height="744"
     inkscape:window-x="0"
     inkscape:window-y="0"
     inkscape:window-maximized="1" />
  <metadata
     id="metadata5">
    <rdf:RDF>
      <cc:Work
         rdf:about="">
        <dc:format>image/svg+xml</dc:format>
        <dc:type
           rdf:resource="http://purl.org/dc/dcmitype/StillImage" />
        <dc:title />
      </cc:Work>
    </rdf:RDF>
  </metadata>
  <g
     inkscape:label="Layer 1"
     inkscape:groupmode="layer"
     id="layer1"
     transform="translate(70.480647,-41.122021)">
    <g
       id="g5318">
      <path
         inkscape:connector-curvature="0"
         id="path864-6"
         d="M -55.90308,117.78329 -14.561338,91.01525"
         style="fill:none;stroke:#000000;stroke-width:0.47212914;stroke-linecap:butt;stroke-linejoin:miter;stroke-miterlimit:4;stroke-dasharray:none;stroke-opacity:1" />
      <path
         inkscape:connector-curvature="0"
         id="path866-12"
         d="M -23.781438,54.43227 45.369318,117.932"
         style="fill:none;stroke:#000000;stroke-width:0.47212914;stroke-linecap:butt;stroke-linejoin:miter;stroke-miterlimit:4;stroke-dasharray:none;stroke-opacity:1" />
      <path
         inkscape:connector-curvature="0"
         id="path868-9"
         d="M -55.90308,117.78329 45.369318,117.932"
         style="fill:none;stroke:#000000;stroke-width:0.47212914;stroke-linecap:butt;stroke-linejoin:miter;stroke-miterlimit:4;stroke-dasharray:3.77703318, 3.77703318;stroke-dashoffset:0;stroke-opacity:1" />
      <path
         inkscape:connector-curvature="0"
         id="path870-3"
         d="M -23.781438,54.43227 -55.90308,117.78329"
         style="fill:none;stroke:#000000;stroke-width:0.47212914;stroke-linecap:butt;stroke-linejoin:miter;stroke-miterlimit:4;stroke-dasharray:none;stroke-opacity:1" />
      <path
         inkscape:connector-curvature="0"
         id="path872-1"
         d="M -14.561338,91.01525 45.369318,117.932"
         style="fill:none;stroke:#000000;stroke-width:0.47212914;stroke-linecap:butt;stroke-linejoin:miter;stroke-miterlimit:4;stroke-dasharray:none;stroke-opacity:1" />
      <path
         inkscape:connector-curvature="0"
         id="path874-9"
         d="m -23.781438,54.43227 9.2201,36.58298"
         style="fill:none;stroke:#000000;stroke-width:0.472;stroke-linecap:butt;stroke-linejoin:miter;stroke-miterlimit:4;stroke-dasharray:2.83199995, 2.83199995;stroke-dashoffset:0;stroke-opacity:1" />
      <circle
         r="1.5"
         cy="117.78329"
         cx="-55.90308"
         style="fill:#000000;stroke:none"
         id="path910" />
      <circle
         r="1.5"
         cy="91.015251"
         cx="-14.561342"
         style="fill:#000000;stroke:none"
         id="path912" />
      <circle
         r="1.5"
         cy="54.432262"
         cx="-23.781439"
         style="fill:#000000;stroke:none"
         id="path914" />
      <circle
         r="1.5"
         cy="117.932"
         cx="45.369316"
         style="fill:#000000;stroke:none"
         id="path916" />
    </g>
    <g
       id="g5330"
       transform="translate(0,1.0690918)">
      <path
         inkscape:connector-curvature="0"
         id="path864-7"
         d="M 58.488281,116.71421 99.830023,89.94617"
         style="fill:none;stroke:#000000;stroke-width:0.47212914;stroke-linecap:butt;stroke-linejoin:miter;stroke-miterlimit:4;stroke-dasharray:none;stroke-opacity:1" />
      <path
         inkscape:connector-curvature="0"
         id="path866-8"
         d="m 90.609923,53.36319 69.150757,63.49973"
         style="fill:none;stroke:#000000;stroke-width:0.472;stroke-linecap:butt;stroke-linejoin:miter;stroke-miterlimit:4;stroke-dasharray:2.83199995, 2.83199995;stroke-dashoffset:0;stroke-opacity:1" />
      <path
         inkscape:connector-curvature="0"
         id="path868-4"
         d="m 58.488281,116.71421 101.272399,0.14871"
         style="fill:none;stroke:#000000;stroke-width:0.47212914;stroke-linecap:butt;stroke-linejoin:miter;stroke-miterlimit:4;stroke-dasharray:none;stroke-dashoffset:0;stroke-opacity:1" />
      <path
         inkscape:connector-curvature="0"
         id="path870-5"
         d="M 90.609923,53.36319 58.488281,116.71421"
         style="fill:none;stroke:#000000;stroke-width:0.472;stroke-linecap:butt;stroke-linejoin:miter;stroke-miterlimit:4;stroke-dasharray:2.83199995, 2.83199995;stroke-dashoffset:0;stroke-opacity:1" />
      <path
         inkscape:connector-curvature="0"
         id="path872-0"
         d="m 99.830023,89.94617 59.930657,26.91675"
         style="fill:none;stroke:#000000;stroke-width:0.47212914;stroke-linecap:butt;stroke-linejoin:miter;stroke-miterlimit:4;stroke-dasharray:none;stroke-opacity:1" />
      <path
         inkscape:connector-curvature="0"
         id="path874-3"
         d="m 90.609923,53.36319 9.2201,36.58298"
         style="fill:none;stroke:#000000;stroke-width:0.47212914;stroke-linecap:butt;stroke-linejoin:miter;stroke-miterlimit:4;stroke-dasharray:none;stroke-opacity:1" />
      <circle
         r="1.5"
         cy="116.7142"
         cx="58.488281"
         style="fill:#000000;stroke:none"
         id="path910-6" />
      <circle
         r="1.5"
         cy="89.946175"
         cx="99.830017"
         style="fill:#000000;stroke:none"
         id="path912-1" />
      <circle
         r="1.5"
         cy="53.363186"
         cx="90.609924"
         style="fill:#000000;stroke:none"
         id="path914-0" />
      <circle
         r="1.5"
         cy="116.86291"
         cx="159.76068"
         style="fill:#000000;stroke:none"
         id="path916-6" />
    </g>
  </g>
</svg>
