<?xml version="1.0" encoding="UTF-8" standalone="no"?>
<!-- Created with Inkscape (http://www.inkscape.org/) -->

<svg
   xmlns:dc="http://purl.org/dc/elements/1.1/"
   xmlns:cc="http://creativecommons.org/ns#"
   xmlns:rdf="http://www.w3.org/1999/02/22-rdf-syntax-ns#"
   xmlns:svg="http://www.w3.org/2000/svg"
   xmlns="http://www.w3.org/2000/svg"
   xmlns:sodipodi="http://sodipodi.sourceforge.net/DTD/sodipodi-0.dtd"
   xmlns:inkscape="http://www.inkscape.org/namespaces/inkscape"
   width="337.6149mm"
   height="496.33542mm"
   viewBox="0 0 337.6149 496.33542"
   version="1.1"
   id="svg8"
   sodipodi:docname="Fig_18.svg"
   inkscape:version="0.92.4 5da689c313, 2019-01-14">
  <defs
     id="defs2">
    <marker
       inkscape:isstock="true"
       style="overflow:visible"
       id="marker2331"
       refX="0"
       refY="0"
       orient="auto"
       inkscape:stockid="SquareS">
      <path
         inkscape:connector-curvature="0"
         transform="scale(0.2)"
         style="fill:#000000;fill-opacity:1;fill-rule:evenodd;stroke:#000000;stroke-width:1.00000003pt;stroke-opacity:1"
         d="M -5,-5 V 5 H 5 V -5 Z"
         id="path2329" />
    </marker>
    <marker
       inkscape:isstock="true"
       style="overflow:visible"
       id="marker2239"
       refX="0"
       refY="0"
       orient="auto"
       inkscape:stockid="SquareS">
      <path
         inkscape:connector-curvature="0"
         transform="scale(0.2)"
         style="fill:#000000;fill-opacity:1;fill-rule:evenodd;stroke:#000000;stroke-width:1.00000003pt;stroke-opacity:1"
         d="M -5,-5 V 5 H 5 V -5 Z"
         id="path2237" />
    </marker>
    <marker
       inkscape:stockid="SquareS"
       orient="auto"
       refY="0"
       refX="0"
       id="SquareS"
       style="overflow:visible"
       inkscape:isstock="true"
       inkscape:collect="always">
      <path
         inkscape:connector-curvature="0"
         id="path1211"
         d="M -5,-5 V 5 H 5 V -5 Z"
         style="fill:#000000;fill-opacity:1;fill-rule:evenodd;stroke:#000000;stroke-width:1.00000003pt;stroke-opacity:1"
         transform="scale(0.2)" />
    </marker>
    <marker
       inkscape:isstock="true"
       style="overflow:visible"
       id="marker2249"
       refX="0"
       refY="0"
       orient="auto"
       inkscape:stockid="SquareS">
      <path
         inkscape:connector-curvature="0"
         transform="scale(0.2)"
         style="fill:#000000;fill-opacity:1;fill-rule:evenodd;stroke:#000000;stroke-width:1.00000003pt;stroke-opacity:1"
         d="M -5,-5 V 5 H 5 V -5 Z"
         id="path2247" />
    </marker>
  </defs>
  <sodipodi:namedview
     id="base"
     pagecolor="#ffffff"
     bordercolor="#666666"
     borderopacity="1.0"
     inkscape:pageopacity="0.0"
     inkscape:pageshadow="2"
     inkscape:zoom="0.24748737"
     inkscape:cx="348.70251"
     inkscape:cy="886.53881"
     inkscape:document-units="mm"
     inkscape:current-layer="layer1"
     showgrid="false"
     inkscape:window-width="1366"
     inkscape:window-height="744"
     inkscape:window-x="0"
     inkscape:window-y="0"
     inkscape:window-maximized="1" />
  <metadata
     id="metadata5">
    <rdf:RDF>
      <cc:Work
         rdf:about="">
        <dc:format>image/svg+xml</dc:format>
        <dc:type
           rdf:resource="http://purl.org/dc/dcmitype/StillImage" />
        <dc:title />
      </cc:Work>
    </rdf:RDF>
  </metadata>
  <g
     inkscape:label="Layer 1"
     inkscape:groupmode="layer"
     id="layer1"
     transform="translate(-1244.8235,40.62704)">
    <path
       inkscape:connector-curvature="0"
       d=""
       cx="101.10863"
       cy="93.459816"
       r="38.114422"
       id="path1620"
       style="fill:none;fill-opacity:1;stroke:#000000;stroke-width:0.84427232;stroke-linecap:butt;stroke-miterlimit:4;stroke-dasharray:none;stroke-dashoffset:0;stroke-opacity:1;paint-order:normal" />
    <path
       inkscape:connector-curvature="0"
       d=""
       cx="101.10863"
       cy="93.459816"
       r="38.114422"
       id="path1620-6"
       style="fill:none;fill-opacity:1;stroke:#000000;stroke-width:0.84427232;stroke-linecap:butt;stroke-miterlimit:4;stroke-dasharray:none;stroke-dashoffset:0;stroke-opacity:1;paint-order:normal" />
    <text
       xml:space="preserve"
       style="font-style:normal;font-weight:normal;font-size:8.44272327px;line-height:1.25;font-family:sans-serif;letter-spacing:0px;word-spacing:0px;fill:#000000;fill-opacity:1;stroke:none;stroke-width:0.84427232;stroke-miterlimit:4;stroke-dasharray:none"
       x="1109.2058"
       y="59.716801"
       id="text1201"><tspan
         sodipodi:role="line"
         id="tspan1199"
         x="1109.2058"
         y="67.186638"
         style="stroke-width:0.84427232;stroke-miterlimit:4;stroke-dasharray:none" /></text>
    <text
       xml:space="preserve"
       style="font-style:normal;font-weight:normal;font-size:8.44272327px;line-height:1.25;font-family:sans-serif;letter-spacing:0px;word-spacing:0px;fill:#000000;fill-opacity:1;stroke:none;stroke-width:0.84427232;stroke-miterlimit:4;stroke-dasharray:none"
       x="1101.5304"
       y="61.422489"
       id="text1225"><tspan
         sodipodi:role="line"
         id="tspan1223"
         x="1101.5304"
         y="68.892326"
         style="stroke-width:0.84427232;stroke-miterlimit:4;stroke-dasharray:none" /></text>
    <path
       style="fill:#000000;fill-opacity:1;stroke:none;stroke-width:1.52570903"
       d="m 1335.5755,104.07723 v -0.47679 h -0.4767 c -1.3828,0 -1.4066,-0.16687 -1.4066,-0.71518 v -8.534424 c 0,-0.38143 0,-0.40527 -0.3576,-0.40527 -0.9536,0.977407 -2.2885,0.977407 -2.7654,0.977407 v 0.47678 c 0.3099,0 1.192,0 1.9787,-0.40526 v 7.890767 c 0,0.54831 -0.048,0.71518 -1.4065,0.71518 h -0.4768 v 0.47679 c 0.5244,-0.0477 1.8356,-0.0477 2.4555,-0.0477 0.5959,0 1.931,0 2.4554,0.0477 z m 0,0"
       id="path158"
       inkscape:connector-curvature="0" />
    <path
       style="fill:#000000;fill-opacity:1;stroke:none;stroke-width:1.52570903"
       d="m 1336.2311,253.93483 c 0,-1.23964 -0.9775,-2.4316 -2.5509,-2.76535 1.2396,-0.40527 2.1217,-1.45419 2.1217,-2.66999 0,-1.23964 -1.335,-2.09785 -2.7891,-2.09785 -1.5258,0 -2.6939,0.90588 -2.6939,2.074 0,0.50063 0.3338,0.78671 0.7867,0.78671 0.4529,0 0.7629,-0.33376 0.7629,-0.78671 0,-0.73901 -0.7153,-0.73901 -0.9298,-0.73901 0.453,-0.76285 1.4542,-0.95356 2.0025,-0.95356 0.6436,0 1.478,0.33374 1.478,1.69257 0,0.19073 -0.048,1.07278 -0.4291,1.74027 -0.4529,0.73901 -0.9773,0.78669 -1.3588,0.78669 -0.1192,0.0239 -0.4768,0.0477 -0.596,0.0477 -0.1192,0.0238 -0.2145,0.0477 -0.2145,0.19072 0,0.16687 0.095,0.16687 0.3575,0.16687 h 0.6675 c 1.2397,0 1.8118,1.02509 1.8118,2.52696 0,2.074 -1.0489,2.50311 -1.7164,2.50311 -0.6675,0 -1.8117,-0.26223 -2.3363,-1.14428 0.5246,0.0716 1.0013,-0.26223 1.0013,-0.83437 0,-0.5483 -0.4053,-0.85821 -0.8344,-0.85821 -0.3814,0 -0.8582,0.21455 -0.8582,0.88205 0,1.38268 1.4065,2.38392 3.0753,2.38392 1.8595,0 3.2422,-1.38267 3.2422,-2.93222 z m 0,0"
       id="path162"
       inkscape:connector-curvature="0" />
    <path
       style="fill:#000000;fill-opacity:1;stroke:none;stroke-width:1.52570903"
       d="m 1497.9481,101.43104 h -0.3577 c -0.095,0.45294 -0.1906,1.12043 -0.3575,1.35883 -0.095,0.1192 -1.0967,0.1192 -1.4304,0.1192 h -2.7415 l 1.6211,-1.57339 c 2.36,-2.097847 3.266,-2.908377 3.266,-4.434097 0,-1.74025 -1.3589,-2.956047 -3.2184,-2.956047 -1.7164,0 -2.8368,1.406497 -2.8368,2.765337 0,0.83438 0.7629,0.83438 0.8105,0.83438 0.2622,0 0.7867,-0.16688 0.7867,-0.81054 0,-0.38143 -0.286,-0.78669 -0.8105,-0.78669 -0.1192,0 -0.1431,0 -0.1908,0.0239 0.3338,-1.00124 1.1681,-1.549547 2.0502,-1.549547 1.3827,0 2.0263,1.239637 2.0263,2.479267 0,1.2158 -0.7389,2.40777 -1.5972,3.361337 l -2.9084,3.24213 c -0.1668,0.16687 -0.1668,0.21455 -0.1668,0.57214 h 5.6499 z m 0,0"
       id="path166"
       inkscape:connector-curvature="0" />
    <path
       style="fill:#000000;fill-opacity:1;stroke:none;stroke-width:1.52570903"
       d="m 1498.2818,254.28051 v -0.47678 h -1.5019 v -6.91337 c 0,-0.30991 0,-0.40527 -0.2623,-0.40527 -0.1192,0 -0.1668,0 -0.286,0.19071 l -4.6725,7.12793 v 0.47678 h 4.0527 v 1.31115 c 0,0.54831 -0.048,0.71518 -1.1681,0.71518 h -0.3099 v 0.47679 c 0.6198,-0.0477 1.4065,-0.0477 2.0501,-0.0477 0.6437,0 1.4304,0 2.0741,0.0477 v -0.47679 h -0.3338 c -1.1204,0 -1.1443,-0.16687 -1.1443,-0.71518 v -1.31115 z m -2.5985,-0.47678 h -3.6951 l 3.6951,-5.67373 z m 0,0"
       id="path170"
       inkscape:connector-curvature="0" />
    <path
       style="fill:#000000;fill-opacity:1;stroke:none;stroke-width:1.52570903"
       d="m 1320.2248,430.16326 c 0,-1.81178 -1.2396,-3.33749 -2.8845,-3.33749 -0.7152,0 -1.3827,0.23839 -1.931,0.7867 v -2.9799 c 0.3099,0.0953 0.8106,0.1907 1.2873,0.1907 1.8833,0 2.9561,-1.38267 2.9561,-1.57338 0,-0.0954 -0.048,-0.16688 -0.1669,-0.16688 0,0 -0.048,0 -0.1192,0.0477 -0.3099,0.14304 -1.0489,0.45294 -2.074,0.45294 -0.596,0 -1.3111,-0.11919 -2.0263,-0.4291 -0.1192,-0.0477 -0.1669,-0.0477 -0.1669,-0.0477 -0.1668,0 -0.1668,0.11919 -0.1668,0.35759 v 4.50561 c 0,0.26222 0,0.38142 0.2145,0.38142 0.1192,0 0.143,-0.0239 0.2146,-0.1192 0.1668,-0.23839 0.7151,-1.07277 1.9547,-1.07277 0.7868,0 1.1682,0.69135 1.2873,0.97742 0.2385,0.57214 0.2861,1.14428 0.2861,1.90713 0,0.54831 0,1.45419 -0.3814,2.09785 -0.3576,0.59598 -0.9297,0.97741 -1.6211,0.97741 -1.0965,0 -1.9786,-0.81054 -2.2409,-1.69259 0.048,0 0.095,0.0239 0.2623,0.0239 0.5006,0 0.7629,-0.38144 0.7629,-0.73903 0,-0.38143 -0.2623,-0.76285 -0.7629,-0.76285 -0.2146,0 -0.739,0.1192 -0.739,0.81053 0,1.31116 1.0489,2.78919 2.7415,2.78919 1.764,0 3.3136,-1.45419 3.3136,-3.38517 z m 0,0"
       id="path178"
       inkscape:connector-curvature="0" />
    <path
       style="fill:#000000;fill-opacity:1;stroke:none;stroke-width:1.52570903"
       d="m 1482.204,430.1156 c 0,-1.93097 -1.3588,-3.38517 -3.0514,-3.38517 -1.0251,0 -1.5972,0.76285 -1.9072,1.50186 v -0.38142 c 0,-3.83811 1.8833,-4.38641 2.6701,-4.38641 0.3576,0 1.0012,0.0954 1.335,0.61981 -0.2385,0 -0.8344,0 -0.8344,0.66751 0,0.47678 0.3576,0.71517 0.6914,0.71517 0.2383,0 0.715,-0.14303 0.715,-0.73902 0,-0.90589 -0.6674,-1.6449 -1.9309,-1.6449 -1.9548,0 -4.0049,1.95482 -4.0049,5.31614 0,4.0765 1.764,5.14927 3.1706,5.14927 1.6925,0 3.1467,-1.43035 3.1467,-3.43284 z m -1.3826,-0.0239 c 0,0.73901 0,1.50187 -0.2623,2.05017 -0.453,0.90589 -1.1443,0.97741 -1.5018,0.97741 -0.9536,0 -1.4066,-0.9059 -1.5019,-1.14428 -0.2861,-0.71518 -0.2861,-1.93098 -0.2861,-2.19321 0,-1.19196 0.5006,-2.71767 1.8594,-2.71767 0.2623,0 0.9537,0 1.4304,0.95357 0.2623,0.5483 0.2623,1.33499 0.2623,2.07401 z m 0,0"
       id="path174"
       inkscape:connector-curvature="0" />
    <g
       id="g1187"
       transform="matrix(0.8232798,0,0,0.8232798,-111.61069,15.68323)">
      <path
         inkscape:connector-curvature="0"
         id="path1131"
         d="M 1694.4225,-36.174935 1815.1572,84.559654"
         style="fill:none;stroke:#000000;stroke-width:1.24664056;stroke-linecap:butt;stroke-linejoin:miter;stroke-miterlimit:4;stroke-dasharray:7.47984313, 7.47984313;stroke-dashoffset:0;stroke-opacity:1" />
      <path
         inkscape:connector-curvature="0"
         id="path1133"
         d="M 1815.1572,-36.174935 1694.4225,84.559654"
         style="fill:none;stroke:#000000;stroke-width:1.24664056;stroke-linecap:butt;stroke-linejoin:miter;stroke-miterlimit:4;stroke-dasharray:7.47984313, 7.47984313;stroke-dashoffset:0;stroke-opacity:1" />
      <path
         inkscape:connector-curvature="0"
         id="path1405"
         d="m 1694.4225,84.559654 h 120.7347"
         style="fill:none;stroke:#000000;stroke-width:1.24664056;stroke-linecap:butt;stroke-linejoin:miter;stroke-miterlimit:4;stroke-dasharray:none;stroke-opacity:1;marker-mid:url(#marker2331);paint-order:normal" />
      <path
         inkscape:connector-curvature="0"
         id="path1407"
         d="M 1815.1572,-36.174935 V 84.559654"
         style="fill:none;stroke:#000000;stroke-width:1.24664056;stroke-linecap:butt;stroke-linejoin:miter;stroke-miterlimit:4;stroke-dasharray:none;stroke-opacity:1;marker-mid:url(#marker2239);paint-order:normal" />
      <path
         inkscape:connector-curvature="0"
         id="path1409"
         d="m 1694.4225,-36.174935 h 120.7347"
         style="fill:none;stroke:#000000;stroke-width:1.24664056;stroke-linecap:butt;stroke-linejoin:miter;stroke-miterlimit:4;stroke-dasharray:none;stroke-opacity:1;marker-mid:url(#SquareS);paint-order:normal" />
      <path
         inkscape:connector-curvature="0"
         id="path1411"
         d="M 1694.4225,84.559654 V -36.174935"
         style="fill:none;stroke:#000000;stroke-width:1.24664056;stroke-linecap:butt;stroke-linejoin:miter;stroke-miterlimit:4;stroke-dasharray:none;stroke-opacity:1;marker-mid:url(#marker2249);paint-order:normal" />
      <circle
         r="3.1575472"
         cy="-36.174938"
         cx="1694.4225"
         style="fill:#000000;stroke:none;stroke-width:2.10503149"
         id="path1088" />
      <circle
         r="3.1575472"
         cy="-36.174938"
         cx="1815.1571"
         style="fill:#000000;stroke:none;stroke-width:2.10503149"
         id="path1090" />
      <circle
         r="3.1575472"
         cy="84.559654"
         cx="1815.1571"
         style="fill:#000000;stroke:none;stroke-width:2.10503149"
         id="path1092" />
      <circle
         r="3.1575472"
         cy="84.559654"
         cx="1694.4225"
         style="fill:#000000;stroke:none;stroke-width:2.10503149"
         id="path1094" />
    </g>
    <g
       id="g1196"
       transform="matrix(0.8232798,0,0,0.8232798,-115.69247,18.344343)">
      <path
         inkscape:transform-center-x="-3.3452133e-05"
         inkscape:transform-center-y="-18.494949"
         d="m 2022.246,81.327328 -131.8177,-10e-7 65.9089,-114.157504 z"
         inkscape:randomized="0"
         inkscape:rounded="0"
         inkscape:flatsided="true"
         sodipodi:arg2="1.5707963"
         sodipodi:arg1="0.52359878"
         sodipodi:r2="38.052498"
         sodipodi:r1="76.105003"
         sodipodi:cy="43.274826"
         sodipodi:cx="1956.3372"
         sodipodi:sides="3"
         id="path817"
         style="fill:none;fill-opacity:1;stroke:#000000;stroke-width:1.24664056;stroke-linecap:butt;stroke-miterlimit:4;stroke-dasharray:none;stroke-dashoffset:0;stroke-opacity:1;paint-order:normal"
         sodipodi:type="star" />
      <path
         inkscape:connector-curvature="0"
         id="path837"
         d="m 1890.43,81.327313 65.995,-37.534902 -0.087,-76.622598"
         style="fill:none;stroke:#000000;stroke-width:1.24664056;stroke-linecap:butt;stroke-linejoin:miter;stroke-miterlimit:4;stroke-dasharray:7.47984313, 7.47984313;stroke-dashoffset:0;stroke-opacity:1" />
      <path
         inkscape:connector-curvature="0"
         id="path839"
         d="m 1956.425,43.792411 65.8224,37.534902"
         style="fill:none;stroke:#000000;stroke-width:1.24664056;stroke-linecap:butt;stroke-linejoin:miter;stroke-miterlimit:4;stroke-dasharray:7.47984313, 7.47984313;stroke-dashoffset:0;stroke-opacity:1" />
      <circle
         r="3.1575472"
         cy="-32.830177"
         cx="1956.3372"
         style="fill:#000000;stroke:none;stroke-width:2.10503149"
         id="path1096" />
      <circle
         r="3.1575472"
         cy="43.792408"
         cx="1956.4249"
         style="fill:#000000;stroke:none;stroke-width:2.10503149"
         id="path1098" />
      <circle
         r="3.1575472"
         cy="81.327324"
         cx="1890.4282"
         style="fill:#000000;stroke:none;stroke-width:2.10503149"
         id="path1100" />
      <circle
         r="3.1575472"
         cy="81.327324"
         cx="2022.2461"
         style="fill:#000000;stroke:none;stroke-width:2.10503149"
         id="path1102" />
    </g>
    <g
       id="g1166"
       transform="matrix(0.8232798,0,0,0.8232798,-112.71693,7.7123307)">
      <path
         sodipodi:nodetypes="cc"
         inkscape:connector-curvature="0"
         id="path1630"
         d="m 1890.6501,263.41805 125.1832,-0.38304"
         style="fill:none;stroke:#000000;stroke-width:1.24664056;stroke-linecap:butt;stroke-linejoin:miter;stroke-miterlimit:4;stroke-dasharray:none;stroke-opacity:1" />
      <path
         inkscape:connector-curvature="0"
         id="path1851"
         d="m 1890.6504,263.41803 62.8245,17.38374 62.3584,-17.76678"
         style="fill:none;stroke:#000000;stroke-width:1.24664056;stroke-linecap:butt;stroke-linejoin:miter;stroke-miterlimit:4;stroke-dasharray:7.47984313, 7.47984313;stroke-dashoffset:0;stroke-opacity:1" />
      <path
         inkscape:connector-curvature="0"
         id="path1853"
         d="m 1953.4749,280.80177 0.021,-126.22048"
         style="fill:none;stroke:#000000;stroke-width:1.24664056;stroke-linecap:butt;stroke-linejoin:miter;stroke-miterlimit:4;stroke-dasharray:none;stroke-opacity:1" />
      <path
         inkscape:connector-curvature="0"
         id="path1853-3"
         d="m 1890.3664,263.88487 63.1217,-109.30358"
         style="fill:none;stroke:#000000;stroke-width:1.24664056;stroke-linecap:butt;stroke-linejoin:miter;stroke-miterlimit:4;stroke-dasharray:none;stroke-opacity:1" />
      <path
         inkscape:connector-curvature="0"
         id="path1853-3-6"
         d="m 1952.7115,153.73142 63.1218,109.30357"
         style="fill:none;stroke:#000000;stroke-width:1.24664056;stroke-linecap:butt;stroke-linejoin:miter;stroke-miterlimit:4;stroke-dasharray:none;stroke-opacity:1" />
      <path
         inkscape:connector-curvature="0"
         id="path1853-3-7"
         d="m 1889.6126,263.0219 126.2207,0.0126"
         style="fill:none;stroke:#000000;stroke-width:1.24664056;stroke-linecap:butt;stroke-linejoin:miter;stroke-miterlimit:4;stroke-dasharray:none;stroke-opacity:1" />
      <circle
         r="3.1575472"
         cy="280.80176"
         cx="1953.4749"
         style="fill:#000000;stroke:none;stroke-width:2.10503149"
         id="path1104" />
      <circle
         r="3.1575472"
         cy="263.02191"
         cx="1889.6125"
         style="fill:#000000;stroke:none;stroke-width:2.10503149"
         id="path1106" />
      <circle
         r="3.1575472"
         cy="154.5813"
         cx="1953.4958"
         style="fill:#000000;stroke:none;stroke-width:2.10503149"
         id="path1108" />
      <circle
         r="3.1575472"
         cy="263.03452"
         cx="2015.8333"
         style="fill:#000000;stroke:none;stroke-width:2.10503149"
         id="path1110" />
    </g>
    <g
       id="g1175"
       transform="matrix(0.8232798,0,0,0.8232798,-112.56065,13.092267)">
      <path
         inkscape:connector-curvature="0"
         id="path919"
         d="m 1854.3053,217.47788 -98.3618,56.78912 -98.3616,-56.78913 98.3616,-56.78914 z"
         style="fill:none;stroke:#000000;stroke-width:1.24664056;stroke-linecap:butt;stroke-linejoin:miter;stroke-miterlimit:4;stroke-dasharray:none;stroke-opacity:1" />
      <path
         inkscape:connector-curvature="0"
         id="path921"
         d="M 1854.3053,217.47788 H 1657.5819"
         style="fill:none;stroke:#000000;stroke-width:1.24664056;stroke-linecap:butt;stroke-linejoin:miter;stroke-miterlimit:4;stroke-dasharray:7.47984313, 7.47984313;stroke-dashoffset:0;stroke-opacity:1" />
      <path
         inkscape:connector-curvature="0"
         id="path923"
         d="M 1755.9435,160.68874 V 274.267"
         style="fill:none;stroke:#000000;stroke-width:1.24664056;stroke-linecap:butt;stroke-linejoin:miter;stroke-miterlimit:4;stroke-dasharray:7.47984313, 7.47984313;stroke-dashoffset:0;stroke-opacity:1" />
      <circle
         r="3.1575472"
         cy="217.47789"
         cx="1854.3053"
         style="fill:#000000;stroke:none;stroke-width:2.10503149"
         id="path1112" />
      <circle
         r="3.1575472"
         cy="160.68875"
         cx="1755.9435"
         style="fill:#000000;stroke:none;stroke-width:2.10503149"
         id="path1114" />
      <circle
         r="3.1575472"
         cy="217.47787"
         cx="1657.582"
         style="fill:#000000;stroke:none;stroke-width:2.10503149"
         id="path1116" />
      <circle
         r="3.1575472"
         cy="274.267"
         cx="1755.9435"
         style="fill:#000000;stroke:none;stroke-width:2.10503149"
         id="path1118" />
    </g>
    <g
       id="g1154"
       transform="matrix(0.8232798,0,0,0.8232798,-127.52635,15.683224)">
      <path
         sodipodi:nodetypes="cc"
         inkscape:connector-curvature="0"
         id="path1630-1"
         d="m 1712.9522,487.20464 83.0854,-0.25422"
         style="fill:none;stroke:#000000;stroke-width:1.24664056;stroke-linecap:butt;stroke-linejoin:miter;stroke-miterlimit:4;stroke-dasharray:none;stroke-opacity:1" />
      <path
         inkscape:connector-curvature="0"
         id="path1857"
         d="m 1712.9522,487.20462 41.6976,-155.74499 41.3878,155.49079"
         style="fill:none;stroke:#000000;stroke-width:1.24664056;stroke-linecap:butt;stroke-linejoin:miter;stroke-miterlimit:4;stroke-dasharray:7.47984313, 7.47984313;stroke-dashoffset:0;stroke-opacity:1" />
      <path
         inkscape:connector-curvature="0"
         id="path1868"
         d="m 1754.6577,414.96823 -0.021,-83.5086"
         style="fill:none;stroke:#000000;stroke-width:1.24664056;stroke-linecap:butt;stroke-linejoin:miter;stroke-miterlimit:4;stroke-dasharray:none;stroke-opacity:1" />
      <path
         inkscape:connector-curvature="0"
         id="path1853-3-7-5"
         d="m 1712.9522,487.20462 83.7741,0.006"
         style="fill:none;stroke:#000000;stroke-width:1.24664056;stroke-linecap:butt;stroke-linejoin:miter;stroke-miterlimit:4;stroke-dasharray:none;stroke-opacity:1" />
      <path
         inkscape:connector-curvature="0"
         id="path1853-3-7-5-3"
         d="m 1754.6579,414.96832 41.8799,72.55498"
         style="fill:none;stroke:#000000;stroke-width:1.24664056;stroke-linecap:butt;stroke-linejoin:miter;stroke-miterlimit:4;stroke-dasharray:none;stroke-opacity:1" />
      <path
         inkscape:connector-curvature="0"
         id="path1853-3-7-5-3-5"
         d="m 1712.9522,487.20462 41.8799,-72.55498"
         style="fill:none;stroke:#000000;stroke-width:1.24664056;stroke-linecap:butt;stroke-linejoin:miter;stroke-miterlimit:4;stroke-dasharray:none;stroke-opacity:1" />
      <circle
         r="3.1575472"
         cy="487.20462"
         cx="1712.952"
         style="fill:#000000;stroke:none;stroke-width:2.10503149"
         id="path1120" />
      <circle
         r="3.1575472"
         cy="414.96823"
         cx="1754.6577"
         style="fill:#000000;stroke:none;stroke-width:2.10503149"
         id="path1122" />
      <circle
         r="3.1575472"
         cy="331.45966"
         cx="1754.6498"
         style="fill:#000000;stroke:none;stroke-width:2.10503149"
         id="path1124" />
      <circle
         r="3.1575472"
         cy="487.21094"
         cx="1796.7263"
         style="fill:#000000;stroke:none;stroke-width:2.10503149"
         id="path1126" />
    </g>
    <g
       id="g1142"
       transform="matrix(0.8232798,0,0,0.8232798,-124.97275,20.997383)">
      <path
         inkscape:connector-curvature="0"
         id="path1452"
         d="m 1850.3756,365.78865 37.9721,114.96744 121.0744,-0.58659 36.8562,-115.33001"
         style="fill:none;stroke:#000000;stroke-width:1.24664056;stroke-linecap:butt;stroke-linejoin:miter;stroke-miterlimit:4;stroke-dasharray:none;stroke-opacity:1" />
      <path
         inkscape:connector-curvature="0"
         id="path1458"
         d="m 1888.3477,480.75609 157.9306,-115.9166 -195.9027,0.94916 159.0465,114.38085"
         style="fill:none;stroke:#000000;stroke-width:1.24664056;stroke-linecap:butt;stroke-linejoin:miter;stroke-miterlimit:4;stroke-dasharray:7.47984313, 7.47984313;stroke-dashoffset:0;stroke-opacity:1" />
      <circle
         r="3.1575472"
         cy="480.75607"
         cx="1888.3475"
         style="fill:#000000;stroke:none;stroke-width:2.10503149"
         id="path1128" />
      <circle
         r="3.1575472"
         cy="365.78867"
         cx="1850.3756"
         style="fill:#000000;stroke:none;stroke-width:2.10503149"
         id="path1130" />
      <circle
         r="3.1575472"
         cy="364.83951"
         cx="2046.2781"
         style="fill:#000000;stroke:none;stroke-width:2.10503149"
         id="path1132" />
      <circle
         r="3.1575472"
         cy="480.16953"
         cx="2009.4221"
         style="fill:#000000;stroke:none;stroke-width:2.10503149"
         id="path1134" />
    </g>
  </g>
</svg>
