<?xml version="1.0" encoding="UTF-8" standalone="no"?>
<!-- Created with Inkscape (http://www.inkscape.org/) -->

<svg
   xmlns:dc="http://purl.org/dc/elements/1.1/"
   xmlns:cc="http://creativecommons.org/ns#"
   xmlns:rdf="http://www.w3.org/1999/02/22-rdf-syntax-ns#"
   xmlns:svg="http://www.w3.org/2000/svg"
   xmlns="http://www.w3.org/2000/svg"
   xmlns:sodipodi="http://sodipodi.sourceforge.net/DTD/sodipodi-0.dtd"
   xmlns:inkscape="http://www.inkscape.org/namespaces/inkscape"
   width="210mm"
   height="297mm"
   viewBox="0 0 210 297"
   version="1.1"
   id="svg2076"
   inkscape:version="0.92.4 5da689c313, 2019-01-14"
   sodipodi:docname="Fig_22_1.svg">
  <defs
     id="defs2070" />
  <sodipodi:namedview
     id="base"
     pagecolor="#ffffff"
     bordercolor="#666666"
     borderopacity="1.0"
     inkscape:pageopacity="0.0"
     inkscape:pageshadow="2"
     inkscape:zoom="0.98994949"
     inkscape:cx="350.59033"
     inkscape:cy="901.48128"
     inkscape:document-units="mm"
     inkscape:current-layer="layer1"
     showgrid="false"
     inkscape:window-width="1366"
     inkscape:window-height="744"
     inkscape:window-x="0"
     inkscape:window-y="0"
     inkscape:window-maximized="1" />
  <metadata
     id="metadata2073">
    <rdf:RDF>
      <cc:Work
         rdf:about="">
        <dc:format>image/svg+xml</dc:format>
        <dc:type
           rdf:resource="http://purl.org/dc/dcmitype/StillImage" />
        <dc:title></dc:title>
      </cc:Work>
    </rdf:RDF>
  </metadata>
  <g
     inkscape:label="Layer 1"
     inkscape:groupmode="layer"
     id="layer1">
    <g
       transform="translate(10.807051,2.8279496)"
       id="g2708"
       style="fill:none">
      <rect
         style="opacity:1;fill:none;fill-opacity:1;stroke:#000000;stroke-width:0.29890543;stroke-linecap:round;stroke-linejoin:round;stroke-miterlimit:4;stroke-dasharray:none;stroke-dashoffset:0;stroke-opacity:1;paint-order:normal"
         id="rect2702"
         width="19.935926"
         height="19.935926"
         x="8.1273727"
         y="16.209013"
         inkscape:tile-x0="8.4110882"
         inkscape:tile-y0="10.513683" />
      <text
         id="text2706"
         y="28.105799"
         x="16.365467"
         style="font-style:normal;font-weight:normal;font-size:5.29166651px;line-height:1.25;font-family:sans-serif;letter-spacing:0px;word-spacing:0px;fill:none;fill-opacity:1;stroke:none;stroke-width:0.26458332"
         xml:space="preserve"><tspan
           style="fill:none;stroke-width:0.26458332"
           y="28.105799"
           x="16.365467"
           id="tspan2704"
           sodipodi:role="line">1</tspan></text>
    </g>
    <g
       style="fill:none"
       id="g2772"
       transform="translate(30.742977,2.8279496)">
      <rect
         inkscape:tile-y0="10.513683"
         inkscape:tile-x0="8.4110882"
         y="16.209013"
         x="8.1273727"
         height="19.935926"
         width="19.935926"
         id="rect2766"
         style="opacity:1;fill:none;fill-opacity:1;stroke:#000000;stroke-width:0.29890543;stroke-linecap:round;stroke-linejoin:round;stroke-miterlimit:4;stroke-dasharray:none;stroke-dashoffset:0;stroke-opacity:1;paint-order:normal" />
      <text
         xml:space="preserve"
         style="font-style:normal;font-weight:normal;font-size:5.29166651px;line-height:1.25;font-family:sans-serif;letter-spacing:0px;word-spacing:0px;fill:none;fill-opacity:1;stroke:none;stroke-width:0.26458332"
         x="16.365467"
         y="28.105799"
         id="text2770"><tspan
           sodipodi:role="line"
           id="tspan2768"
           x="16.365467"
           y="28.105799"
           style="fill:none;stroke-width:0.26458332">1</tspan></text>
    </g>
    <g
       transform="translate(50.678903,2.8279496)"
       id="g2780"
       style="fill:none">
      <rect
         style="opacity:1;fill:none;fill-opacity:1;stroke:#000000;stroke-width:0.29890543;stroke-linecap:round;stroke-linejoin:round;stroke-miterlimit:4;stroke-dasharray:none;stroke-dashoffset:0;stroke-opacity:1;paint-order:normal"
         id="rect2774"
         width="19.935926"
         height="19.935926"
         x="8.1273727"
         y="16.209013"
         inkscape:tile-x0="8.4110882"
         inkscape:tile-y0="10.513683" />
      <text
         id="text2778"
         y="28.105799"
         x="16.365467"
         style="font-style:normal;font-weight:normal;font-size:5.29166651px;line-height:1.25;font-family:sans-serif;letter-spacing:0px;word-spacing:0px;fill:none;fill-opacity:1;stroke:none;stroke-width:0.26458332"
         xml:space="preserve"><tspan
           style="fill:none;stroke-width:0.26458332"
           y="28.105799"
           x="16.365467"
           id="tspan2776"
           sodipodi:role="line">1</tspan></text>
    </g>
    <g
       style="fill:none"
       id="g2788"
       transform="translate(70.614829,2.8279496)">
      <rect
         inkscape:tile-y0="10.513683"
         inkscape:tile-x0="8.4110882"
         y="16.209013"
         x="8.1273727"
         height="19.935926"
         width="19.935926"
         id="rect2782"
         style="opacity:1;fill:none;fill-opacity:1;stroke:#000000;stroke-width:0.29890543;stroke-linecap:round;stroke-linejoin:round;stroke-miterlimit:4;stroke-dasharray:none;stroke-dashoffset:0;stroke-opacity:1;paint-order:normal" />
      <text
         xml:space="preserve"
         style="font-style:normal;font-weight:normal;font-size:5.29166651px;line-height:1.25;font-family:sans-serif;letter-spacing:0px;word-spacing:0px;fill:none;fill-opacity:1;stroke:none;stroke-width:0.26458332"
         x="16.365467"
         y="28.105799"
         id="text2786"><tspan
           sodipodi:role="line"
           id="tspan2784"
           x="16.365467"
           y="28.105799"
           style="fill:none;stroke-width:0.26458332">1</tspan></text>
    </g>
    <g
       style="fill:none"
       id="g2796"
       transform="translate(10.807051,22.763876)">
      <rect
         inkscape:tile-y0="10.513683"
         inkscape:tile-x0="8.4110882"
         y="16.209013"
         x="8.1273727"
         height="19.935926"
         width="19.935926"
         id="rect2790"
         style="opacity:1;fill:none;fill-opacity:1;stroke:#000000;stroke-width:0.29890543;stroke-linecap:round;stroke-linejoin:round;stroke-miterlimit:4;stroke-dasharray:none;stroke-dashoffset:0;stroke-opacity:1;paint-order:normal" />
      <text
         xml:space="preserve"
         style="font-style:normal;font-weight:normal;font-size:5.29166651px;line-height:1.25;font-family:sans-serif;letter-spacing:0px;word-spacing:0px;fill:none;fill-opacity:1;stroke:none;stroke-width:0.26458332"
         x="16.365467"
         y="28.105799"
         id="text2794"><tspan
           sodipodi:role="line"
           id="tspan2792"
           x="16.365467"
           y="28.105799"
           style="fill:none;stroke-width:0.26458332">1</tspan></text>
    </g>
    <g
       transform="translate(30.742977,22.763876)"
       id="g2804"
       style="fill:none">
      <rect
         style="opacity:1;fill:none;fill-opacity:1;stroke:#000000;stroke-width:0.29890543;stroke-linecap:round;stroke-linejoin:round;stroke-miterlimit:4;stroke-dasharray:none;stroke-dashoffset:0;stroke-opacity:1;paint-order:normal"
         id="rect2798"
         width="19.935926"
         height="19.935926"
         x="8.1273727"
         y="16.209013"
         inkscape:tile-x0="8.4110882"
         inkscape:tile-y0="10.513683" />
      <text
         id="text2802"
         y="28.105799"
         x="16.365467"
         style="font-style:normal;font-weight:normal;font-size:5.29166651px;line-height:1.25;font-family:sans-serif;letter-spacing:0px;word-spacing:0px;fill:none;fill-opacity:1;stroke:none;stroke-width:0.26458332"
         xml:space="preserve"><tspan
           style="fill:none;stroke-width:0.26458332"
           y="28.105799"
           x="16.365467"
           id="tspan2800"
           sodipodi:role="line">1</tspan></text>
    </g>
    <g
       transform="translate(70.614829,22.763876)"
       id="g2820"
       style="fill:none">
      <rect
         style="opacity:1;fill:none;fill-opacity:1;stroke:#000000;stroke-width:0.29890543;stroke-linecap:round;stroke-linejoin:round;stroke-miterlimit:4;stroke-dasharray:none;stroke-dashoffset:0;stroke-opacity:1;paint-order:normal"
         id="rect2814"
         width="19.935926"
         height="19.935926"
         x="8.1273727"
         y="16.209013"
         inkscape:tile-x0="8.4110882"
         inkscape:tile-y0="10.513683" />
      <text
         id="text2818"
         y="28.105799"
         x="16.365467"
         style="font-style:normal;font-weight:normal;font-size:5.29166651px;line-height:1.25;font-family:sans-serif;letter-spacing:0px;word-spacing:0px;fill:none;fill-opacity:1;stroke:none;stroke-width:0.26458332"
         xml:space="preserve"><tspan
           style="fill:none;stroke-width:0.26458332"
           y="28.105799"
           x="16.365467"
           id="tspan2816"
           sodipodi:role="line">1</tspan></text>
    </g>
    <g
       transform="translate(10.807051,42.699802)"
       id="g2828"
       style="fill:none">
      <rect
         style="opacity:1;fill:none;fill-opacity:1;stroke:#000000;stroke-width:0.29890543;stroke-linecap:round;stroke-linejoin:round;stroke-miterlimit:4;stroke-dasharray:none;stroke-dashoffset:0;stroke-opacity:1;paint-order:normal"
         id="rect2822"
         width="19.935926"
         height="19.935926"
         x="8.1273727"
         y="16.209013"
         inkscape:tile-x0="8.4110882"
         inkscape:tile-y0="10.513683" />
      <text
         id="text2826"
         y="28.105799"
         x="16.365467"
         style="font-style:normal;font-weight:normal;font-size:5.29166651px;line-height:1.25;font-family:sans-serif;letter-spacing:0px;word-spacing:0px;fill:none;fill-opacity:1;stroke:none;stroke-width:0.26458332"
         xml:space="preserve"><tspan
           style="fill:none;stroke-width:0.26458332"
           y="28.105799"
           x="16.365467"
           id="tspan2824"
           sodipodi:role="line">1</tspan></text>
    </g>
    <g
       transform="translate(50.678903,42.699802)"
       id="g2844"
       style="fill:none">
      <rect
         style="opacity:1;fill:none;fill-opacity:1;stroke:#000000;stroke-width:0.29890543;stroke-linecap:round;stroke-linejoin:round;stroke-miterlimit:4;stroke-dasharray:none;stroke-dashoffset:0;stroke-opacity:1;paint-order:normal"
         id="rect2838"
         width="19.935926"
         height="19.935926"
         x="8.1273727"
         y="16.209013"
         inkscape:tile-x0="8.4110882"
         inkscape:tile-y0="10.513683" />
      <text
         id="text2842"
         y="28.105799"
         x="16.365467"
         style="font-style:normal;font-weight:normal;font-size:5.29166651px;line-height:1.25;font-family:sans-serif;letter-spacing:0px;word-spacing:0px;fill:none;fill-opacity:1;stroke:none;stroke-width:0.26458332"
         xml:space="preserve"><tspan
           style="fill:none;stroke-width:0.26458332"
           y="28.105799"
           x="16.365467"
           id="tspan2840"
           sodipodi:role="line">1</tspan></text>
    </g>
    <g
       style="fill:none"
       id="g2852"
       transform="translate(70.614829,42.699802)">
      <rect
         inkscape:tile-y0="10.513683"
         inkscape:tile-x0="8.4110882"
         y="16.209013"
         x="8.1273727"
         height="19.935926"
         width="19.935926"
         id="rect2846"
         style="opacity:1;fill:none;fill-opacity:1;stroke:#000000;stroke-width:0.29890543;stroke-linecap:round;stroke-linejoin:round;stroke-miterlimit:4;stroke-dasharray:none;stroke-dashoffset:0;stroke-opacity:1;paint-order:normal" />
      <text
         xml:space="preserve"
         style="font-style:normal;font-weight:normal;font-size:5.29166651px;line-height:1.25;font-family:sans-serif;letter-spacing:0px;word-spacing:0px;fill:none;fill-opacity:1;stroke:none;stroke-width:0.26458332"
         x="16.365467"
         y="28.105799"
         id="text2850"><tspan
           sodipodi:role="line"
           id="tspan2848"
           x="16.365467"
           y="28.105799"
           style="fill:none;stroke-width:0.26458332">1</tspan></text>
    </g>
    <g
       style="fill:none"
       id="g2860"
       transform="translate(10.807051,62.635728)">
      <rect
         inkscape:tile-y0="10.513683"
         inkscape:tile-x0="8.4110882"
         y="16.209013"
         x="8.1273727"
         height="19.935926"
         width="19.935926"
         id="rect2854"
         style="opacity:1;fill:none;fill-opacity:1;stroke:#000000;stroke-width:0.29890543;stroke-linecap:round;stroke-linejoin:round;stroke-miterlimit:4;stroke-dasharray:none;stroke-dashoffset:0;stroke-opacity:1;paint-order:normal" />
      <text
         xml:space="preserve"
         style="font-style:normal;font-weight:normal;font-size:5.29166651px;line-height:1.25;font-family:sans-serif;letter-spacing:0px;word-spacing:0px;fill:none;fill-opacity:1;stroke:none;stroke-width:0.26458332"
         x="16.365467"
         y="28.105799"
         id="text2858"><tspan
           sodipodi:role="line"
           id="tspan2856"
           x="16.365467"
           y="28.105799"
           style="fill:none;stroke-width:0.26458332">1</tspan></text>
    </g>
    <g
       transform="translate(30.742977,62.635728)"
       id="g2868"
       style="fill:none">
      <rect
         style="opacity:1;fill:none;fill-opacity:1;stroke:#000000;stroke-width:0.29890543;stroke-linecap:round;stroke-linejoin:round;stroke-miterlimit:4;stroke-dasharray:none;stroke-dashoffset:0;stroke-opacity:1;paint-order:normal"
         id="rect2862"
         width="19.935926"
         height="19.935926"
         x="8.1273727"
         y="16.209013"
         inkscape:tile-x0="8.4110882"
         inkscape:tile-y0="10.513683" />
      <text
         id="text2866"
         y="28.105799"
         x="16.365467"
         style="font-style:normal;font-weight:normal;font-size:5.29166651px;line-height:1.25;font-family:sans-serif;letter-spacing:0px;word-spacing:0px;fill:none;fill-opacity:1;stroke:none;stroke-width:0.26458332"
         xml:space="preserve"><tspan
           style="fill:none;stroke-width:0.26458332"
           y="28.105799"
           x="16.365467"
           id="tspan2864"
           sodipodi:role="line">1</tspan></text>
    </g>
    <g
       style="fill:none"
       id="g2876"
       transform="translate(50.678903,62.635728)">
      <rect
         inkscape:tile-y0="10.513683"
         inkscape:tile-x0="8.4110882"
         y="16.209013"
         x="8.1273727"
         height="19.935926"
         width="19.935926"
         id="rect2870"
         style="opacity:1;fill:none;fill-opacity:1;stroke:#000000;stroke-width:0.29890543;stroke-linecap:round;stroke-linejoin:round;stroke-miterlimit:4;stroke-dasharray:none;stroke-dashoffset:0;stroke-opacity:1;paint-order:normal" />
      <text
         xml:space="preserve"
         style="font-style:normal;font-weight:normal;font-size:5.29166651px;line-height:1.25;font-family:sans-serif;letter-spacing:0px;word-spacing:0px;fill:none;fill-opacity:1;stroke:none;stroke-width:0.26458332"
         x="16.365467"
         y="28.105799"
         id="text2874"><tspan
           sodipodi:role="line"
           id="tspan2872"
           x="16.365467"
           y="28.105799"
           style="fill:none;stroke-width:0.26458332">1</tspan></text>
    </g>
    <g
       transform="translate(70.614829,62.635728)"
       id="g2884"
       style="fill:none">
      <rect
         style="opacity:1;fill:none;fill-opacity:1;stroke:#000000;stroke-width:0.29890543;stroke-linecap:round;stroke-linejoin:round;stroke-miterlimit:4;stroke-dasharray:none;stroke-dashoffset:0;stroke-opacity:1;paint-order:normal"
         id="rect2878"
         width="19.935926"
         height="19.935926"
         x="8.1273727"
         y="16.209013"
         inkscape:tile-x0="8.4110882"
         inkscape:tile-y0="10.513683" />
      <text
         id="text2882"
         y="28.105799"
         x="16.365467"
         style="font-style:normal;font-weight:normal;font-size:5.29166651px;line-height:1.25;font-family:sans-serif;letter-spacing:0px;word-spacing:0px;fill:none;fill-opacity:1;stroke:none;stroke-width:0.26458332"
         xml:space="preserve"><tspan
           style="fill:none;stroke-width:0.26458332"
           y="28.105799"
           x="16.365467"
           id="tspan2880"
           sodipodi:role="line">1</tspan></text>
    </g>
    <path
       id="path4106"
       d="m 33.07783,35.035995 c -0.009,-0.05164 -0.0264,-0.102875 -0.0579,-0.145188 -0.0524,-0.07355 -0.13931,-0.11779 -0.22795,-0.127845 -0.0801,-0.0033 -0.16033,-5.52e-4 -0.24049,-0.0018 -0.0549,-0.123099 -0.14197,-0.228689 -0.23705,-0.322919 -0.18824,-0.183434 -0.41325,-0.324103 -0.64488,-0.446016 -0.03,-0.01938 -0.0443,-0.05435 -0.0614,-0.08429 -0.0497,-0.09988 -0.0816,-0.208745 -0.0937,-0.319642 -0.0206,-0.163549 0.0167,-0.338002 0.11983,-0.468897 0.0906,-3.78e-4 0.18123,-3.78e-4 0.27184,9.6e-5 4.7e-4,0 10e-4,0 10e-4,-6.4e-5 l 0.0465,-0.0137 c 0.0829,-0.0074 0.16728,-0.03983 0.22163,-0.105135 0.0419,-0.05073 0.0636,-0.115642 0.0685,-0.18061 0.005,-0.03949 0.003,-0.07926 0.003,-0.118862 -1e-4,-0.08672 9e-5,-0.173492 -7e-5,-0.260212 -0.002,-0.07683 -0.0183,-0.157052 -0.067,-0.21863 -0.0582,-0.07451 -0.15502,-0.110615 -0.24766,-0.111236 0.0142,-0.0014 0.0284,-0.0027 0.0427,-0.0039 0.004,-0.255803 0.0489,-0.509234 0.11027,-0.757071 0.0624,-0.249024 0.14039,-0.493811 0.22281,-0.736847 0.0739,-0.22298 0.1505,-0.445113 0.2244,-0.668149 0.16304,-0.496185 0.30551,-1.001464 0.37907,-1.519511 0.0251,-0.173209 0.0428,-0.347605 0.0515,-0.522341 0.006,-0.04457 0.002,-0.08949 0.005,-0.134172 0.004,-0.06954 0.004,-0.139201 0.004,-0.208801 -4.7e-4,-0.05847 -0.006,-0.116715 -0.005,-0.175187 -0.0113,-0.243431 -0.0377,-0.48641 -0.0816,-0.726283 -0.0855,-0.474829 -0.23513,-0.936777 -0.42975,-1.377824 -0.0432,-0.09779 -0.0873,-0.195412 -0.14191,-0.287496 -0.19112,-0.32998 -0.42596,-0.634028 -0.68962,-0.909153 -0.32286,-0.336137 -0.6938,-0.62725 -1.10225,-0.852545 -0.47522,-0.263544 -1.00044,-0.435284 -1.53894,-0.507088 0.0614,0.03757 0.12598,0.06994 0.18807,0.106435 0.37782,0.213432 0.7478,0.441893 1.0971,0.699787 0.37845,0.278513 0.73498,0.589962 1.04118,0.947342 0.14931,0.173944 0.28659,0.358508 0.40568,0.554484 0.0524,0.08435 0.0998,0.171629 0.14739,0.258742 0.11514,0.214281 0.224,0.432459 0.31247,0.659281 0.0832,0.211173 0.14429,0.430934 0.18146,0.654875 0.0233,0.136657 0.0399,0.27439 0.057,0.41195 0.003,0.03486 0.011,0.06926 0.0116,0.104345 -0.0314,-0.111179 -0.059,-0.223657 -0.0927,-0.334273 -0.13728,-0.460931 -0.33218,-0.903842 -0.57059,-1.321218 -0.10536,-0.185016 -0.21603,-0.367434 -0.34145,-0.539626 -0.27438,-0.38245 -0.60752,-0.723784 -0.98947,-0.999474 -0.28903,-0.207701 -0.6046,-0.380289 -0.94011,-0.500281 -0.11192,-0.04068 -0.22666,-0.07282 -0.34281,-0.09886 0.0934,-0.02847 0.18733,-0.05486 0.28038,-0.08446 -0.0683,-0.067 -0.14451,-0.125359 -0.22038,-0.183435 -0.18157,-0.136432 -0.36896,-0.264785 -0.55726,-0.391671 -0.18727,-0.12598 -0.37613,-0.249645 -0.56555,-0.372349 -0.0399,-0.02757 -0.083,-0.04971 -0.12587,-0.07231 -0.07,-0.03514 -0.14062,-0.06926 -0.20903,-0.107338 -0.0118,0.04028 -0.007,0.08276 -0.0126,0.123948 -0.0125,0.308737 0.005,0.623294 0.0998,0.919378 0.029,0.08971 0.0645,0.177955 0.11344,0.258797 0.19281,-0.0809 0.40416,-0.104569 0.61143,-0.11101 -0.41415,0.153832 -0.81283,0.354159 -1.17106,0.613917 -0.0943,0.06858 -0.18609,0.141233 -0.27105,0.221229 -0.009,0.01091 -0.0239,0.0032 -0.0355,0.0021 -0.11113,-0.02429 -0.22812,2.88e-4 -0.32778,0.05237 -0.0331,0.01825 -0.0711,0.03294 -0.0929,0.06559 -0.0319,0.04819 -0.0469,0.104965 -0.06,0.160613 -0.0383,0.168238 -0.0487,0.341164 -0.0811,0.510419 -0.008,0.03181 -0.0118,0.06649 -0.0313,0.09389 -0.41607,0.513922 -0.82306,1.037223 -1.17704,1.59651 -0.0604,0.09401 -0.11966,0.188801 -0.18259,0.281169 -0.0539,0.07497 -0.10248,0.155866 -0.12694,0.245635 -0.0232,0.08158 -0.0243,0.170102 0.002,0.251 0.0526,0.165753 0.13626,0.323201 0.25326,0.452571 0.0741,0.0818 0.16106,0.151855 0.25676,0.206825 0.0334,0.02005 0.07,0.03429 0.10344,0.0544 0.0695,0.02627 0.14344,0.0383 0.21665,0.04904 0.0761,0.01028 0.15288,0.01469 0.22965,0.0148 0.073,-0.109429 0.15768,-0.210609 0.24581,-0.30806 0.15999,-0.175188 0.33257,-0.338568 0.51228,-0.49336 0.0167,-0.0178 0.0425,-0.0071 0.0637,-0.008 0.35907,0.01689 0.72312,0.0044 1.07378,-0.08056 0.27546,-0.06677 0.54318,-0.184394 0.75927,-0.370541 0.0998,-0.08389 0.18513,-0.183436 0.2623,-0.288118 -0.002,0.02582 -0.002,0.05339 -0.0162,0.07627 -0.0102,0.0222 -0.0289,0.04191 -0.0291,0.06757 -0.0224,0.241454 -0.0934,0.476072 -0.18829,0.698488 -0.094,0.219931 -0.21163,0.429182 -0.34196,0.629452 -0.23371,0.359074 -0.50765,0.69024 -0.79797,1.004683 -0.13638,0.149482 -0.28168,0.29049 -0.42144,0.436753 -0.301,0.319132 -0.56257,0.677132 -0.76193,1.068463 -0.22886,0.449578 -0.37874,0.944179 -0.40309,1.449628 -2.8e-4,0.01503 -1.9e-4,0.03017 -9e-5,0.04542 -0.0539,-6.5e-5 -0.1083,-0.0021 -0.16141,0.0092 -0.0893,0.01644 -0.17733,0.05943 -0.23235,0.133608 -0.0309,0.04084 -0.0481,0.09028 -0.0573,0.140217 -0.007,0.0787 -0.003,0.157844 -0.004,0.236822 0.002,0.07683 -0.005,0.154622 0.01,0.230494 0.0142,0.06999 0.0551,0.133607 0.11202,0.176599 0.0602,0.04582 0.13457,0.07011 0.20914,0.07875 0.0704,0.01005 0.14192,0.0012 0.21236,0.0072 0.0703,0.07632 0.11423,0.175412 0.13062,0.277497 0.0216,0.139199 -0.001,0.282637 -0.0513,0.413533 -0.0193,0.04802 -0.0406,0.0957 -0.0706,0.138184 -0.009,0.01175 -0.0183,0.02356 -0.0312,0.03096 -0.19779,0.09983 -0.39021,0.213038 -0.56166,0.354102 -0.14045,0.117167 -0.27225,0.254958 -0.34123,0.42732 -0.0997,0.0033 -0.20083,0.02729 -0.28602,0.08067 -0.0598,0.03684 -0.10994,0.09 -0.14073,0.153324 -0.0214,0.04118 -0.0299,0.08717 -0.0409,0.131857 v 0.764877 c 2.78887,4.66e-4 5.57779,9.6e-5 8.36666,1.92e-4 9e-5,-0.220381 0,-0.440764 0,-0.661146 -7.6e-4,-0.06542 0.004,-0.131348 -0.008,-0.196145 z m -0.65227,-7.907249 c 0.008,-0.0018 0.009,0.01203 0.003,0.01537 -0.008,0.0017 -0.009,-0.01221 -0.003,-0.01537 z m -0.51517,5.713827 c -0.56872,0 -1.13739,0 -1.70611,0 -0.0668,-0.0012 -0.13378,0.0024 -0.20038,-0.0019 0.008,-0.0037 0.0163,-0.0061 0.0251,-0.0057 0.65352,6.4e-5 1.30698,6.4e-5 1.9605,0 0.0216,5.5e-4 0.0444,-0.0034 0.065,0.0051 -0.0478,0.0052 -0.0961,0.0012 -0.14411,0.0024 z m -4.31815,-7.391067 c 0.0484,-0.0092 0.10022,-0.0041 0.14485,0.01734 0.0496,0.02373 0.085,0.07598 0.0851,0.131347 0.006,0.06887 -0.0349,0.132986 -0.0876,0.173775 -0.10434,0.08033 -0.24292,0.105191 -0.37167,0.0918 -0.11909,-0.01209 -0.24106,-0.0088 -0.35716,0.02237 0.029,-0.0404 0.064,-0.07598 0.0968,-0.113213 0.0686,-0.07491 0.14378,-0.144003 0.22621,-0.203547 0.0791,-0.05582 0.16671,-0.1044 0.26348,-0.119879 z m -0.63849,-0.81978 c 0.008,-0.01576 0.0188,-0.03102 0.0353,-0.03825 0.0283,-0.01356 0.0604,-0.0067 0.0901,-0.0032 0.10169,0.01859 0.19716,0.06028 0.29043,0.103553 -0.015,0.0097 -0.0313,0.01684 -0.0479,0.02328 -0.0678,0.02819 -0.13671,0.05666 -0.20998,0.06655 -0.0312,0.0039 -0.0624,0.0104 -0.094,0.0086 -0.0374,-0.0021 -0.0706,-0.03181 -0.0785,-0.06808 -0.004,-0.03135 8.4e-4,-0.06389 0.0145,-0.09242 z m 1.80763,1.948975 c -0.11519,0.119597 -0.25524,0.213376 -0.40523,0.283656 -0.11463,0.05344 -0.23485,0.09395 -0.35586,0.130273 -0.18563,0.05446 -0.37703,0.09022 -0.57019,0.102706 -0.13146,0.0099 -0.26337,0.0064 -0.39506,0.0093 -0.11434,0.0018 -0.23286,0.0089 -0.33777,0.05887 -0.0668,0.0309 -0.1222,0.08045 -0.17587,0.129879 -0.12982,0.124455 -0.24541,0.262865 -0.37641,0.386133 -0.0963,0.0905 -0.21225,0.166262 -0.34388,0.191345 -0.0582,0.01147 -0.1187,0.0091 -0.17632,-0.0041 -0.0268,-0.0068 -0.0542,-0.01514 -0.0765,-0.03215 0.0282,0.0082 0.0552,0.02282 0.0853,0.02317 0.0828,0.0054 0.16022,-0.03418 0.22744,-0.07841 0.12802,-0.08762 0.23733,-0.199084 0.34388,-0.310997 0.11367,-0.117903 0.22202,-0.241173 0.34405,-0.350601 0.0256,-0.02169 0.0508,-0.04401 0.0783,-0.06338 0.0552,-0.03943 0.11897,-0.06599 0.18513,-0.08028 0.12524,-0.02638 0.25377,-0.01955 0.38088,-0.02033 0.0604,0.0012 0.1205,-0.0062 0.18083,-0.0055 0.15525,-0.0086 0.31044,-0.02757 0.46195,-0.06356 0.15943,-0.03644 0.31586,-0.08638 0.46698,-0.148804 0.15361,-0.06531 0.29862,-0.154001 0.41992,-0.269191 0.10779,-0.100955 0.19738,-0.221399 0.26168,-0.354385 0.0783,-0.157336 0.12061,-0.330545 0.1388,-0.504659 0.004,0.04734 0.003,0.09531 -0.003,0.142477 -0.0221,0.305518 -0.14253,0.608776 -0.35907,0.828649 z m -1.853,3.870155 c 0.19451,-0.374609 0.44817,-0.718034 0.74662,-1.016433 0.0786,-0.07971 0.16259,-0.153776 0.2457,-0.228687 0.31387,-0.284389 0.61905,-0.578777 0.9083,-0.88825 0.15287,-0.164171 0.30055,-0.333256 0.43986,-0.509121 0.13982,-0.177956 0.27264,-0.362125 0.38512,-0.55878 0.10016,-0.175186 0.18631,-0.361503 0.22496,-0.560699 -0.017,0.249193 -0.0715,0.497314 -0.17282,0.726283 -0.0864,0.196824 -0.20162,0.379694 -0.3289,0.552508 -0.12791,0.173266 -0.26801,0.337267 -0.41309,0.496297 -0.13711,0.148917 -0.27795,0.294445 -0.42234,0.436357 -0.0707,0.07248 -0.14564,0.140613 -0.21756,0.211907 -0.0931,0.08774 -0.18536,0.176262 -0.2797,0.262583 -0.32715,0.299756 -0.60629,0.654084 -0.80814,1.049935 -0.10615,0.207049 -0.19169,0.424606 -0.25603,0.648266 -0.0716,0.245747 -0.11547,0.498669 -0.14604,0.752552 -10e-4,0.0095 -0.003,0.01904 -0.004,0.0287 -0.11457,7.62e-4 -0.22913,0.0014 -0.3437,-3.79e-4 0.0665,-0.488162 0.21399,-0.965985 0.44217,-1.40302 z m -0.76616,2.019027 c -0.0493,-4.66e-4 -0.10802,-0.03706 -0.10039,-0.09271 -0.009,-5.5e-4 -0.0171,-0.0016 -0.0256,-0.0023 0.0112,-0.08186 0.0618,-0.155583 0.13039,-0.200551 0.0528,-0.03565 0.1149,-0.05525 0.1775,-0.06446 0.0466,-0.0044 0.0934,-0.0065 0.14027,-0.0056 0.2997,-1.91e-4 0.5994,2.89e-4 0.8991,-1.91e-4 -0.0388,0.0095 -0.0788,0.01486 -0.11615,0.02983 -0.083,0.03085 -0.15937,0.0922 -0.19016,0.17739 0.95299,0 1.90598,-9.6e-5 2.85898,6.3e-5 0.0237,0 0.0479,0.0019 0.071,-0.0044 -0.0172,-0.03198 -0.0357,-0.06389 -0.0623,-0.08903 -0.0693,-0.0687 -0.16734,-0.101913 -0.26332,-0.107507 0.064,-0.0049 0.1283,-0.0015 0.19247,-0.0025 0.5668,0 1.13366,0 1.70046,0 0.0671,7.63e-4 0.13485,-0.0036 0.20135,0.0079 0.0864,0.0148 0.17275,0.05141 0.23111,0.118918 0.0348,0.04192 0.0603,0.09305 0.0664,0.147674 -0.002,-0.0011 -0.005,-0.0034 -0.007,-0.0045 l -0.006,0.0033 c 0.005,0.03463 -0.0212,0.0635 -0.0507,0.07706 -0.0314,0.01661 -0.0678,0.0109 -0.10186,0.01169 -0.58753,-9.6e-5 -1.17512,-6.3e-5 -1.76266,-6.3e-5 -0.0357,-1.93e-4 -0.0713,5.5e-4 -0.10699,-6.78e-4 -0.99186,8.47e-4 -1.98378,-2.89e-4 -2.97564,6.78e-4 -0.30009,-9.6e-5 -0.60025,9.6e-5 -0.90034,-9.6e-5 z m 0.33258,0.785659 c -0.0185,-0.05062 -0.0412,-0.0996 -0.0673,-0.146772 0.11423,-5.51e-4 0.22851,-0.0013 0.3428,4.66e-4 0.0583,0.108299 0.10248,0.225806 0.11525,0.348848 0.0232,0.180441 -0.0225,0.36365 -0.10299,0.524883 -0.11406,0.0013 -0.22812,6.78e-4 -0.34218,3.78e-4 0.0516,-0.10423 0.0891,-0.216201 0.10259,-0.33207 0.0145,-0.133325 -6.8e-4,-0.270097 -0.0482,-0.395795 z m 6.31763,1.847907 c -0.0271,0.03701 -0.0757,0.04943 -0.11932,0.05022 -0.66098,-6.3e-5 -1.32201,0 -1.98298,0 -0.14254,-5.51e-4 -0.28513,0.0011 -0.42766,-8.47e-4 -0.78391,7.63e-4 -1.56787,6.4e-5 -2.35183,3.77e-4 -0.31654,-3.77e-4 -0.63313,6.79e-4 -0.94966,-4.65e-4 -0.23518,0.0022 -0.47042,2.88e-4 -0.70566,8.48e-4 -0.28247,-6.5e-5 -0.565,1.91e-4 -0.84746,-9.6e-5 -0.0471,4.66e-4 -0.0951,-0.01859 -0.12474,-0.05599 l -0.007,-3.79e-4 c 7.6e-4,-0.01927 0.002,-0.0396 0.0132,-0.05576 0.0182,-0.07118 0.066,-0.132363 0.1227,-0.177729 0.0791,-0.06214 0.17875,-0.09389 0.27812,-0.102818 0.0469,-0.0061 0.0943,-0.002 0.14146,-0.003 0.47828,-6.4e-5 0.95661,0 1.43488,-6.4e-5 0.0341,9.6e-5 0.0684,-0.0016 0.10237,0.0025 -0.0954,0.0093 -0.19095,0.03876 -0.26801,0.09711 -0.0486,0.03497 -0.0879,0.08282 -0.11236,0.13745 h 0.005 c 1.07428,1.92e-4 2.14857,1.92e-4 3.22285,-6.5e-5 l 0.005,6.5e-5 c -0.0392,-0.07983 -0.10903,-0.141462 -0.18908,-0.178409 -0.0584,-0.02791 -0.12214,-0.04254 -0.1861,-0.05039 0.0323,-0.0054 0.0652,-0.0019 0.0978,-0.0028 0.76267,0 1.52533,0 2.288,0 0.0699,7.63e-4 0.14044,-0.0039 0.20959,0.0094 0.13118,0.02113 0.26286,0.09016 0.32772,0.210608 0.008,0.01831 0.0249,0.03729 0.0176,0.05836 0.012,0.01763 0.0191,0.03842 0.0214,0.05971 -0.004,5.51e-4 -0.0123,0.0017 -0.0163,0.0022 z"
       style="stroke:#000000;stroke-width:0.00052991"
       inkscape:connector-curvature="0" />
    <g
       style="fill:none"
       id="g2836"
       transform="translate(30.742977,42.699802)">
      <rect
         inkscape:tile-y0="10.513683"
         inkscape:tile-x0="8.4110882"
         y="16.209013"
         x="8.1273727"
         height="19.935926"
         width="19.935926"
         id="rect2830"
         style="opacity:1;fill:none;fill-opacity:1;stroke:#000000;stroke-width:0.29890543;stroke-linecap:round;stroke-linejoin:round;stroke-miterlimit:4;stroke-dasharray:none;stroke-dashoffset:0;stroke-opacity:1;paint-order:normal" />
      <text
         xml:space="preserve"
         style="font-style:normal;font-weight:normal;font-size:5.29166651px;line-height:1.25;font-family:sans-serif;letter-spacing:0px;word-spacing:0px;fill:none;fill-opacity:1;stroke:none;stroke-width:0.26458332"
         x="16.365467"
         y="28.105799"
         id="text2834"><tspan
           sodipodi:role="line"
           id="tspan2832"
           x="16.365467"
           y="28.105799"
           style="fill:none;stroke-width:0.26458332">1</tspan></text>
    </g>
    <path
       inkscape:connector-curvature="0"
       style="fill:#999999;stroke:#000000;stroke-width:0.00052991"
       d="m 53.013756,74.907847 c -0.009,-0.05164 -0.0264,-0.102875 -0.0579,-0.145188 -0.0524,-0.07355 -0.13931,-0.11779 -0.22795,-0.127845 -0.0801,-0.0033 -0.16033,-5.52e-4 -0.24049,-0.0018 -0.0549,-0.123099 -0.14197,-0.228689 -0.23705,-0.322919 -0.18824,-0.183434 -0.41325,-0.324103 -0.64488,-0.446016 -0.03,-0.01938 -0.0443,-0.05435 -0.0614,-0.08429 -0.0497,-0.09988 -0.0816,-0.208745 -0.0937,-0.319642 -0.0206,-0.163549 0.0167,-0.338002 0.11983,-0.468897 0.0906,-3.78e-4 0.18123,-3.78e-4 0.27184,9.6e-5 4.7e-4,0 10e-4,0 10e-4,-6.4e-5 l 0.0465,-0.0137 c 0.0829,-0.0074 0.16728,-0.03983 0.22163,-0.105135 0.0419,-0.05073 0.0636,-0.115642 0.0685,-0.18061 0.005,-0.03949 0.003,-0.07926 0.003,-0.118862 -10e-5,-0.08672 9e-5,-0.173492 -7e-5,-0.260212 -0.002,-0.07683 -0.0183,-0.157052 -0.067,-0.21863 -0.0582,-0.07451 -0.15502,-0.110615 -0.24766,-0.111236 0.0142,-0.0014 0.0284,-0.0027 0.0427,-0.0039 0.004,-0.255803 0.0489,-0.509234 0.11027,-0.757071 0.0624,-0.249024 0.14039,-0.493811 0.22281,-0.736847 0.0739,-0.22298 0.1505,-0.445113 0.2244,-0.668149 0.16304,-0.496185 0.30551,-1.001464 0.37907,-1.519511 0.0251,-0.173209 0.0428,-0.347605 0.0515,-0.522341 0.006,-0.04457 0.002,-0.08949 0.005,-0.134172 0.004,-0.06954 0.004,-0.139201 0.004,-0.208801 -4.7e-4,-0.05847 -0.006,-0.116715 -0.005,-0.175187 -0.0113,-0.243431 -0.0377,-0.48641 -0.0816,-0.726283 -0.0855,-0.474829 -0.23513,-0.936777 -0.42975,-1.377824 -0.0432,-0.09779 -0.0873,-0.195412 -0.14191,-0.287496 -0.19112,-0.32998 -0.42596,-0.634028 -0.68962,-0.909153 -0.32286,-0.336137 -0.6938,-0.62725 -1.10225,-0.852545 -0.47522,-0.263544 -1.00044,-0.435284 -1.53894,-0.507088 0.0614,0.03757 0.12598,0.06994 0.18807,0.106435 0.37782,0.213432 0.7478,0.441893 1.0971,0.699787 0.37845,0.278513 0.73498,0.589962 1.04118,0.947342 0.14931,0.173944 0.28659,0.358508 0.40568,0.554484 0.0524,0.08435 0.0998,0.171629 0.14739,0.258742 0.11514,0.214281 0.224,0.432459 0.31247,0.659281 0.0832,0.211173 0.14429,0.430934 0.18146,0.654875 0.0233,0.136657 0.0399,0.27439 0.057,0.41195 0.003,0.03486 0.011,0.06926 0.0116,0.104345 -0.0314,-0.111179 -0.059,-0.223657 -0.0927,-0.334273 -0.13728,-0.460931 -0.33218,-0.903842 -0.57059,-1.321218 -0.10536,-0.185016 -0.21603,-0.367434 -0.34145,-0.539626 -0.27438,-0.38245 -0.60752,-0.723784 -0.98947,-0.999474 -0.28903,-0.207701 -0.6046,-0.380289 -0.94011,-0.500281 -0.11192,-0.04068 -0.22666,-0.07282 -0.34281,-0.09886 0.0934,-0.02847 0.18733,-0.05486 0.28038,-0.08446 -0.0683,-0.067 -0.14451,-0.125359 -0.22038,-0.183435 -0.18157,-0.136432 -0.36896,-0.264785 -0.55726,-0.391671 -0.18727,-0.12598 -0.37613,-0.249645 -0.56555,-0.372349 -0.0399,-0.02757 -0.083,-0.04971 -0.12587,-0.07231 -0.07,-0.03514 -0.14062,-0.06926 -0.20903,-0.107338 -0.0118,0.04028 -0.007,0.08276 -0.0126,0.123948 -0.0125,0.308737 0.005,0.623294 0.0998,0.919378 0.029,0.08971 0.0645,0.177955 0.11344,0.258797 0.19281,-0.0809 0.40416,-0.104569 0.61143,-0.11101 -0.41415,0.153832 -0.81283,0.354159 -1.17106,0.613917 -0.0943,0.06858 -0.18609,0.141233 -0.27105,0.221229 -0.009,0.01091 -0.0239,0.0032 -0.0355,0.0021 -0.11113,-0.02429 -0.22812,2.88e-4 -0.32778,0.05237 -0.0331,0.01825 -0.0711,0.03294 -0.0929,0.06559 -0.0319,0.04819 -0.0469,0.104965 -0.06,0.160613 -0.0383,0.168238 -0.0487,0.341164 -0.0811,0.510419 -0.008,0.03181 -0.0118,0.06649 -0.0313,0.09389 -0.41607,0.513922 -0.82306,1.037223 -1.17704,1.59651 -0.0604,0.09401 -0.11966,0.188801 -0.18259,0.281169 -0.0539,0.07497 -0.10248,0.155866 -0.12694,0.245635 -0.0232,0.08158 -0.0243,0.170102 0.002,0.251 0.0526,0.165753 0.13626,0.323201 0.25326,0.452571 0.0741,0.0818 0.16106,0.151855 0.25676,0.206825 0.0334,0.02005 0.07,0.03429 0.10344,0.0544 0.0695,0.02627 0.14344,0.0383 0.21665,0.04904 0.0761,0.01028 0.15288,0.01469 0.22965,0.0148 0.073,-0.109429 0.15768,-0.210609 0.24581,-0.30806 0.15999,-0.175188 0.33257,-0.338568 0.51228,-0.49336 0.0167,-0.0178 0.0425,-0.0071 0.0637,-0.008 0.35907,0.01689 0.72312,0.0044 1.07378,-0.08056 0.27546,-0.06677 0.54318,-0.184394 0.75927,-0.370541 0.0998,-0.08389 0.18513,-0.183436 0.2623,-0.288118 -0.002,0.02582 -0.002,0.05339 -0.0162,0.07627 -0.0102,0.0222 -0.0289,0.04191 -0.0291,0.06757 -0.0224,0.241454 -0.0934,0.476072 -0.18829,0.698488 -0.094,0.219931 -0.21163,0.429182 -0.34196,0.629452 -0.23371,0.359074 -0.50765,0.69024 -0.79797,1.004683 -0.13638,0.149482 -0.28168,0.29049 -0.42144,0.436753 -0.301,0.319132 -0.56257,0.677132 -0.76193,1.068463 -0.22886,0.449578 -0.37874,0.944179 -0.40309,1.449628 -2.8e-4,0.01503 -1.9e-4,0.03017 -9e-5,0.04542 -0.0539,-6.5e-5 -0.1083,-0.0021 -0.16141,0.0092 -0.0893,0.01644 -0.17733,0.05943 -0.23235,0.133608 -0.0309,0.04084 -0.0481,0.09028 -0.0573,0.140217 -0.007,0.0787 -0.003,0.157844 -0.004,0.236822 0.002,0.07683 -0.005,0.154622 0.01,0.230494 0.0142,0.06999 0.0551,0.133607 0.11202,0.176599 0.0602,0.04582 0.13457,0.07011 0.20914,0.07875 0.0704,0.01005 0.14192,0.0012 0.21236,0.0072 0.0703,0.07632 0.11423,0.175412 0.13062,0.277497 0.0216,0.139199 -10e-4,0.282637 -0.0513,0.413533 -0.0193,0.04802 -0.0406,0.0957 -0.0706,0.138184 -0.009,0.01175 -0.0183,0.02356 -0.0312,0.03096 -0.19779,0.09983 -0.39021,0.213038 -0.56166,0.354102 -0.14045,0.117167 -0.27225,0.254958 -0.34123,0.42732 -0.0997,0.0033 -0.20083,0.02729 -0.28602,0.08067 -0.0598,0.03684 -0.10994,0.09 -0.14073,0.153324 -0.0214,0.04118 -0.0299,0.08717 -0.0409,0.131857 v 0.764877 c 2.78887,4.66e-4 5.57779,9.6e-5 8.36666,1.92e-4 9e-5,-0.220381 0,-0.440764 0,-0.661146 -7.6e-4,-0.06542 0.004,-0.131348 -0.008,-0.196145 z m -0.65227,-7.907249 c 0.008,-0.0018 0.009,0.01203 0.003,0.01537 -0.008,0.0017 -0.009,-0.01221 -0.003,-0.01537 z m -0.51517,5.713827 c -0.56872,0 -1.13739,0 -1.70611,0 -0.0668,-0.0012 -0.13378,0.0024 -0.20038,-0.0019 0.008,-0.0037 0.0163,-0.0061 0.0251,-0.0057 0.65352,6.4e-5 1.30698,6.4e-5 1.9605,0 0.0216,5.5e-4 0.0444,-0.0034 0.065,0.0051 -0.0478,0.0052 -0.0961,0.0012 -0.14411,0.0024 z m -4.31815,-7.391067 c 0.0484,-0.0092 0.10022,-0.0041 0.14485,0.01734 0.0496,0.02373 0.085,0.07598 0.0851,0.131347 0.006,0.06887 -0.0349,0.132986 -0.0876,0.173775 -0.10434,0.08033 -0.24292,0.105191 -0.37167,0.0918 -0.11909,-0.01209 -0.24106,-0.0088 -0.35716,0.02237 0.029,-0.0404 0.064,-0.07598 0.0968,-0.113213 0.0686,-0.07491 0.14378,-0.144003 0.22621,-0.203547 0.0791,-0.05582 0.16671,-0.1044 0.26348,-0.119879 z m -0.63849,-0.81978 c 0.008,-0.01576 0.0188,-0.03102 0.0353,-0.03825 0.0283,-0.01356 0.0604,-0.0067 0.0901,-0.0032 0.10169,0.01859 0.19716,0.06028 0.29043,0.103553 -0.015,0.0097 -0.0313,0.01684 -0.0479,0.02328 -0.0678,0.02819 -0.13671,0.05666 -0.20998,0.06655 -0.0312,0.0039 -0.0624,0.0104 -0.094,0.0086 -0.0374,-0.0021 -0.0706,-0.03181 -0.0785,-0.06808 -0.004,-0.03135 8.4e-4,-0.06389 0.0145,-0.09242 z m 1.80763,1.948975 c -0.11519,0.119597 -0.25524,0.213376 -0.40523,0.283656 -0.11463,0.05344 -0.23485,0.09395 -0.35586,0.130273 -0.18563,0.05446 -0.37703,0.09022 -0.57019,0.102706 -0.13146,0.0099 -0.26337,0.0064 -0.39506,0.0093 -0.11434,0.0018 -0.23286,0.0089 -0.33777,0.05887 -0.0668,0.0309 -0.1222,0.08045 -0.17587,0.129879 -0.12982,0.124455 -0.24541,0.262865 -0.37641,0.386133 -0.0963,0.0905 -0.21225,0.166262 -0.34388,0.191345 -0.0582,0.01147 -0.1187,0.0091 -0.17632,-0.0041 -0.0268,-0.0068 -0.0542,-0.01514 -0.0765,-0.03215 0.0282,0.0082 0.0552,0.02282 0.0853,0.02317 0.0828,0.0054 0.16022,-0.03418 0.22744,-0.07841 0.12802,-0.08762 0.23733,-0.199084 0.34388,-0.310997 0.11367,-0.117903 0.22202,-0.241173 0.34405,-0.350601 0.0256,-0.02169 0.0508,-0.04401 0.0783,-0.06338 0.0552,-0.03943 0.11897,-0.06599 0.18513,-0.08028 0.12524,-0.02638 0.25377,-0.01955 0.38088,-0.02033 0.0604,0.0012 0.1205,-0.0062 0.18083,-0.0055 0.15525,-0.0086 0.31044,-0.02757 0.46195,-0.06356 0.15943,-0.03644 0.31586,-0.08638 0.46698,-0.148804 0.15361,-0.06531 0.29862,-0.154001 0.41992,-0.269191 0.10779,-0.100955 0.19738,-0.221399 0.26168,-0.354385 0.0783,-0.157336 0.12061,-0.330545 0.1388,-0.504659 0.004,0.04734 0.003,0.09531 -0.003,0.142477 -0.0221,0.305518 -0.14253,0.608776 -0.35907,0.828649 z m -1.853,3.870155 c 0.19451,-0.374609 0.44817,-0.718034 0.74662,-1.016433 0.0786,-0.07971 0.16259,-0.153776 0.2457,-0.228687 0.31387,-0.284389 0.61905,-0.578777 0.9083,-0.88825 0.15287,-0.164171 0.30055,-0.333256 0.43986,-0.509121 0.13982,-0.177956 0.27264,-0.362125 0.38512,-0.55878 0.10016,-0.175186 0.18631,-0.361503 0.22496,-0.560699 -0.017,0.249193 -0.0715,0.497314 -0.17282,0.726283 -0.0864,0.196824 -0.20162,0.379694 -0.3289,0.552508 -0.12791,0.173266 -0.26801,0.337267 -0.41309,0.496297 -0.13711,0.148917 -0.27795,0.294445 -0.42234,0.436357 -0.0707,0.07248 -0.14564,0.140613 -0.21756,0.211907 -0.0931,0.08774 -0.18536,0.176262 -0.2797,0.262583 -0.32715,0.299756 -0.60629,0.654084 -0.80814,1.049935 -0.10615,0.207049 -0.19169,0.424606 -0.25603,0.648266 -0.0716,0.245747 -0.11547,0.498669 -0.14604,0.752552 -10e-4,0.0095 -0.003,0.01904 -0.004,0.0287 -0.11457,7.62e-4 -0.22913,0.0014 -0.3437,-3.79e-4 0.0665,-0.488162 0.21399,-0.965985 0.44217,-1.40302 z m -0.76616,2.019027 c -0.0493,-4.66e-4 -0.10802,-0.03706 -0.10039,-0.09271 -0.009,-5.5e-4 -0.0171,-0.0016 -0.0256,-0.0023 0.0112,-0.08186 0.0618,-0.155583 0.13039,-0.200551 0.0528,-0.03565 0.1149,-0.05525 0.1775,-0.06446 0.0466,-0.0044 0.0934,-0.0065 0.14027,-0.0056 0.2997,-1.91e-4 0.5994,2.89e-4 0.8991,-1.91e-4 -0.0388,0.0095 -0.0788,0.01486 -0.11615,0.02983 -0.083,0.03085 -0.15937,0.0922 -0.19016,0.17739 0.95299,0 1.90598,-9.6e-5 2.85898,6.3e-5 0.0237,0 0.0479,0.0019 0.071,-0.0044 -0.0172,-0.03198 -0.0357,-0.06389 -0.0623,-0.08903 -0.0693,-0.0687 -0.16734,-0.101913 -0.26332,-0.107507 0.064,-0.0049 0.1283,-0.0015 0.19247,-0.0025 0.5668,0 1.13366,0 1.70046,0 0.0671,7.63e-4 0.13485,-0.0036 0.20135,0.0079 0.0864,0.0148 0.17275,0.05141 0.23111,0.118918 0.0348,0.04192 0.0603,0.09305 0.0664,0.147674 -0.002,-0.0011 -0.005,-0.0034 -0.007,-0.0045 l -0.006,0.0033 c 0.005,0.03463 -0.0212,0.0635 -0.0507,0.07706 -0.0314,0.01661 -0.0678,0.0109 -0.10186,0.01169 -0.58753,-9.6e-5 -1.17512,-6.3e-5 -1.76266,-6.3e-5 -0.0357,-1.93e-4 -0.0713,5.5e-4 -0.10699,-6.78e-4 -0.99186,8.47e-4 -1.98378,-2.89e-4 -2.97564,6.78e-4 -0.30009,-9.6e-5 -0.60025,9.6e-5 -0.90034,-9.6e-5 z m 0.33258,0.785659 c -0.0185,-0.05062 -0.0412,-0.0996 -0.0673,-0.146772 0.11423,-5.51e-4 0.22851,-0.0013 0.3428,4.66e-4 0.0583,0.108299 0.10248,0.225806 0.11525,0.348848 0.0232,0.180441 -0.0225,0.36365 -0.10299,0.524883 -0.11406,0.0013 -0.22812,6.78e-4 -0.34218,3.78e-4 0.0516,-0.10423 0.0891,-0.216201 0.10259,-0.33207 0.0145,-0.133325 -6.8e-4,-0.270097 -0.0482,-0.395795 z m 6.31763,1.847907 c -0.0271,0.03701 -0.0757,0.04943 -0.11932,0.05022 -0.66098,-6.3e-5 -1.32201,0 -1.98298,0 -0.14254,-5.51e-4 -0.28513,0.0011 -0.42766,-8.47e-4 -0.78391,7.63e-4 -1.56787,6.4e-5 -2.35183,3.77e-4 -0.31654,-3.77e-4 -0.63313,6.79e-4 -0.94966,-4.65e-4 -0.23518,0.0022 -0.47042,2.88e-4 -0.70566,8.48e-4 -0.28247,-6.5e-5 -0.565,1.91e-4 -0.84746,-9.6e-5 -0.0471,4.66e-4 -0.0951,-0.01859 -0.12474,-0.05599 l -0.007,-3.79e-4 c 7.6e-4,-0.01927 0.002,-0.0396 0.0132,-0.05576 0.0182,-0.07118 0.066,-0.132363 0.1227,-0.177729 0.0791,-0.06214 0.17875,-0.09389 0.27812,-0.102818 0.0469,-0.0061 0.0943,-0.002 0.14146,-0.003 0.47828,-6.4e-5 0.95661,0 1.43488,-6.4e-5 0.0341,9.6e-5 0.0684,-0.0016 0.10237,0.0025 -0.0954,0.0093 -0.19095,0.03876 -0.26801,0.09711 -0.0486,0.03497 -0.0879,0.08282 -0.11236,0.13745 h 0.005 c 1.07428,1.92e-4 2.14857,1.92e-4 3.22285,-6.5e-5 l 0.005,6.5e-5 c -0.0392,-0.07983 -0.10903,-0.141462 -0.18908,-0.178409 -0.0584,-0.02791 -0.12214,-0.04254 -0.1861,-0.05039 0.0323,-0.0054 0.0652,-0.0019 0.0978,-0.0028 0.76267,0 1.52533,0 2.288,0 0.0699,7.63e-4 0.14044,-0.0039 0.20959,0.0094 0.13118,0.02113 0.26286,0.09016 0.32772,0.210608 0.008,0.01831 0.0249,0.03729 0.0176,0.05836 0.012,0.01763 0.0191,0.03842 0.0214,0.05971 -0.004,5.51e-4 -0.0123,0.0017 -0.0163,0.0022 z"
       id="path4152" />
    <g
       transform="translate(50.678903,22.763876)"
       id="g4167"
       style="fill:none">
      <rect
         style="opacity:1;fill:none;fill-opacity:1;stroke:#000000;stroke-width:0.29890543;stroke-linecap:round;stroke-linejoin:round;stroke-miterlimit:4;stroke-dasharray:none;stroke-dashoffset:0;stroke-opacity:1;paint-order:normal"
         id="rect4161"
         width="19.935926"
         height="19.935926"
         x="8.1273727"
         y="16.209013"
         inkscape:tile-x0="8.4110882"
         inkscape:tile-y0="10.513683" />
      <text
         id="text4165"
         y="28.105799"
         x="16.365467"
         style="font-style:normal;font-weight:normal;font-size:5.29166651px;line-height:1.25;font-family:sans-serif;letter-spacing:0px;word-spacing:0px;fill:none;fill-opacity:1;stroke:none;stroke-width:0.26458332"
         xml:space="preserve"><tspan
           style="fill:none;stroke-width:0.26458332"
           y="28.105799"
           x="16.365467"
           id="tspan4163"
           sodipodi:role="line">1</tspan></text>
    </g>
    <path
       id="path4169"
       d="m 72.949682,54.971921 c -0.009,-0.05164 -0.0264,-0.102875 -0.0579,-0.145188 -0.0524,-0.07355 -0.13931,-0.11779 -0.22795,-0.127845 -0.0801,-0.0033 -0.16033,-5.52e-4 -0.24049,-0.0018 -0.0549,-0.123099 -0.14197,-0.228689 -0.23705,-0.322919 -0.18824,-0.183434 -0.41325,-0.324103 -0.64488,-0.446016 -0.03,-0.01938 -0.0443,-0.05435 -0.0614,-0.08429 -0.0497,-0.09988 -0.0816,-0.208745 -0.0937,-0.319642 -0.0206,-0.163549 0.0167,-0.338002 0.11983,-0.468897 0.0906,-3.78e-4 0.18123,-3.78e-4 0.27184,9.6e-5 4.7e-4,0 0.001,0 0.001,-6.4e-5 l 0.0465,-0.0137 c 0.0829,-0.0074 0.16728,-0.03983 0.22163,-0.105135 0.0419,-0.05073 0.0636,-0.115642 0.0685,-0.18061 0.005,-0.03949 0.003,-0.07926 0.003,-0.118862 -1e-4,-0.08672 9e-5,-0.173492 -7e-5,-0.260212 -0.002,-0.07683 -0.0183,-0.157052 -0.067,-0.21863 -0.0582,-0.07451 -0.15502,-0.110615 -0.24766,-0.111236 0.0142,-0.0014 0.0284,-0.0027 0.0427,-0.0039 0.004,-0.255803 0.0489,-0.509234 0.11027,-0.757071 0.0624,-0.249024 0.14039,-0.493811 0.22281,-0.736847 0.0739,-0.22298 0.1505,-0.445113 0.2244,-0.668149 0.16304,-0.496185 0.30551,-1.001464 0.37907,-1.519511 0.0251,-0.173209 0.0428,-0.347605 0.0515,-0.522341 0.006,-0.04457 0.002,-0.08949 0.005,-0.134172 0.004,-0.06954 0.004,-0.139201 0.004,-0.208801 -4.7e-4,-0.05847 -0.006,-0.116715 -0.005,-0.175187 -0.0113,-0.243431 -0.0377,-0.48641 -0.0816,-0.726283 -0.0855,-0.474829 -0.23513,-0.936777 -0.42975,-1.377824 -0.0432,-0.09779 -0.0873,-0.195412 -0.14191,-0.287496 -0.19112,-0.32998 -0.42596,-0.634028 -0.68962,-0.909153 -0.32286,-0.336137 -0.6938,-0.62725 -1.10225,-0.852545 -0.47522,-0.263544 -1.00044,-0.435284 -1.53894,-0.507088 0.0614,0.03757 0.12598,0.06994 0.18807,0.106435 0.37782,0.213432 0.7478,0.441893 1.0971,0.699787 0.37845,0.278513 0.73498,0.589962 1.04118,0.947342 0.14931,0.173944 0.28659,0.358508 0.40568,0.554484 0.0524,0.08435 0.0998,0.171629 0.14739,0.258742 0.11514,0.214281 0.224,0.432459 0.31247,0.659281 0.0832,0.211173 0.14429,0.430934 0.18146,0.654875 0.0233,0.136657 0.0399,0.27439 0.057,0.41195 0.003,0.03486 0.011,0.06926 0.0116,0.104345 -0.0314,-0.111179 -0.059,-0.223657 -0.0927,-0.334273 -0.13728,-0.460931 -0.33218,-0.903842 -0.57059,-1.321218 -0.10536,-0.185016 -0.21603,-0.367434 -0.34145,-0.539626 -0.27438,-0.38245 -0.60752,-0.723784 -0.98947,-0.999474 -0.28903,-0.207701 -0.6046,-0.380289 -0.94011,-0.500281 -0.11192,-0.04068 -0.22666,-0.07282 -0.34281,-0.09886 0.0934,-0.02847 0.18733,-0.05486 0.28038,-0.08446 -0.0683,-0.067 -0.14451,-0.125359 -0.22038,-0.183435 -0.18157,-0.136432 -0.36896,-0.264785 -0.55726,-0.391671 -0.18727,-0.12598 -0.37613,-0.249645 -0.56555,-0.372349 -0.0399,-0.02757 -0.083,-0.04971 -0.12587,-0.07231 -0.07,-0.03514 -0.14062,-0.06926 -0.20903,-0.107338 -0.0118,0.04028 -0.007,0.08276 -0.0126,0.123948 -0.0125,0.308737 0.005,0.623294 0.0998,0.919378 0.029,0.08971 0.0645,0.177955 0.11344,0.258797 0.19281,-0.0809 0.40416,-0.104569 0.61143,-0.11101 -0.41415,0.153832 -0.81283,0.354159 -1.17106,0.613917 -0.0943,0.06858 -0.18609,0.141233 -0.27105,0.221229 -0.009,0.01091 -0.0239,0.0032 -0.0355,0.0021 -0.11113,-0.02429 -0.22812,2.88e-4 -0.32778,0.05237 -0.0331,0.01825 -0.0711,0.03294 -0.0929,0.06559 -0.0319,0.04819 -0.0469,0.104965 -0.06,0.160613 -0.0383,0.168238 -0.0487,0.341164 -0.0811,0.510419 -0.008,0.03181 -0.0118,0.06649 -0.0313,0.09389 -0.41607,0.513922 -0.82306,1.037223 -1.17704,1.59651 -0.0604,0.09401 -0.11966,0.188801 -0.18259,0.281169 -0.0539,0.07497 -0.10248,0.155866 -0.12694,0.245635 -0.0232,0.08158 -0.0243,0.170102 0.002,0.251 0.0526,0.165753 0.13626,0.323201 0.25326,0.452571 0.0741,0.0818 0.16106,0.151855 0.25676,0.206825 0.0334,0.02005 0.07,0.03429 0.10344,0.0544 0.0695,0.02627 0.14344,0.0383 0.21665,0.04904 0.0761,0.01028 0.15288,0.01469 0.22965,0.0148 0.073,-0.109429 0.15768,-0.210609 0.24581,-0.30806 0.15999,-0.175188 0.33257,-0.338568 0.51228,-0.49336 0.0167,-0.0178 0.0425,-0.0071 0.0637,-0.008 0.35907,0.01689 0.72312,0.0044 1.07378,-0.08056 0.27546,-0.06677 0.54318,-0.184394 0.75927,-0.370541 0.0998,-0.08389 0.18513,-0.183436 0.2623,-0.288118 -0.002,0.02582 -0.002,0.05339 -0.0162,0.07627 -0.0102,0.0222 -0.0289,0.04191 -0.0291,0.06757 -0.0224,0.241454 -0.0934,0.476072 -0.18829,0.698488 -0.094,0.219931 -0.21163,0.429182 -0.34196,0.629452 -0.23371,0.359074 -0.50765,0.69024 -0.79797,1.004683 -0.13638,0.149482 -0.28168,0.29049 -0.42144,0.436753 -0.301,0.319132 -0.56257,0.677132 -0.76193,1.068463 -0.22886,0.449578 -0.37874,0.944179 -0.40309,1.449628 -2.8e-4,0.01503 -1.9e-4,0.03017 -9e-5,0.04542 -0.0539,-6.5e-5 -0.1083,-0.0021 -0.16141,0.0092 -0.0893,0.01644 -0.17733,0.05943 -0.23235,0.133608 -0.0309,0.04084 -0.0481,0.09028 -0.0573,0.140217 -0.007,0.0787 -0.003,0.157844 -0.004,0.236822 0.002,0.07683 -0.005,0.154622 0.01,0.230494 0.0142,0.06999 0.0551,0.133607 0.11202,0.176599 0.0602,0.04582 0.13457,0.07011 0.20914,0.07875 0.0704,0.01005 0.14192,0.0012 0.21236,0.0072 0.0703,0.07632 0.11423,0.175412 0.13062,0.277497 0.0216,0.139199 -10e-4,0.282637 -0.0513,0.413533 -0.0193,0.04802 -0.0406,0.0957 -0.0706,0.138184 -0.009,0.01175 -0.0183,0.02356 -0.0312,0.03096 -0.19779,0.09983 -0.39021,0.213038 -0.56166,0.354102 -0.14045,0.117167 -0.27225,0.254958 -0.34123,0.42732 -0.0997,0.0033 -0.20083,0.02729 -0.28602,0.08067 -0.0598,0.03684 -0.10994,0.09 -0.14073,0.153324 -0.0214,0.04118 -0.0299,0.08717 -0.0409,0.131857 v 0.764877 c 2.78887,4.66e-4 5.57779,9.6e-5 8.36666,1.92e-4 9e-5,-0.220381 0,-0.440764 0,-0.661146 -7.6e-4,-0.06542 0.004,-0.131348 -0.008,-0.196145 z m -0.65227,-7.907249 c 0.008,-0.0018 0.009,0.01203 0.003,0.01537 -0.008,0.0017 -0.009,-0.01221 -0.003,-0.01537 z m -0.51517,5.713827 c -0.56872,0 -1.13739,0 -1.70611,0 -0.0668,-0.0012 -0.13378,0.0024 -0.20038,-0.0019 0.008,-0.0037 0.0163,-0.0061 0.0251,-0.0057 0.65352,6.4e-5 1.30698,6.4e-5 1.9605,0 0.0216,5.5e-4 0.0444,-0.0034 0.065,0.0051 -0.0478,0.0052 -0.0961,0.0012 -0.14411,0.0024 z m -4.31815,-7.391067 c 0.0484,-0.0092 0.10022,-0.0041 0.14485,0.01734 0.0496,0.02373 0.085,0.07598 0.0851,0.131347 0.006,0.06887 -0.0349,0.132986 -0.0876,0.173775 -0.10434,0.08033 -0.24292,0.105191 -0.37167,0.0918 -0.11909,-0.01209 -0.24106,-0.0088 -0.35716,0.02237 0.029,-0.0404 0.064,-0.07598 0.0968,-0.113213 0.0686,-0.07491 0.14378,-0.144003 0.22621,-0.203547 0.0791,-0.05582 0.16671,-0.1044 0.26348,-0.119879 z m -0.63849,-0.81978 c 0.008,-0.01576 0.0188,-0.03102 0.0353,-0.03825 0.0283,-0.01356 0.0604,-0.0067 0.0901,-0.0032 0.10169,0.01859 0.19716,0.06028 0.29043,0.103553 -0.015,0.0097 -0.0313,0.01684 -0.0479,0.02328 -0.0678,0.02819 -0.13671,0.05666 -0.20998,0.06655 -0.0312,0.0039 -0.0624,0.0104 -0.094,0.0086 -0.0374,-0.0021 -0.0706,-0.03181 -0.0785,-0.06808 -0.004,-0.03135 8.4e-4,-0.06389 0.0145,-0.09242 z m 1.80763,1.948975 c -0.11519,0.119597 -0.25524,0.213376 -0.40523,0.283656 -0.11463,0.05344 -0.23485,0.09395 -0.35586,0.130273 -0.18563,0.05446 -0.37703,0.09022 -0.57019,0.102706 -0.13146,0.0099 -0.26337,0.0064 -0.39506,0.0093 -0.11434,0.0018 -0.23286,0.0089 -0.33777,0.05887 -0.0668,0.0309 -0.1222,0.08045 -0.17587,0.129879 -0.12982,0.124455 -0.24541,0.262865 -0.37641,0.386133 -0.0963,0.0905 -0.21225,0.166262 -0.34388,0.191345 -0.0582,0.01147 -0.1187,0.0091 -0.17632,-0.0041 -0.0268,-0.0068 -0.0542,-0.01514 -0.0765,-0.03215 0.0282,0.0082 0.0552,0.02282 0.0853,0.02317 0.0828,0.0054 0.16022,-0.03418 0.22744,-0.07841 0.12802,-0.08762 0.23733,-0.199084 0.34388,-0.310997 0.11367,-0.117903 0.22202,-0.241173 0.34405,-0.350601 0.0256,-0.02169 0.0508,-0.04401 0.0783,-0.06338 0.0552,-0.03943 0.11897,-0.06599 0.18513,-0.08028 0.12524,-0.02638 0.25377,-0.01955 0.38088,-0.02033 0.0604,0.0012 0.1205,-0.0062 0.18083,-0.0055 0.15525,-0.0086 0.31044,-0.02757 0.46195,-0.06356 0.15943,-0.03644 0.31586,-0.08638 0.46698,-0.148804 0.15361,-0.06531 0.29862,-0.154001 0.41992,-0.269191 0.10779,-0.100955 0.19738,-0.221399 0.26168,-0.354385 0.0783,-0.157336 0.12061,-0.330545 0.1388,-0.504659 0.004,0.04734 0.003,0.09531 -0.003,0.142477 -0.0221,0.305518 -0.14253,0.608776 -0.35907,0.828649 z m -1.853,3.870155 c 0.19451,-0.374609 0.44817,-0.718034 0.74662,-1.016433 0.0786,-0.07971 0.16259,-0.153776 0.2457,-0.228687 0.31387,-0.284389 0.61905,-0.578777 0.9083,-0.88825 0.15287,-0.164171 0.30055,-0.333256 0.43986,-0.509121 0.13982,-0.177956 0.27264,-0.362125 0.38512,-0.55878 0.10016,-0.175186 0.18631,-0.361503 0.22496,-0.560699 -0.017,0.249193 -0.0715,0.497314 -0.17282,0.726283 -0.0864,0.196824 -0.20162,0.379694 -0.3289,0.552508 -0.12791,0.173266 -0.26801,0.337267 -0.41309,0.496297 -0.13711,0.148917 -0.27795,0.294445 -0.42234,0.436357 -0.0707,0.07248 -0.14564,0.140613 -0.21756,0.211907 -0.0931,0.08774 -0.18536,0.176262 -0.2797,0.262583 -0.32715,0.299756 -0.60629,0.654084 -0.80814,1.049935 -0.10615,0.207049 -0.19169,0.424606 -0.25603,0.648266 -0.0716,0.245747 -0.11547,0.498669 -0.14604,0.752552 -0.001,0.0095 -0.003,0.01904 -0.004,0.0287 -0.11457,7.62e-4 -0.22913,0.0014 -0.3437,-3.79e-4 0.0665,-0.488162 0.21399,-0.965985 0.44217,-1.40302 z m -0.76616,2.019027 c -0.0493,-4.66e-4 -0.10802,-0.03706 -0.10039,-0.09271 -0.009,-5.5e-4 -0.0171,-0.0016 -0.0256,-0.0023 0.0112,-0.08186 0.0618,-0.155583 0.13039,-0.200551 0.0528,-0.03565 0.1149,-0.05525 0.1775,-0.06446 0.0466,-0.0044 0.0934,-0.0065 0.14027,-0.0056 0.2997,-1.91e-4 0.5994,2.89e-4 0.8991,-1.91e-4 -0.0388,0.0095 -0.0788,0.01486 -0.11615,0.02983 -0.083,0.03085 -0.15937,0.0922 -0.19016,0.17739 0.95299,0 1.90598,-9.6e-5 2.85898,6.3e-5 0.0237,0 0.0479,0.0019 0.071,-0.0044 -0.0172,-0.03198 -0.0357,-0.06389 -0.0623,-0.08903 -0.0693,-0.0687 -0.16734,-0.101913 -0.26332,-0.107507 0.064,-0.0049 0.1283,-0.0015 0.19247,-0.0025 0.5668,0 1.13366,0 1.70046,0 0.0671,7.63e-4 0.13485,-0.0036 0.20135,0.0079 0.0864,0.0148 0.17275,0.05141 0.23111,0.118918 0.0348,0.04192 0.0603,0.09305 0.0664,0.147674 -0.002,-0.0011 -0.005,-0.0034 -0.007,-0.0045 l -0.006,0.0033 c 0.005,0.03463 -0.0212,0.0635 -0.0507,0.07706 -0.0314,0.01661 -0.0678,0.0109 -0.10186,0.01169 -0.58753,-9.6e-5 -1.17512,-6.3e-5 -1.76266,-6.3e-5 -0.0357,-1.93e-4 -0.0713,5.5e-4 -0.10699,-6.78e-4 -0.99186,8.47e-4 -1.98378,-2.89e-4 -2.97564,6.78e-4 -0.30009,-9.6e-5 -0.60025,9.6e-5 -0.90034,-9.6e-5 z m 0.33258,0.785659 c -0.0185,-0.05062 -0.0412,-0.0996 -0.0673,-0.146772 0.11423,-5.51e-4 0.22851,-0.0013 0.3428,4.66e-4 0.0583,0.108299 0.10248,0.225806 0.11525,0.348848 0.0232,0.180441 -0.0225,0.36365 -0.10299,0.524883 -0.11406,0.0013 -0.22812,6.78e-4 -0.34218,3.78e-4 0.0516,-0.10423 0.0891,-0.216201 0.10259,-0.33207 0.0145,-0.133325 -6.8e-4,-0.270097 -0.0482,-0.395795 z m 6.31763,1.847907 c -0.0271,0.03701 -0.0757,0.04943 -0.11932,0.05022 -0.66098,-6.3e-5 -1.32201,0 -1.98298,0 -0.14254,-5.51e-4 -0.28513,0.0011 -0.42766,-8.47e-4 -0.78391,7.63e-4 -1.56787,6.4e-5 -2.35183,3.77e-4 -0.31654,-3.77e-4 -0.63313,6.79e-4 -0.94966,-4.65e-4 -0.23518,0.0022 -0.47042,2.88e-4 -0.70566,8.48e-4 -0.28247,-6.5e-5 -0.565,1.91e-4 -0.84746,-9.6e-5 -0.0471,4.66e-4 -0.0951,-0.01859 -0.12474,-0.05599 l -0.007,-3.79e-4 c 7.6e-4,-0.01927 0.002,-0.0396 0.0132,-0.05576 0.0182,-0.07118 0.066,-0.132363 0.1227,-0.177729 0.0791,-0.06214 0.17875,-0.09389 0.27812,-0.102818 0.0469,-0.0061 0.0943,-0.002 0.14146,-0.003 0.47828,-6.4e-5 0.95661,0 1.43488,-6.4e-5 0.0341,9.6e-5 0.0684,-0.0016 0.10237,0.0025 -0.0954,0.0093 -0.19095,0.03876 -0.26801,0.09711 -0.0486,0.03497 -0.0879,0.08282 -0.11236,0.13745 h 0.005 c 1.07428,1.92e-4 2.14857,1.92e-4 3.22285,-6.5e-5 l 0.005,6.5e-5 c -0.0392,-0.07983 -0.10903,-0.141462 -0.18908,-0.178409 -0.0584,-0.02791 -0.12214,-0.04254 -0.1861,-0.05039 0.0323,-0.0054 0.0652,-0.0019 0.0978,-0.0028 0.76267,0 1.52533,0 2.288,0 0.0699,7.63e-4 0.14044,-0.0039 0.20959,0.0094 0.13118,0.02113 0.26286,0.09016 0.32772,0.210608 0.008,0.01831 0.0249,0.03729 0.0176,0.05836 0.012,0.01763 0.0191,0.03842 0.0214,0.05971 -0.004,5.51e-4 -0.0123,0.0017 -0.0163,0.0022 z"
       style="fill:#999999;stroke:#000000;stroke-width:0.00052991"
       inkscape:connector-curvature="0" />
  </g>
</svg>
