<?xml version="1.0" encoding="UTF-8" standalone="no"?>
<!-- Created with Inkscape (http://www.inkscape.org/) -->

<svg
   xmlns:dc="http://purl.org/dc/elements/1.1/"
   xmlns:cc="http://creativecommons.org/ns#"
   xmlns:rdf="http://www.w3.org/1999/02/22-rdf-syntax-ns#"
   xmlns:svg="http://www.w3.org/2000/svg"
   xmlns="http://www.w3.org/2000/svg"
   xmlns:sodipodi="http://sodipodi.sourceforge.net/DTD/sodipodi-0.dtd"
   xmlns:inkscape="http://www.inkscape.org/namespaces/inkscape"
   width="210mm"
   height="297mm"
   viewBox="0 0 210 297"
   version="1.1"
   id="svg8"
   sodipodi:docname="Fig_5.svg"
   inkscape:version="0.92.4 5da689c313, 2019-01-14">
  <defs
     id="defs2" />
  <sodipodi:namedview
     id="base"
     pagecolor="#ffffff"
     bordercolor="#666666"
     borderopacity="1.0"
     inkscape:pageopacity="0.0"
     inkscape:pageshadow="2"
     inkscape:zoom="0.7"
     inkscape:cx="196.74269"
     inkscape:cy="838.42238"
     inkscape:document-units="mm"
     inkscape:current-layer="layer1"
     showgrid="false"
     inkscape:window-width="1366"
     inkscape:window-height="744"
     inkscape:window-x="0"
     inkscape:window-y="0"
     inkscape:window-maximized="1" />
  <metadata
     id="metadata5">
    <rdf:RDF>
      <cc:Work
         rdf:about="">
        <dc:format>image/svg+xml</dc:format>
        <dc:type
           rdf:resource="http://purl.org/dc/dcmitype/StillImage" />
        <dc:title />
      </cc:Work>
    </rdf:RDF>
  </metadata>
  <g
     inkscape:label="Layer 1"
     inkscape:groupmode="layer"
     id="layer1">
    <rect
       style="opacity:1;fill:none;fill-opacity:1;stroke:#000000;stroke-width:1.38451552;stroke-linecap:round;stroke-linejoin:bevel;stroke-miterlimit:4;stroke-dasharray:none;stroke-dashoffset:0;stroke-opacity:1;paint-order:normal"
       id="rect815"
       width="143.13077"
       height="88.459671"
       x="36.779015"
       y="29.359024" />
    <g
       transform="matrix(0.04936832,0,0,0.04936832,95.312761,60.95057)"
       id="g8">
      <g
         id="g6">
        <path
           inkscape:connector-curvature="0"
           d="M 256,11 C 120.9,11 11,120.9 11,256 11,391.1 120.9,501 256,501 391.1,501 501,391.1 501,256 501,120.9 391.1,11 256,11 Z m 0,449.2 C 143.4,460.2 51.8,368.6 51.8,256 51.8,143.4 143.4,51.8 256,51.8 c 112.6,0 204.2,91.6 204.2,204.2 0,112.6 -91.6,204.2 -204.2,204.2 z"
           id="path2" />
        <path
           inkscape:connector-curvature="0"
           d="m 268.8,224.8 v -66.5 c 11,4.8 17.8,13.8 20.4,27.2 l 43,-5.6 c -2.9,-17 -9.8,-30.6 -20.4,-40.7 -10.7,-10.2 -25,-16.3 -43,-18.5 v -16.8 h -24.7 v 16.8 c -19.5,1.9 -35.1,9.2 -46.9,21.9 -11.7,12.6 -17.6,28.3 -17.6,46.9 0,18.4 5.2,34 15.6,46.9 10.4,12.9 26.7,22.5 48.9,28.8 v 71.3 c -6.1,-2.9 -11.7,-7.7 -16.7,-14.3 -5,-6.6 -8.4,-14.4 -10.2,-23.5 l -44.4,4.8 c 3.4,22.3 11.2,39.6 23.5,51.9 12.3,12.3 28.2,19.6 47.8,21.9 v 31 h 24.7 v -31.8 c 22.1,-3.2 39.4,-11.8 51.8,-25.9 12.4,-14.1 18.6,-31.4 18.6,-51.9 0,-18.4 -4.9,-33.4 -14.8,-45.2 -9.9,-11.8 -28.4,-21.3 -55.6,-28.7 z m -24.7,-8.2 c -36.1,-11.8 -24.2,-58.9 0,-58.9 z m 24.7,122.2 v -66.4 c 36.2,7 33.1,59.5 0,66.4 z"
           id="path4" />
      </g>
    </g>
    <text
       xml:space="preserve"
       style="font-style:normal;font-weight:normal;font-size:13.0151844px;line-height:1.25;font-family:Kalpurush;letter-spacing:0px;word-spacing:0px;fill:#000000;fill-opacity:1;stroke:none;stroke-width:0.32537961"
       x="95.334427"
       y="94.612083"
       id="text965"><tspan
         sodipodi:role="line"
         id="tspan963"
         x="95.334427"
         y="94.612083"
         style="font-size:8.67678928px;stroke-width:0.32537961">অ্যালিস-1</tspan></text>
    <g
       id="g1009"
       transform="matrix(0.04936832,0,0,0.04936832,136.90551,32.980332)">
      <path
         inkscape:connector-curvature="0"
         d="M 256,11 C 120.9,11 11,120.9 11,256 11,391.1 120.9,501 256,501 391.1,501 501,391.1 501,256 501,120.9 391.1,11 256,11 Z m 0,449.2 C 143.4,460.2 51.8,368.6 51.8,256 51.8,143.4 143.4,51.8 256,51.8 c 112.6,0 204.2,91.6 204.2,204.2 0,112.6 -91.6,204.2 -204.2,204.2 z"
         id="path1005" />
      <path
         inkscape:connector-curvature="0"
         d="m 268.8,224.8 v -66.5 c 11,4.8 17.8,13.8 20.4,27.2 l 43,-5.6 c -2.9,-17 -9.8,-30.6 -20.4,-40.7 -10.7,-10.2 -25,-16.3 -43,-18.5 v -16.8 h -24.7 v 16.8 c -19.5,1.9 -35.1,9.2 -46.9,21.9 -11.7,12.6 -17.6,28.3 -17.6,46.9 0,18.4 5.2,34 15.6,46.9 10.4,12.9 26.7,22.5 48.9,28.8 v 71.3 c -6.1,-2.9 -11.7,-7.7 -16.7,-14.3 -5,-6.6 -8.4,-14.4 -10.2,-23.5 l -44.4,4.8 c 3.4,22.3 11.2,39.6 23.5,51.9 12.3,12.3 28.2,19.6 47.8,21.9 v 31 h 24.7 v -31.8 c 22.1,-3.2 39.4,-11.8 51.8,-25.9 12.4,-14.1 18.6,-31.4 18.6,-51.9 0,-18.4 -4.9,-33.4 -14.8,-45.2 -9.9,-11.8 -28.4,-21.3 -55.6,-28.7 z m -24.7,-8.2 c -36.1,-11.8 -24.2,-58.9 0,-58.9 z m 24.7,122.2 v -66.4 c 36.2,7 33.1,59.5 0,66.4 z"
         id="path1007" />
    </g>
    <g
       transform="matrix(-0.04936832,0,0,-0.04936832,79.365136,114.19739)"
       id="g1033">
      <g
         id="g1031">
        <path
           inkscape:connector-curvature="0"
           d="M 256,11 C 120.9,11 11,120.9 11,256 11,391.1 120.9,501 256,501 391.1,501 501,391.1 501,256 501,120.9 391.1,11 256,11 Z m 0,449.2 C 143.4,460.2 51.8,368.6 51.8,256 51.8,143.4 143.4,51.8 256,51.8 c 112.6,0 204.2,91.6 204.2,204.2 0,112.6 -91.6,204.2 -204.2,204.2 z"
           id="path1027" />
        <path
           inkscape:connector-curvature="0"
           d="m 268.8,224.8 v -66.5 c 11,4.8 17.8,13.8 20.4,27.2 l 43,-5.6 c -2.9,-17 -9.8,-30.6 -20.4,-40.7 -10.7,-10.2 -25,-16.3 -43,-18.5 v -16.8 h -24.7 v 16.8 c -19.5,1.9 -35.1,9.2 -46.9,21.9 -11.7,12.6 -17.6,28.3 -17.6,46.9 0,18.4 5.2,34 15.6,46.9 10.4,12.9 26.7,22.5 48.9,28.8 v 71.3 c -6.1,-2.9 -11.7,-7.7 -16.7,-14.3 -5,-6.6 -8.4,-14.4 -10.2,-23.5 l -44.4,4.8 c 3.4,22.3 11.2,39.6 23.5,51.9 12.3,12.3 28.2,19.6 47.8,21.9 v 31 h 24.7 v -31.8 c 22.1,-3.2 39.4,-11.8 51.8,-25.9 12.4,-14.1 18.6,-31.4 18.6,-51.9 0,-18.4 -4.9,-33.4 -14.8,-45.2 -9.9,-11.8 -28.4,-21.3 -55.6,-28.7 z m -24.7,-8.2 c -36.1,-11.8 -24.2,-58.9 0,-58.9 z m 24.7,122.2 v -66.4 c 36.2,7 33.1,59.5 0,66.4 z"
           id="path1029" />
      </g>
    </g>
    <text
       id="text1037"
       y="87.506126"
       x="53.588112"
       style="font-style:normal;font-weight:normal;font-size:13.0151844px;line-height:1.25;font-family:Kalpurush;letter-spacing:0px;word-spacing:0px;fill:#000000;fill-opacity:1;stroke:none;stroke-width:0.32537961"
       xml:space="preserve"><tspan
         style="font-size:8.67678928px;stroke-width:0.32537961"
         y="87.506126"
         x="53.588112"
         id="tspan1035"
         sodipodi:role="line">অ্যালিস-2</tspan></text>
    <g
       id="g911">
      <rect
         style="opacity:1;fill:none;fill-opacity:1;stroke:#000000;stroke-width:2.46944451;stroke-linecap:round;stroke-linejoin:bevel;stroke-miterlimit:4;stroke-dasharray:none;stroke-dashoffset:0;stroke-opacity:1;paint-order:normal"
         id="rect905"
         width="143.13077"
         height="88.459671"
         x="36.779015"
         y="29.359024" />
      <rect
         y="29.359024"
         x="36.779015"
         height="88.459671"
         width="143.13077"
         id="rect907"
         style="opacity:1;fill:none;fill-opacity:1;stroke:#ffffff;stroke-width:0.70555556;stroke-linecap:round;stroke-linejoin:bevel;stroke-miterlimit:4;stroke-dasharray:none;stroke-dashoffset:0;stroke-opacity:1;paint-order:normal" />
    </g>
    <text
       id="text2021"
       y="66.339462"
       x="142.27908"
       style="font-style:normal;font-weight:normal;font-size:13.0151844px;line-height:1.25;font-family:Kalpurush;letter-spacing:0px;word-spacing:0px;fill:#000000;fill-opacity:1;stroke:none;stroke-width:0.32537961"
       xml:space="preserve"><tspan
         style="font-size:8.67678928px;stroke-width:0.32537961"
         y="66.339462"
         x="142.27908"
         id="tspan2019"
         sodipodi:role="line">বব-1</tspan></text>
  </g>
</svg>
