<?xml version="1.0" encoding="UTF-8" standalone="no"?>
<!-- Created with Inkscape (http://www.inkscape.org/) -->

<svg
   xmlns:dc="http://purl.org/dc/elements/1.1/"
   xmlns:cc="http://creativecommons.org/ns#"
   xmlns:rdf="http://www.w3.org/1999/02/22-rdf-syntax-ns#"
   xmlns:svg="http://www.w3.org/2000/svg"
   xmlns="http://www.w3.org/2000/svg"
   xmlns:sodipodi="http://sodipodi.sourceforge.net/DTD/sodipodi-0.dtd"
   xmlns:inkscape="http://www.inkscape.org/namespaces/inkscape"
   width="210mm"
   height="297mm"
   viewBox="0 0 210 297"
   version="1.1"
   id="svg8"
   sodipodi:docname="Fig_7.svg"
   inkscape:version="0.92.4 5da689c313, 2019-01-14">
  <defs
     id="defs2" />
  <sodipodi:namedview
     id="base"
     pagecolor="#ffffff"
     bordercolor="#666666"
     borderopacity="1.0"
     inkscape:pageopacity="0.0"
     inkscape:pageshadow="2"
     inkscape:zoom="0.49497475"
     inkscape:cx="311.85428"
     inkscape:cy="694.51268"
     inkscape:document-units="mm"
     inkscape:current-layer="layer1"
     showgrid="false"
     inkscape:window-width="1366"
     inkscape:window-height="744"
     inkscape:window-x="0"
     inkscape:window-y="0"
     inkscape:window-maximized="1" />
  <metadata
     id="metadata5">
    <rdf:RDF>
      <cc:Work
         rdf:about="">
        <dc:format>image/svg+xml</dc:format>
        <dc:type
           rdf:resource="http://purl.org/dc/dcmitype/StillImage" />
        <dc:title />
      </cc:Work>
    </rdf:RDF>
  </metadata>
  <g
     inkscape:label="Layer 1"
     inkscape:groupmode="layer"
     id="layer1">
    <g
       style="opacity:0.421;stroke:#000000;stroke-opacity:1"
       transform="matrix(0.59396495,0,0,0.59396495,-2.245229,53.363542)"
       inkscape:tile-y0="28.082539"
       inkscape:tile-x0="39.889086"
       id="use1415">
      <g
         id="g1449"
         style="stroke:#000000;stroke-opacity:1">
        <rect
           y="28.258928"
           x="40.065475"
           height="28.348215"
           width="28.348215"
           id="rect1445"
           style="opacity:1;fill:none;fill-opacity:1;stroke:#000000;stroke-width:0.35277778;stroke-linecap:round;stroke-linejoin:bevel;stroke-miterlimit:4;stroke-dasharray:none;stroke-dashoffset:0;stroke-opacity:1;paint-order:normal" />
        <rect
           style="opacity:1;fill:#000000;fill-opacity:1;stroke:#000000;stroke-width:0.35277778;stroke-linecap:round;stroke-linejoin:bevel;stroke-miterlimit:4;stroke-dasharray:none;stroke-dashoffset:0;stroke-opacity:1;paint-order:normal"
           id="rect1447"
           width="28.348215"
           height="28.348215"
           x="68.413689"
           y="28.258928" />
      </g>
      <g
         id="g1455"
         transform="rotate(-180,68.41369,56.607143)"
         style="stroke:#000000;stroke-opacity:1">
        <rect
           style="opacity:1;fill:none;fill-opacity:1;stroke:#000000;stroke-width:0.35277778;stroke-linecap:round;stroke-linejoin:bevel;stroke-miterlimit:4;stroke-dasharray:none;stroke-dashoffset:0;stroke-opacity:1;paint-order:normal"
           id="rect1451"
           width="28.348215"
           height="28.348215"
           x="40.065475"
           y="28.258928" />
        <rect
           y="28.258928"
           x="68.413689"
           height="28.348215"
           width="28.348215"
           id="rect1453"
           style="opacity:1;fill:#000000;fill-opacity:1;stroke:#000000;stroke-width:0.35277778;stroke-linecap:round;stroke-linejoin:bevel;stroke-miterlimit:4;stroke-dasharray:none;stroke-dashoffset:0;stroke-opacity:1;paint-order:normal" />
      </g>
    </g>
    <g
       style="opacity:0.421;stroke:#000000;stroke-opacity:1"
       transform="matrix(0.59396495,0,0,0.59396495,-2.245227,87.039235)"
       inkscape:tile-y0="28.082539"
       inkscape:tile-x0="39.889086"
       id="use1417">
      <g
         id="g1463"
         style="stroke:#000000;stroke-opacity:1">
        <rect
           y="28.258928"
           x="40.065475"
           height="28.348215"
           width="28.348215"
           id="rect1459"
           style="opacity:1;fill:none;fill-opacity:1;stroke:#000000;stroke-width:0.35277778;stroke-linecap:round;stroke-linejoin:bevel;stroke-miterlimit:4;stroke-dasharray:none;stroke-dashoffset:0;stroke-opacity:1;paint-order:normal" />
        <rect
           style="opacity:1;fill:#000000;fill-opacity:1;stroke:#000000;stroke-width:0.35277778;stroke-linecap:round;stroke-linejoin:bevel;stroke-miterlimit:4;stroke-dasharray:none;stroke-dashoffset:0;stroke-opacity:1;paint-order:normal"
           id="rect1461"
           width="28.348215"
           height="28.348215"
           x="68.413689"
           y="28.258928" />
      </g>
      <g
         id="g1469"
         transform="rotate(-180,68.41369,56.607143)"
         style="stroke:#000000;stroke-opacity:1">
        <rect
           style="opacity:1;fill:none;fill-opacity:1;stroke:#000000;stroke-width:0.35277778;stroke-linecap:round;stroke-linejoin:bevel;stroke-miterlimit:4;stroke-dasharray:none;stroke-dashoffset:0;stroke-opacity:1;paint-order:normal"
           id="rect1465"
           width="28.348215"
           height="28.348215"
           x="40.065475"
           y="28.258928" />
        <rect
           y="28.258928"
           x="68.413689"
           height="28.348215"
           width="28.348215"
           id="rect1467"
           style="opacity:1;fill:#000000;fill-opacity:1;stroke:#000000;stroke-width:0.35277778;stroke-linecap:round;stroke-linejoin:bevel;stroke-miterlimit:4;stroke-dasharray:none;stroke-dashoffset:0;stroke-opacity:1;paint-order:normal" />
      </g>
    </g>
    <g
       style="opacity:0.421;stroke:#000000;stroke-opacity:1"
       transform="matrix(0.59396495,0,0,0.59396495,-2.245226,120.71493)"
       inkscape:tile-y0="28.082539"
       inkscape:tile-x0="39.889086"
       id="use1419">
      <g
         id="g1477"
         style="stroke:#000000;stroke-opacity:1">
        <rect
           y="28.258928"
           x="40.065475"
           height="28.348215"
           width="28.348215"
           id="rect1473"
           style="opacity:1;fill:none;fill-opacity:1;stroke:#000000;stroke-width:0.35277778;stroke-linecap:round;stroke-linejoin:bevel;stroke-miterlimit:4;stroke-dasharray:none;stroke-dashoffset:0;stroke-opacity:1;paint-order:normal" />
        <rect
           style="opacity:1;fill:#000000;fill-opacity:1;stroke:#000000;stroke-width:0.35277778;stroke-linecap:round;stroke-linejoin:bevel;stroke-miterlimit:4;stroke-dasharray:none;stroke-dashoffset:0;stroke-opacity:1;paint-order:normal"
           id="rect1475"
           width="28.348215"
           height="28.348215"
           x="68.413689"
           y="28.258928" />
      </g>
      <g
         id="g1483"
         transform="rotate(-180,68.41369,56.607143)"
         style="stroke:#000000;stroke-opacity:1">
        <rect
           style="opacity:1;fill:none;fill-opacity:1;stroke:#000000;stroke-width:0.35277778;stroke-linecap:round;stroke-linejoin:bevel;stroke-miterlimit:4;stroke-dasharray:none;stroke-dashoffset:0;stroke-opacity:1;paint-order:normal"
           id="rect1479"
           width="28.348215"
           height="28.348215"
           x="40.065475"
           y="28.258928" />
        <rect
           y="28.258928"
           x="68.413689"
           height="28.348215"
           width="28.348215"
           id="rect1481"
           style="opacity:1;fill:#000000;fill-opacity:1;stroke:#000000;stroke-width:0.35277778;stroke-linecap:round;stroke-linejoin:bevel;stroke-miterlimit:4;stroke-dasharray:none;stroke-dashoffset:0;stroke-opacity:1;paint-order:normal" />
      </g>
    </g>
    <g
       style="opacity:0.421;stroke:#000000;stroke-opacity:1"
       transform="matrix(0.59396495,0,0,0.59396495,31.430462,19.68785)"
       inkscape:tile-y0="28.082539"
       inkscape:tile-x0="39.889086"
       id="use1421">
      <g
         id="g1491"
         style="stroke:#000000;stroke-opacity:1">
        <rect
           y="28.258928"
           x="40.065475"
           height="28.348215"
           width="28.348215"
           id="rect1487"
           style="opacity:1;fill:none;fill-opacity:1;stroke:#000000;stroke-width:0.35277778;stroke-linecap:round;stroke-linejoin:bevel;stroke-miterlimit:4;stroke-dasharray:none;stroke-dashoffset:0;stroke-opacity:1;paint-order:normal" />
        <rect
           style="opacity:1;fill:#000000;fill-opacity:1;stroke:#000000;stroke-width:0.35277778;stroke-linecap:round;stroke-linejoin:bevel;stroke-miterlimit:4;stroke-dasharray:none;stroke-dashoffset:0;stroke-opacity:1;paint-order:normal"
           id="rect1489"
           width="28.348215"
           height="28.348215"
           x="68.413689"
           y="28.258928" />
      </g>
      <g
         id="g1497"
         transform="rotate(-180,68.41369,56.607143)"
         style="stroke:#000000;stroke-opacity:1">
        <rect
           style="opacity:1;fill:none;fill-opacity:1;stroke:#000000;stroke-width:0.35277778;stroke-linecap:round;stroke-linejoin:bevel;stroke-miterlimit:4;stroke-dasharray:none;stroke-dashoffset:0;stroke-opacity:1;paint-order:normal"
           id="rect1493"
           width="28.348215"
           height="28.348215"
           x="40.065475"
           y="28.258928" />
        <rect
           y="28.258928"
           x="68.413689"
           height="28.348215"
           width="28.348215"
           id="rect1495"
           style="opacity:1;fill:#000000;fill-opacity:1;stroke:#000000;stroke-width:0.35277778;stroke-linecap:round;stroke-linejoin:bevel;stroke-miterlimit:4;stroke-dasharray:none;stroke-dashoffset:0;stroke-opacity:1;paint-order:normal" />
      </g>
    </g>
    <g
       style="opacity:0.421;stroke:#000000;stroke-opacity:1"
       transform="matrix(0.59396495,0,0,0.59396495,31.430462,53.363542)"
       inkscape:tile-y0="28.082539"
       inkscape:tile-x0="39.889086"
       id="use1423">
      <g
         id="g1505"
         style="stroke:#000000;stroke-opacity:1">
        <rect
           y="28.258928"
           x="40.065475"
           height="28.348215"
           width="28.348215"
           id="rect1501"
           style="opacity:1;fill:none;fill-opacity:1;stroke:#000000;stroke-width:0.35277778;stroke-linecap:round;stroke-linejoin:bevel;stroke-miterlimit:4;stroke-dasharray:none;stroke-dashoffset:0;stroke-opacity:1;paint-order:normal" />
        <rect
           style="opacity:1;fill:#000000;fill-opacity:1;stroke:#000000;stroke-width:0.35277778;stroke-linecap:round;stroke-linejoin:bevel;stroke-miterlimit:4;stroke-dasharray:none;stroke-dashoffset:0;stroke-opacity:1;paint-order:normal"
           id="rect1503"
           width="28.348215"
           height="28.348215"
           x="68.413689"
           y="28.258928" />
      </g>
      <g
         id="g1511"
         transform="rotate(-180,68.41369,56.607143)"
         style="stroke:#000000;stroke-opacity:1">
        <rect
           style="opacity:1;fill:none;fill-opacity:1;stroke:#000000;stroke-width:0.35277778;stroke-linecap:round;stroke-linejoin:bevel;stroke-miterlimit:4;stroke-dasharray:none;stroke-dashoffset:0;stroke-opacity:1;paint-order:normal"
           id="rect1507"
           width="28.348215"
           height="28.348215"
           x="40.065475"
           y="28.258928" />
        <rect
           y="28.258928"
           x="68.413689"
           height="28.348215"
           width="28.348215"
           id="rect1509"
           style="opacity:1;fill:#000000;fill-opacity:1;stroke:#000000;stroke-width:0.35277778;stroke-linecap:round;stroke-linejoin:bevel;stroke-miterlimit:4;stroke-dasharray:none;stroke-dashoffset:0;stroke-opacity:1;paint-order:normal" />
      </g>
    </g>
    <g
       style="opacity:0.421;stroke:#000000;stroke-opacity:1"
       transform="matrix(0.59396495,0,0,0.59396495,31.430464,87.039235)"
       inkscape:tile-y0="28.082539"
       inkscape:tile-x0="39.889086"
       id="use1425">
      <g
         id="g1519"
         style="stroke:#000000;stroke-opacity:1">
        <rect
           y="28.258928"
           x="40.065475"
           height="28.348215"
           width="28.348215"
           id="rect1515"
           style="opacity:1;fill:none;fill-opacity:1;stroke:#000000;stroke-width:0.35277778;stroke-linecap:round;stroke-linejoin:bevel;stroke-miterlimit:4;stroke-dasharray:none;stroke-dashoffset:0;stroke-opacity:1;paint-order:normal" />
        <rect
           style="opacity:1;fill:#000000;fill-opacity:1;stroke:#000000;stroke-width:0.35277778;stroke-linecap:round;stroke-linejoin:bevel;stroke-miterlimit:4;stroke-dasharray:none;stroke-dashoffset:0;stroke-opacity:1;paint-order:normal"
           id="rect1517"
           width="28.348215"
           height="28.348215"
           x="68.413689"
           y="28.258928" />
      </g>
      <g
         id="g1525"
         transform="rotate(-180,68.41369,56.607143)"
         style="stroke:#000000;stroke-opacity:1">
        <rect
           style="opacity:1;fill:none;fill-opacity:1;stroke:#000000;stroke-width:0.35277778;stroke-linecap:round;stroke-linejoin:bevel;stroke-miterlimit:4;stroke-dasharray:none;stroke-dashoffset:0;stroke-opacity:1;paint-order:normal"
           id="rect1521"
           width="28.348215"
           height="28.348215"
           x="40.065475"
           y="28.258928" />
        <rect
           y="28.258928"
           x="68.413689"
           height="28.348215"
           width="28.348215"
           id="rect1523"
           style="opacity:1;fill:#000000;fill-opacity:1;stroke:#000000;stroke-width:0.35277778;stroke-linecap:round;stroke-linejoin:bevel;stroke-miterlimit:4;stroke-dasharray:none;stroke-dashoffset:0;stroke-opacity:1;paint-order:normal" />
      </g>
    </g>
    <g
       style="opacity:0.421;stroke:#000000;stroke-opacity:1"
       transform="matrix(0.59396495,0,0,0.59396495,31.430465,120.71493)"
       inkscape:tile-y0="28.082539"
       inkscape:tile-x0="39.889086"
       id="use1427">
      <g
         id="g1533"
         style="stroke:#000000;stroke-opacity:1">
        <rect
           y="28.258928"
           x="40.065475"
           height="28.348215"
           width="28.348215"
           id="rect1529"
           style="opacity:1;fill:none;fill-opacity:1;stroke:#000000;stroke-width:0.35277778;stroke-linecap:round;stroke-linejoin:bevel;stroke-miterlimit:4;stroke-dasharray:none;stroke-dashoffset:0;stroke-opacity:1;paint-order:normal" />
        <rect
           style="opacity:1;fill:#000000;fill-opacity:1;stroke:#000000;stroke-width:0.35277778;stroke-linecap:round;stroke-linejoin:bevel;stroke-miterlimit:4;stroke-dasharray:none;stroke-dashoffset:0;stroke-opacity:1;paint-order:normal"
           id="rect1531"
           width="28.348215"
           height="28.348215"
           x="68.413689"
           y="28.258928" />
      </g>
      <g
         id="g1539"
         transform="rotate(-180,68.41369,56.607143)"
         style="stroke:#000000;stroke-opacity:1">
        <rect
           style="opacity:1;fill:none;fill-opacity:1;stroke:#000000;stroke-width:0.35277778;stroke-linecap:round;stroke-linejoin:bevel;stroke-miterlimit:4;stroke-dasharray:none;stroke-dashoffset:0;stroke-opacity:1;paint-order:normal"
           id="rect1535"
           width="28.348215"
           height="28.348215"
           x="40.065475"
           y="28.258928" />
        <rect
           y="28.258928"
           x="68.413689"
           height="28.348215"
           width="28.348215"
           id="rect1537"
           style="opacity:1;fill:#000000;fill-opacity:1;stroke:#000000;stroke-width:0.35277778;stroke-linecap:round;stroke-linejoin:bevel;stroke-miterlimit:4;stroke-dasharray:none;stroke-dashoffset:0;stroke-opacity:1;paint-order:normal" />
      </g>
    </g>
    <g
       style="opacity:0.421;stroke:#000000;stroke-opacity:1"
       transform="matrix(0.59396495,0,0,0.59396495,65.106155,19.68785)"
       inkscape:tile-y0="28.082539"
       inkscape:tile-x0="39.889086"
       id="use1429">
      <g
         id="g1547"
         style="stroke:#000000;stroke-opacity:1">
        <rect
           y="28.258928"
           x="40.065475"
           height="28.348215"
           width="28.348215"
           id="rect1543"
           style="opacity:1;fill:none;fill-opacity:1;stroke:#000000;stroke-width:0.35277778;stroke-linecap:round;stroke-linejoin:bevel;stroke-miterlimit:4;stroke-dasharray:none;stroke-dashoffset:0;stroke-opacity:1;paint-order:normal" />
        <rect
           style="opacity:1;fill:#000000;fill-opacity:1;stroke:#000000;stroke-width:0.35277778;stroke-linecap:round;stroke-linejoin:bevel;stroke-miterlimit:4;stroke-dasharray:none;stroke-dashoffset:0;stroke-opacity:1;paint-order:normal"
           id="rect1545"
           width="28.348215"
           height="28.348215"
           x="68.413689"
           y="28.258928" />
      </g>
      <g
         id="g1553"
         transform="rotate(-180,68.41369,56.607143)"
         style="stroke:#000000;stroke-opacity:1">
        <rect
           style="opacity:1;fill:none;fill-opacity:1;stroke:#000000;stroke-width:0.35277778;stroke-linecap:round;stroke-linejoin:bevel;stroke-miterlimit:4;stroke-dasharray:none;stroke-dashoffset:0;stroke-opacity:1;paint-order:normal"
           id="rect1549"
           width="28.348215"
           height="28.348215"
           x="40.065475"
           y="28.258928" />
        <rect
           y="28.258928"
           x="68.413689"
           height="28.348215"
           width="28.348215"
           id="rect1551"
           style="opacity:1;fill:#000000;fill-opacity:1;stroke:#000000;stroke-width:0.35277778;stroke-linecap:round;stroke-linejoin:bevel;stroke-miterlimit:4;stroke-dasharray:none;stroke-dashoffset:0;stroke-opacity:1;paint-order:normal" />
      </g>
    </g>
    <g
       style="opacity:0.421;stroke:#000000;stroke-opacity:1"
       transform="matrix(0.59396495,0,0,0.59396495,65.106155,53.363542)"
       inkscape:tile-y0="28.082539"
       inkscape:tile-x0="39.889086"
       id="use1431">
      <g
         id="g1561"
         style="stroke:#000000;stroke-opacity:1">
        <rect
           y="28.258928"
           x="40.065475"
           height="28.348215"
           width="28.348215"
           id="rect1557"
           style="opacity:1;fill:none;fill-opacity:1;stroke:#000000;stroke-width:0.35277778;stroke-linecap:round;stroke-linejoin:bevel;stroke-miterlimit:4;stroke-dasharray:none;stroke-dashoffset:0;stroke-opacity:1;paint-order:normal" />
        <rect
           style="opacity:1;fill:#000000;fill-opacity:1;stroke:#000000;stroke-width:0.35277778;stroke-linecap:round;stroke-linejoin:bevel;stroke-miterlimit:4;stroke-dasharray:none;stroke-dashoffset:0;stroke-opacity:1;paint-order:normal"
           id="rect1559"
           width="28.348215"
           height="28.348215"
           x="68.413689"
           y="28.258928" />
      </g>
      <g
         id="g1567"
         transform="rotate(-180,68.41369,56.607143)"
         style="stroke:#000000;stroke-opacity:1">
        <rect
           style="opacity:1;fill:none;fill-opacity:1;stroke:#000000;stroke-width:0.35277778;stroke-linecap:round;stroke-linejoin:bevel;stroke-miterlimit:4;stroke-dasharray:none;stroke-dashoffset:0;stroke-opacity:1;paint-order:normal"
           id="rect1563"
           width="28.348215"
           height="28.348215"
           x="40.065475"
           y="28.258928" />
        <rect
           y="28.258928"
           x="68.413689"
           height="28.348215"
           width="28.348215"
           id="rect1565"
           style="opacity:1;fill:#000000;fill-opacity:1;stroke:#000000;stroke-width:0.35277778;stroke-linecap:round;stroke-linejoin:bevel;stroke-miterlimit:4;stroke-dasharray:none;stroke-dashoffset:0;stroke-opacity:1;paint-order:normal" />
      </g>
    </g>
    <g
       style="opacity:0.421;stroke:#000000;stroke-opacity:1"
       transform="matrix(0.59396495,0,0,0.59396495,65.106155,87.039235)"
       inkscape:tile-y0="28.082539"
       inkscape:tile-x0="39.889086"
       id="use1433">
      <g
         id="g1575"
         style="stroke:#000000;stroke-opacity:1">
        <rect
           y="28.258928"
           x="40.065475"
           height="28.348215"
           width="28.348215"
           id="rect1571"
           style="opacity:1;fill:none;fill-opacity:1;stroke:#000000;stroke-width:0.35277778;stroke-linecap:round;stroke-linejoin:bevel;stroke-miterlimit:4;stroke-dasharray:none;stroke-dashoffset:0;stroke-opacity:1;paint-order:normal" />
        <rect
           style="opacity:1;fill:#000000;fill-opacity:1;stroke:#000000;stroke-width:0.35277778;stroke-linecap:round;stroke-linejoin:bevel;stroke-miterlimit:4;stroke-dasharray:none;stroke-dashoffset:0;stroke-opacity:1;paint-order:normal"
           id="rect1573"
           width="28.348215"
           height="28.348215"
           x="68.413689"
           y="28.258928" />
      </g>
      <g
         id="g1581"
         transform="rotate(-180,68.41369,56.607143)"
         style="stroke:#000000;stroke-opacity:1">
        <rect
           style="opacity:1;fill:none;fill-opacity:1;stroke:#000000;stroke-width:0.35277778;stroke-linecap:round;stroke-linejoin:bevel;stroke-miterlimit:4;stroke-dasharray:none;stroke-dashoffset:0;stroke-opacity:1;paint-order:normal"
           id="rect1577"
           width="28.348215"
           height="28.348215"
           x="40.065475"
           y="28.258928" />
        <rect
           y="28.258928"
           x="68.413689"
           height="28.348215"
           width="28.348215"
           id="rect1579"
           style="opacity:1;fill:#000000;fill-opacity:1;stroke:#000000;stroke-width:0.35277778;stroke-linecap:round;stroke-linejoin:bevel;stroke-miterlimit:4;stroke-dasharray:none;stroke-dashoffset:0;stroke-opacity:1;paint-order:normal" />
      </g>
    </g>
    <g
       style="opacity:0.421;stroke:#000000;stroke-opacity:1"
       transform="matrix(0.59396495,0,0,0.59396495,65.106155,120.71493)"
       inkscape:tile-y0="28.082539"
       inkscape:tile-x0="39.889086"
       id="use1435">
      <g
         id="g1589"
         style="stroke:#000000;stroke-opacity:1">
        <rect
           y="28.258928"
           x="40.065475"
           height="28.348215"
           width="28.348215"
           id="rect1585"
           style="opacity:1;fill:none;fill-opacity:1;stroke:#000000;stroke-width:0.35277778;stroke-linecap:round;stroke-linejoin:bevel;stroke-miterlimit:4;stroke-dasharray:none;stroke-dashoffset:0;stroke-opacity:1;paint-order:normal" />
        <rect
           style="opacity:1;fill:#000000;fill-opacity:1;stroke:#000000;stroke-width:0.35277778;stroke-linecap:round;stroke-linejoin:bevel;stroke-miterlimit:4;stroke-dasharray:none;stroke-dashoffset:0;stroke-opacity:1;paint-order:normal"
           id="rect1587"
           width="28.348215"
           height="28.348215"
           x="68.413689"
           y="28.258928" />
      </g>
      <g
         id="g1595"
         transform="rotate(-180,68.41369,56.607143)"
         style="stroke:#000000;stroke-opacity:1">
        <rect
           style="opacity:1;fill:none;fill-opacity:1;stroke:#000000;stroke-width:0.35277778;stroke-linecap:round;stroke-linejoin:bevel;stroke-miterlimit:4;stroke-dasharray:none;stroke-dashoffset:0;stroke-opacity:1;paint-order:normal"
           id="rect1591"
           width="28.348215"
           height="28.348215"
           x="40.065475"
           y="28.258928" />
        <rect
           y="28.258928"
           x="68.413689"
           height="28.348215"
           width="28.348215"
           id="rect1593"
           style="opacity:1;fill:#000000;fill-opacity:1;stroke:#000000;stroke-width:0.35277778;stroke-linecap:round;stroke-linejoin:bevel;stroke-miterlimit:4;stroke-dasharray:none;stroke-dashoffset:0;stroke-opacity:1;paint-order:normal" />
      </g>
    </g>
    <g
       style="opacity:0.421;stroke:#000000;stroke-opacity:1"
       transform="matrix(0.59396495,0,0,0.59396495,98.78185,19.68785)"
       inkscape:tile-y0="28.082539"
       inkscape:tile-x0="39.889086"
       id="use1437">
      <g
         id="g1603"
         style="stroke:#000000;stroke-opacity:1">
        <rect
           y="28.258928"
           x="40.065475"
           height="28.348215"
           width="28.348215"
           id="rect1599"
           style="opacity:1;fill:none;fill-opacity:1;stroke:#000000;stroke-width:0.35277778;stroke-linecap:round;stroke-linejoin:bevel;stroke-miterlimit:4;stroke-dasharray:none;stroke-dashoffset:0;stroke-opacity:1;paint-order:normal" />
        <rect
           style="opacity:1;fill:#000000;fill-opacity:1;stroke:#000000;stroke-width:0.35277778;stroke-linecap:round;stroke-linejoin:bevel;stroke-miterlimit:4;stroke-dasharray:none;stroke-dashoffset:0;stroke-opacity:1;paint-order:normal"
           id="rect1601"
           width="28.348215"
           height="28.348215"
           x="68.413689"
           y="28.258928" />
      </g>
      <g
         id="g1609"
         transform="rotate(-180,68.41369,56.607143)"
         style="stroke:#000000;stroke-opacity:1">
        <rect
           style="opacity:1;fill:none;fill-opacity:1;stroke:#000000;stroke-width:0.35277778;stroke-linecap:round;stroke-linejoin:bevel;stroke-miterlimit:4;stroke-dasharray:none;stroke-dashoffset:0;stroke-opacity:1;paint-order:normal"
           id="rect1605"
           width="28.348215"
           height="28.348215"
           x="40.065475"
           y="28.258928" />
        <rect
           y="28.258928"
           x="68.413689"
           height="28.348215"
           width="28.348215"
           id="rect1607"
           style="opacity:1;fill:#000000;fill-opacity:1;stroke:#000000;stroke-width:0.35277778;stroke-linecap:round;stroke-linejoin:bevel;stroke-miterlimit:4;stroke-dasharray:none;stroke-dashoffset:0;stroke-opacity:1;paint-order:normal" />
      </g>
    </g>
    <g
       style="opacity:0.421;stroke:#000000;stroke-opacity:1"
       transform="matrix(0.59396495,0,0,0.59396495,98.78185,53.363542)"
       inkscape:tile-y0="28.082539"
       inkscape:tile-x0="39.889086"
       id="use1439">
      <g
         id="g1617"
         style="stroke:#000000;stroke-opacity:1">
        <rect
           y="28.258928"
           x="40.065475"
           height="28.348215"
           width="28.348215"
           id="rect1613"
           style="opacity:1;fill:none;fill-opacity:1;stroke:#000000;stroke-width:0.35277778;stroke-linecap:round;stroke-linejoin:bevel;stroke-miterlimit:4;stroke-dasharray:none;stroke-dashoffset:0;stroke-opacity:1;paint-order:normal" />
        <rect
           style="opacity:1;fill:#000000;fill-opacity:1;stroke:#000000;stroke-width:0.35277778;stroke-linecap:round;stroke-linejoin:bevel;stroke-miterlimit:4;stroke-dasharray:none;stroke-dashoffset:0;stroke-opacity:1;paint-order:normal"
           id="rect1615"
           width="28.348215"
           height="28.348215"
           x="68.413689"
           y="28.258928" />
      </g>
      <g
         id="g1623"
         transform="rotate(-180,68.41369,56.607143)"
         style="stroke:#000000;stroke-opacity:1">
        <rect
           style="opacity:1;fill:none;fill-opacity:1;stroke:#000000;stroke-width:0.35277778;stroke-linecap:round;stroke-linejoin:bevel;stroke-miterlimit:4;stroke-dasharray:none;stroke-dashoffset:0;stroke-opacity:1;paint-order:normal"
           id="rect1619"
           width="28.348215"
           height="28.348215"
           x="40.065475"
           y="28.258928" />
        <rect
           y="28.258928"
           x="68.413689"
           height="28.348215"
           width="28.348215"
           id="rect1621"
           style="opacity:1;fill:#000000;fill-opacity:1;stroke:#000000;stroke-width:0.35277778;stroke-linecap:round;stroke-linejoin:bevel;stroke-miterlimit:4;stroke-dasharray:none;stroke-dashoffset:0;stroke-opacity:1;paint-order:normal" />
      </g>
    </g>
    <g
       style="opacity:0.421;stroke:#000000;stroke-opacity:1"
       transform="matrix(0.59396495,0,0,0.59396495,98.78185,87.039235)"
       inkscape:tile-y0="28.082539"
       inkscape:tile-x0="39.889086"
       id="use1441">
      <g
         id="g1631"
         style="stroke:#000000;stroke-opacity:1">
        <rect
           y="28.258928"
           x="40.065475"
           height="28.348215"
           width="28.348215"
           id="rect1627"
           style="opacity:1;fill:none;fill-opacity:1;stroke:#000000;stroke-width:0.35277778;stroke-linecap:round;stroke-linejoin:bevel;stroke-miterlimit:4;stroke-dasharray:none;stroke-dashoffset:0;stroke-opacity:1;paint-order:normal" />
        <rect
           style="opacity:1;fill:#000000;fill-opacity:1;stroke:#000000;stroke-width:0.35277778;stroke-linecap:round;stroke-linejoin:bevel;stroke-miterlimit:4;stroke-dasharray:none;stroke-dashoffset:0;stroke-opacity:1;paint-order:normal"
           id="rect1629"
           width="28.348215"
           height="28.348215"
           x="68.413689"
           y="28.258928" />
      </g>
      <g
         id="g1637"
         transform="rotate(-180,68.41369,56.607143)"
         style="stroke:#000000;stroke-opacity:1">
        <rect
           style="opacity:1;fill:none;fill-opacity:1;stroke:#000000;stroke-width:0.35277778;stroke-linecap:round;stroke-linejoin:bevel;stroke-miterlimit:4;stroke-dasharray:none;stroke-dashoffset:0;stroke-opacity:1;paint-order:normal"
           id="rect1633"
           width="28.348215"
           height="28.348215"
           x="40.065475"
           y="28.258928" />
        <rect
           y="28.258928"
           x="68.413689"
           height="28.348215"
           width="28.348215"
           id="rect1635"
           style="opacity:1;fill:#000000;fill-opacity:1;stroke:#000000;stroke-width:0.35277778;stroke-linecap:round;stroke-linejoin:bevel;stroke-miterlimit:4;stroke-dasharray:none;stroke-dashoffset:0;stroke-opacity:1;paint-order:normal" />
      </g>
    </g>
    <g
       style="opacity:0.421;stroke:#000000;stroke-opacity:1"
       transform="matrix(0.59396495,0,0,0.59396495,98.78185,120.71493)"
       inkscape:tile-y0="28.082539"
       inkscape:tile-x0="39.889086"
       id="use1443">
      <g
         id="g1645"
         style="stroke:#000000;stroke-opacity:1">
        <rect
           y="28.258928"
           x="40.065475"
           height="28.348215"
           width="28.348215"
           id="rect1641"
           style="opacity:1;fill:none;fill-opacity:1;stroke:#000000;stroke-width:0.35277778;stroke-linecap:round;stroke-linejoin:bevel;stroke-miterlimit:4;stroke-dasharray:none;stroke-dashoffset:0;stroke-opacity:1;paint-order:normal" />
        <rect
           style="opacity:1;fill:#000000;fill-opacity:1;stroke:#000000;stroke-width:0.35277778;stroke-linecap:round;stroke-linejoin:bevel;stroke-miterlimit:4;stroke-dasharray:none;stroke-dashoffset:0;stroke-opacity:1;paint-order:normal"
           id="rect1643"
           width="28.348215"
           height="28.348215"
           x="68.413689"
           y="28.258928" />
      </g>
      <g
         id="g1651"
         transform="rotate(-180,68.41369,56.607143)"
         style="stroke:#000000;stroke-opacity:1">
        <rect
           style="opacity:1;fill:none;fill-opacity:1;stroke:#000000;stroke-width:0.35277778;stroke-linecap:round;stroke-linejoin:bevel;stroke-miterlimit:4;stroke-dasharray:none;stroke-dashoffset:0;stroke-opacity:1;paint-order:normal"
           id="rect1647"
           width="28.348215"
           height="28.348215"
           x="40.065475"
           y="28.258928" />
        <rect
           y="28.258928"
           x="68.413689"
           height="28.348215"
           width="28.348215"
           id="rect1649"
           style="opacity:1;fill:#000000;fill-opacity:1;stroke:#000000;stroke-width:0.35277778;stroke-linecap:round;stroke-linejoin:bevel;stroke-miterlimit:4;stroke-dasharray:none;stroke-dashoffset:0;stroke-opacity:1;paint-order:normal" />
      </g>
    </g>
    <g
       id="g1667"
       inkscape:tile-x0="39.889086"
       inkscape:tile-y0="28.082539"
       transform="matrix(0.59396495,0,0,0.59396495,-2.2452306,19.68785)"
       style="opacity:0.421;stroke:#000000;stroke-opacity:1">
      <g
         id="g1659"
         style="stroke:#000000;stroke-opacity:1">
        <rect
           style="opacity:1;fill:none;fill-opacity:1;stroke:#000000;stroke-width:0.35277778;stroke-linecap:round;stroke-linejoin:bevel;stroke-miterlimit:4;stroke-dasharray:none;stroke-dashoffset:0;stroke-opacity:1;paint-order:normal"
           id="rect1655"
           width="28.348215"
           height="28.348215"
           x="40.065475"
           y="28.258928" />
        <rect
           y="28.258928"
           x="68.413689"
           height="28.348215"
           width="28.348215"
           id="rect1657"
           style="opacity:1;fill:#000000;fill-opacity:1;stroke:#000000;stroke-width:0.35277778;stroke-linecap:round;stroke-linejoin:bevel;stroke-miterlimit:4;stroke-dasharray:none;stroke-dashoffset:0;stroke-opacity:1;paint-order:normal" />
      </g>
      <g
         transform="rotate(-180,68.41369,56.607143)"
         id="g1665"
         style="stroke:#000000;stroke-opacity:1">
        <rect
           y="28.258928"
           x="40.065475"
           height="28.348215"
           width="28.348215"
           id="rect1661"
           style="opacity:1;fill:none;fill-opacity:1;stroke:#000000;stroke-width:0.35277778;stroke-linecap:round;stroke-linejoin:bevel;stroke-miterlimit:4;stroke-dasharray:none;stroke-dashoffset:0;stroke-opacity:1;paint-order:normal" />
        <rect
           style="opacity:1;fill:#000000;fill-opacity:1;stroke:#000000;stroke-width:0.35277778;stroke-linecap:round;stroke-linejoin:bevel;stroke-miterlimit:4;stroke-dasharray:none;stroke-dashoffset:0;stroke-opacity:1;paint-order:normal"
           id="rect1663"
           width="28.348215"
           height="28.348215"
           x="68.413689"
           y="28.258928" />
      </g>
    </g>
    <rect
       style="opacity:1;fill:none;fill-opacity:0.59726963;stroke:#000000;stroke-width:0.52916667;stroke-linecap:round;stroke-linejoin:bevel;stroke-miterlimit:4;stroke-dasharray:none;stroke-dashoffset:0;stroke-opacity:1;paint-order:normal"
       id="rect1669"
       width="134.70277"
       height="134.70276"
       x="21.552258"
       y="36.472664" />
    <g
       transform="translate(31.140923,18.83288)"
       id="g1941">
      <rect
         ry="2.5390606"
         y="34.477631"
         x="24.087029"
         height="33.67569"
         width="16.837849"
         id="rect1817"
         style="opacity:1;fill:#ececec;fill-opacity:0.98976111;stroke:#000008;stroke-width:0.70555556;stroke-linecap:round;stroke-linejoin:round;stroke-miterlimit:4;stroke-dasharray:none;stroke-dashoffset:0;stroke-opacity:1;paint-order:normal" />
      <path
         inkscape:connector-curvature="0"
         id="path1830"
         d="M 24.087029,51.315475 H 40.924876"
         style="fill:none;stroke:#000000;stroke-width:0.70555556;stroke-linecap:butt;stroke-linejoin:miter;stroke-miterlimit:4;stroke-dasharray:none;stroke-opacity:1" />
      <g
         transform="translate(-25.324406,0.66145727)"
         id="g1856">
        <g
           id="g1840"
           transform="rotate(180,9.8207684,73.009527)"
           style="stroke-linecap:round;stroke-linejoin:round">
          <circle
             r="1.5"
             cy="100.69678"
             cx="-41.337296"
             style="fill:#000000;stroke:none;stroke-linecap:round;stroke-linejoin:round"
             id="circle1832" />
          <circle
             r="1.5"
             cy="100.69678"
             cx="-35.040348"
             style="fill:#000000;stroke:none;stroke-linecap:round;stroke-linejoin:round"
             id="circle1834" />
          <circle
             r="1.5"
             cy="106.87114"
             cx="-41.337296"
             style="fill:#000000;stroke:none;stroke-linecap:round;stroke-linejoin:round"
             id="circle1836" />
          <circle
             r="1.5"
             cy="106.87114"
             cx="-35.040348"
             style="fill:#000000;stroke:none;stroke-linecap:round;stroke-linejoin:round"
             id="circle1838" />
        </g>
        <circle
           transform="scale(-1)"
           r="1.5"
           cy="-62.160122"
           cx="-60.978828"
           style="fill:#000000;stroke:none;stroke-linecap:round;stroke-linejoin:round"
           id="circle1842" />
        <circle
           transform="scale(-1)"
           r="1.5"
           cy="-55.98576"
           cx="-60.978828"
           style="fill:#000000;stroke:none;stroke-linecap:round;stroke-linejoin:round"
           id="circle1844" />
        <circle
           transform="scale(-1)"
           r="1.5"
           cy="-55.98576"
           cx="-54.681885"
           style="fill:#000000;stroke:none;stroke-linecap:round;stroke-linejoin:round"
           id="circle1846" />
      </g>
    </g>
    <g
       id="g2048"
       transform="translate(-4.1064268,-25.731666)">
      <rect
         transform="rotate(90)"
         ry="2.5390606"
         y="-143.52361"
         x="129.55571"
         height="33.67569"
         width="16.837849"
         id="rect1817-6"
         style="opacity:1;fill:#ececec;fill-opacity:0.98976111;stroke:#000008;stroke-width:0.70555556;stroke-linecap:round;stroke-linejoin:round;stroke-miterlimit:4;stroke-dasharray:none;stroke-dashoffset:0;stroke-opacity:1;paint-order:normal" />
      <path
         inkscape:connector-curvature="0"
         id="path1830-7"
         d="m 126.68576,129.55571 v 16.83785"
         style="fill:none;stroke:#000000;stroke-width:0.70555556;stroke-linecap:butt;stroke-linejoin:miter;stroke-miterlimit:4;stroke-dasharray:none;stroke-opacity:1" />
      <circle
         transform="rotate(-90)"
         r="1.5"
         cy="132.0175"
         cx="-134.82616"
         style="fill:#000000;stroke:none;stroke-linecap:round;stroke-linejoin:round"
         id="circle1834-6" />
      <circle
         transform="rotate(-90)"
         r="1.5"
         cy="138.19186"
         cx="-141.12311"
         style="fill:#000000;stroke:none;stroke-linecap:round;stroke-linejoin:round"
         id="circle1836-2" />
      <circle
         transform="rotate(-90)"
         r="1.5"
         cy="138.19186"
         cx="-134.82616"
         style="fill:#000000;stroke:none;stroke-linecap:round;stroke-linejoin:round"
         id="circle1838-9" />
      <circle
         id="circle1846-7"
         style="fill:#000000;stroke:none;stroke-linecap:round;stroke-linejoin:round"
         cx="-134.82616"
         cy="121.35402"
         r="1.5"
         transform="rotate(-90)" />
    </g>
    <g
       id="g2140"
       transform="translate(-24.685569,-0.6086555)">
      <rect
         ry="2.5390606"
         y="138.1084"
         x="63.075676"
         height="33.67569"
         width="16.837849"
         id="rect1817-9"
         style="opacity:1;fill:#ececec;fill-opacity:0.98976111;stroke:#000008;stroke-width:0.70555556;stroke-linecap:round;stroke-linejoin:round;stroke-miterlimit:4;stroke-dasharray:none;stroke-dashoffset:0;stroke-opacity:1;paint-order:normal" />
      <path
         inkscape:connector-curvature="0"
         id="path1830-3"
         d="M 63.075677,154.94624 H 79.913524"
         style="fill:none;stroke:#000000;stroke-width:0.70555556;stroke-linecap:butt;stroke-linejoin:miter;stroke-miterlimit:4;stroke-dasharray:none;stroke-opacity:1" />
      <g
         transform="translate(56.757912,-16.630233)"
         id="g2128">
        <g
           style="stroke-linecap:round;stroke-linejoin:round"
           transform="translate(52.925507,76.21144)"
           id="g2115">
          <circle
             id="circle2107"
             style="fill:#000000;stroke:none;stroke-linecap:round;stroke-linejoin:round"
             cx="-41.337296"
             cy="100.69678"
             r="1.5" />
          <circle
             id="circle2109"
             style="fill:#000000;stroke:none;stroke-linecap:round;stroke-linejoin:round"
             cx="-35.040348"
             cy="100.69678"
             r="1.5" />
          <circle
             id="circle2111"
             style="fill:#000000;stroke:none;stroke-linecap:round;stroke-linejoin:round"
             cx="-41.337296"
             cy="106.87114"
             r="1.5" />
          <circle
             id="circle2113"
             style="fill:#000000;stroke:none;stroke-linecap:round;stroke-linejoin:round"
             cx="-35.040348"
             cy="106.87114"
             r="1.5" />
        </g>
        <circle
           id="circle2117"
           style="fill:#000000;stroke:none;stroke-linecap:round;stroke-linejoin:round"
           cx="11.588214"
           cy="160.07037"
           r="1.5" />
        <circle
           id="circle2119"
           style="fill:#000000;stroke:none;stroke-linecap:round;stroke-linejoin:round"
           cx="17.885164"
           cy="166.24474"
           r="1.5" />
      </g>
    </g>
  </g>
</svg>
