<?xml version="1.0" encoding="UTF-8" standalone="no"?>
<!-- Created with Inkscape (http://www.inkscape.org/) -->

<svg
   xmlns:dc="http://purl.org/dc/elements/1.1/"
   xmlns:cc="http://creativecommons.org/ns#"
   xmlns:rdf="http://www.w3.org/1999/02/22-rdf-syntax-ns#"
   xmlns:svg="http://www.w3.org/2000/svg"
   xmlns="http://www.w3.org/2000/svg"
   xmlns:sodipodi="http://sodipodi.sourceforge.net/DTD/sodipodi-0.dtd"
   xmlns:inkscape="http://www.inkscape.org/namespaces/inkscape"
   width="210mm"
   height="297mm"
   viewBox="0 0 210 297"
   version="1.1"
   id="svg8"
   sodipodi:docname="Fig_35_2.svg"
   inkscape:version="0.92.4 5da689c313, 2019-01-14">
  <defs
     id="defs2" />
  <sodipodi:namedview
     id="base"
     pagecolor="#ffffff"
     bordercolor="#666666"
     borderopacity="1.0"
     inkscape:pageopacity="0.0"
     inkscape:pageshadow="2"
     inkscape:zoom="0.7"
     inkscape:cx="176.29696"
     inkscape:cy="805.8456"
     inkscape:document-units="mm"
     inkscape:current-layer="layer1"
     showgrid="false"
     inkscape:window-width="1366"
     inkscape:window-height="744"
     inkscape:window-x="0"
     inkscape:window-y="0"
     inkscape:window-maximized="1" />
  <metadata
     id="metadata5">
    <rdf:RDF>
      <cc:Work
         rdf:about="">
        <dc:format>image/svg+xml</dc:format>
        <dc:type
           rdf:resource="http://purl.org/dc/dcmitype/StillImage" />
      </cc:Work>
    </rdf:RDF>
  </metadata>
  <g
     inkscape:groupmode="layer"
     id="layer2"
     inkscape:label="Layer 2"
     style="display:inline" />
  <g
     inkscape:label="Layer 1"
     inkscape:groupmode="layer"
     id="layer1"
     style="display:inline">
    <rect
       style="opacity:1;fill:none;fill-opacity:0.99661016;stroke:#000000;stroke-width:0.24694444;stroke-linecap:round;stroke-linejoin:bevel;stroke-miterlimit:4;stroke-dasharray:none;stroke-dashoffset:0;stroke-opacity:1;paint-order:normal"
       id="rect817"
       width="99.646431"
       height="99.646431"
       x="40.234375"
       y="20.678097" />
    <path
       style="fill:none;stroke:#000000;stroke-width:0.24694444;stroke-linecap:butt;stroke-linejoin:miter;stroke-miterlimit:4;stroke-dasharray:1.97555556, 1.97555556;stroke-dashoffset:0;stroke-opacity:1"
       d="m 46.914429,45.592595 -6.680054,-24.914498 24.9145,6.680052"
       id="path823"
       inkscape:connector-curvature="0" />
    <path
       inkscape:connector-curvature="0"
       id="path825"
       d="m 65.148875,27.358151 6.680054,24.914498 -24.9145,-6.680052"
       style="fill:none;stroke:#000000;stroke-width:0.24694444;stroke-linecap:butt;stroke-linejoin:miter;stroke-miterlimit:4;stroke-dasharray:1.97555556, 1.97555556;stroke-dashoffset:0;stroke-opacity:1" />
    <path
       style="fill:none;stroke:#000000;stroke-width:0.24694444;stroke-linecap:butt;stroke-linejoin:miter;stroke-miterlimit:4;stroke-dasharray:1.97555556, 1.97555556;stroke-dashoffset:0;stroke-opacity:1"
       d="M 90.057591,20.68388 83.385439,45.600495 65.148875,27.35815"
       id="path829"
       inkscape:connector-curvature="0" />
    <path
       inkscape:connector-curvature="0"
       id="path831"
       d="M 114.96631,27.35815 96.729747,45.600492 90.057592,20.683878"
       style="fill:none;stroke:#000000;stroke-width:0.24694444;stroke-linecap:butt;stroke-linejoin:miter;stroke-miterlimit:4;stroke-dasharray:1.97555556, 1.97555556;stroke-dashoffset:0;stroke-opacity:1" />
    <path
       inkscape:connector-curvature="0"
       id="path831-3"
       d="m 133.20075,45.592596 -24.91449,6.680051 6.68004,-24.914501"
       style="fill:none;stroke:#000000;stroke-width:0.24694444;stroke-linecap:butt;stroke-linejoin:miter;stroke-miterlimit:4;stroke-dasharray:1.97555556, 1.97555556;stroke-dashoffset:0;stroke-opacity:1" />
    <path
       inkscape:connector-curvature="0"
       id="path831-3-7"
       d="m 114.96631,27.358148 24.91449,-6.680051 -6.68004,24.914501"
       style="fill:none;stroke:#000000;stroke-width:0.24694444;stroke-linecap:butt;stroke-linejoin:miter;stroke-miterlimit:4;stroke-dasharray:1.97555556, 1.97555556;stroke-dashoffset:0;stroke-opacity:1" />
    <path
       inkscape:connector-curvature="0"
       id="path831-3-5"
       d="m 139.87502,70.501318 -24.9166,-6.672152 18.24233,-18.23657"
       style="fill:none;stroke:#000000;stroke-width:0.24694444;stroke-linecap:butt;stroke-linejoin:miter;stroke-miterlimit:4;stroke-dasharray:1.97555556, 1.97555556;stroke-dashoffset:0;stroke-opacity:1" />
    <path
       inkscape:connector-curvature="0"
       id="path831-3-3"
       d="M 133.20075,95.41004 114.95841,77.173484 139.87502,70.501318"
       style="fill:none;stroke:#000000;stroke-width:0.24694444;stroke-linecap:butt;stroke-linejoin:miter;stroke-miterlimit:4;stroke-dasharray:1.48166667,1.48166667;stroke-opacity:1;stroke-dashoffset:0" />
    <path
       inkscape:connector-curvature="0"
       id="path831-3-56-2"
       d="M 90.057505,120.31872 96.729743,95.402127 114.96631,113.64447"
       style="fill:none;stroke:#000000;stroke-width:0.24694444;stroke-linecap:butt;stroke-linejoin:miter;stroke-miterlimit:4;stroke-dasharray:1.97555556, 1.97555556;stroke-dashoffset:0;stroke-opacity:1" />
    <path
       inkscape:connector-curvature="0"
       id="path831-9"
       d="m 65.148876,113.64447 18.236558,-18.242339 6.67216,24.916619"
       style="fill:none;stroke:#000000;stroke-width:0.24694444;stroke-linecap:butt;stroke-linejoin:miter;stroke-miterlimit:4;stroke-dasharray:1.97555556, 1.97555556;stroke-dashoffset:0;stroke-opacity:1" />
    <path
       inkscape:connector-curvature="0"
       id="path831-3-1"
       d="M 46.91443,95.410028 71.82892,88.729977 65.14888,113.64448"
       style="fill:none;stroke:#000000;stroke-width:0.24694444;stroke-linecap:butt;stroke-linejoin:miter;stroke-miterlimit:4;stroke-dasharray:1.97555556, 1.97555556;stroke-dashoffset:0;stroke-opacity:1" />
    <path
       inkscape:connector-curvature="0"
       id="path831-3-5-2"
       d="m 40.240159,70.501312 24.9166,6.672152 -18.24233,18.23657"
       style="fill:none;stroke:#000000;stroke-width:0.24694444;stroke-linecap:butt;stroke-linejoin:miter;stroke-miterlimit:4;stroke-dasharray:1.97555556, 1.97555556;stroke-dashoffset:0;stroke-opacity:1" />
    <path
       inkscape:connector-curvature="0"
       id="path831-3-3-7"
       d="m 46.914429,45.592587 18.24234,18.236558 -24.91661,6.672167"
       style="fill:none;stroke:#000000;stroke-width:0.24694444;stroke-linecap:butt;stroke-linejoin:miter;stroke-miterlimit:4;stroke-dasharray:1.97555556, 1.97555556;stroke-dashoffset:0;stroke-opacity:1" />
    <path
       inkscape:connector-curvature="0"
       id="path825-0"
       d="m 133.20076,95.410028 6.68005,24.914502 -24.9145,-6.68006"
       style="fill:none;stroke:#000000;stroke-width:0.24694444;stroke-linecap:butt;stroke-linejoin:miter;stroke-miterlimit:4;stroke-dasharray:1.97555556, 1.97555556;stroke-dashoffset:0;stroke-opacity:1" />
    <path
       inkscape:connector-curvature="0"
       id="path831-3-9"
       d="m 65.148864,113.64447 -24.914489,6.68005 6.68004,-24.914498"
       style="fill:none;stroke:#000000;stroke-width:0.24694444;stroke-linecap:butt;stroke-linejoin:miter;stroke-miterlimit:4;stroke-dasharray:1.97555556, 1.97555556;stroke-dashoffset:0;stroke-opacity:1" />
    <path
       style="fill:none;stroke:#000000;stroke-width:0.24694444;stroke-linecap:butt;stroke-linejoin:miter;stroke-miterlimit:4;stroke-dasharray:1.97555556, 1.97555556;stroke-dashoffset:0;stroke-opacity:1"
       d="m 65.148875,27.358149 24.908626,43.143141 9.1e-5,-49.817412"
       id="path993"
       inkscape:connector-curvature="0" />
    <path
       style="fill:none;stroke:#000000;stroke-width:0.24694444;stroke-linecap:butt;stroke-linejoin:miter;stroke-miterlimit:4;stroke-dasharray:1.97555556, 1.97555556;stroke-dashoffset:0;stroke-opacity:1"
       d="M 90.057501,70.50129 114.9663,27.358147"
       id="path995"
       inkscape:connector-curvature="0" />
    <path
       style="fill:none;stroke:#000000;stroke-width:0.24694444;stroke-linecap:butt;stroke-linejoin:miter;stroke-miterlimit:4;stroke-dasharray:1.97555556, 1.97555556;stroke-dashoffset:0;stroke-opacity:1"
       d="M 90.057501,70.50129 133.20075,45.592595"
       id="path997"
       inkscape:connector-curvature="0" />
    <path
       style="fill:none;stroke:#000000;stroke-width:0.24694444;stroke-linecap:butt;stroke-linejoin:miter;stroke-miterlimit:4;stroke-dasharray:1.97555556, 1.97555556;stroke-dashoffset:0;stroke-opacity:1"
       d="M 90.057501,70.50129 133.20075,95.41004"
       id="path999"
       inkscape:connector-curvature="0" />
    <path
       style="fill:none;stroke:#000000;stroke-width:0.24694444;stroke-linecap:butt;stroke-linejoin:miter;stroke-miterlimit:4;stroke-dasharray:1.97555556, 1.97555556;stroke-dashoffset:0;stroke-opacity:1"
       d="M 90.057501,70.50129 65.148864,113.64447"
       id="path1003"
       inkscape:connector-curvature="0" />
    <path
       style="fill:none;stroke:#000000;stroke-width:0.24694444;stroke-linecap:butt;stroke-linejoin:miter;stroke-miterlimit:4;stroke-dasharray:1.97555556, 1.97555556;stroke-dashoffset:0;stroke-opacity:1"
       d="M 46.914413,95.410021 90.057501,70.50129"
       id="path1005"
       inkscape:connector-curvature="0" />
    <path
       style="fill:none;stroke:#000000;stroke-width:0.24694444;stroke-linecap:butt;stroke-linejoin:miter;stroke-miterlimit:4;stroke-dasharray:1.97555556, 1.97555556;stroke-dashoffset:0;stroke-opacity:1"
       d="M 46.914429,45.592597 90.057501,70.50129"
       id="path1007"
       inkscape:connector-curvature="0" />
    <path
       style="fill:none;stroke:#000000;stroke-width:0.24694444;stroke-linecap:butt;stroke-linejoin:miter;stroke-miterlimit:4;stroke-dasharray:1.97555556, 1.97555556;stroke-dashoffset:0;stroke-opacity:1"
       d="m 40.240159,70.501311 49.817342,-2.1e-5"
       id="path1009"
       inkscape:connector-curvature="0" />
    <path
       style="fill:none;stroke:#000000;stroke-width:0.24694444;stroke-linecap:butt;stroke-linejoin:miter;stroke-miterlimit:4;stroke-dasharray:1.97555556, 1.97555556;stroke-dashoffset:0;stroke-opacity:1"
       d="M 90.057501,70.50129 65.156767,63.829144"
       id="path1011"
       inkscape:connector-curvature="0" />
    <path
       style="fill:none;stroke:#000000;stroke-width:0.24694444;stroke-linecap:butt;stroke-linejoin:miter;stroke-miterlimit:4;stroke-dasharray:1.97555556, 1.97555556;stroke-dashoffset:0;stroke-opacity:1"
       d="M 71.828929,52.272649 90.057501,70.50129"
       id="path1013"
       inkscape:connector-curvature="0" />
    <path
       style="fill:none;stroke:#000000;stroke-width:0.24694444;stroke-linecap:butt;stroke-linejoin:miter;stroke-miterlimit:4;stroke-dasharray:1.97555556, 1.97555556;stroke-dashoffset:0;stroke-opacity:1"
       d="M 90.057501,70.50129 96.729745,45.600492"
       id="path1015"
       inkscape:connector-curvature="0" />
    <path
       style="fill:none;stroke:#000000;stroke-width:0.24694444;stroke-linecap:butt;stroke-linejoin:miter;stroke-miterlimit:4;stroke-dasharray:1.97555556, 1.97555556;stroke-dashoffset:0;stroke-opacity:1"
       d="M 108.28626,52.272646 90.057501,70.50129"
       id="path1017"
       inkscape:connector-curvature="0" />
    <path
       style="fill:none;stroke:#000000;stroke-width:0.24694444;stroke-linecap:butt;stroke-linejoin:miter;stroke-miterlimit:4;stroke-dasharray:1.97555556, 1.97555556;stroke-dashoffset:0;stroke-opacity:1"
       d="M 90.057501,70.50129 114.95842,63.829165"
       id="path1019"
       inkscape:connector-curvature="0" />
    <path
       style="fill:none;stroke:#000000;stroke-width:0.24694444;stroke-linecap:butt;stroke-linejoin:miter;stroke-miterlimit:4;stroke-dasharray:1.97555556, 1.97555556;stroke-dashoffset:0;stroke-opacity:1"
       d="M 114.95841,77.173483 90.057501,70.50129"
       id="path1021"
       inkscape:connector-curvature="0" />
    <path
       style="fill:none;stroke:#000000;stroke-width:0.24694444;stroke-linecap:butt;stroke-linejoin:miter;stroke-miterlimit:4;stroke-dasharray:1.97555556, 1.97555556;stroke-dashoffset:0;stroke-opacity:1"
       d="M 90.057501,70.50129 108.28626,88.729972"
       id="path1023"
       inkscape:connector-curvature="0" />
    <path
       style="fill:none;stroke:#000000;stroke-width:0.24694444;stroke-linecap:butt;stroke-linejoin:miter;stroke-miterlimit:4;stroke-dasharray:1.97555556, 1.97555556;stroke-dashoffset:0;stroke-opacity:1"
       d="M 96.729742,95.402126 90.057501,70.50129"
       id="path1025"
       inkscape:connector-curvature="0" />
    <path
       style="fill:none;stroke:#000000;stroke-width:0.24694444;stroke-linecap:butt;stroke-linejoin:miter;stroke-miterlimit:4;stroke-dasharray:1.97555556, 1.97555556;stroke-dashoffset:0;stroke-opacity:1"
       d="M 90.057501,70.50129 83.385434,95.402129"
       id="path1027"
       inkscape:connector-curvature="0" />
    <path
       style="fill:none;stroke:#000000;stroke-width:0.24694444;stroke-linecap:butt;stroke-linejoin:miter;stroke-miterlimit:4;stroke-dasharray:1.97555556, 1.97555556;stroke-dashoffset:0;stroke-opacity:1"
       d="M 65.156759,77.173462 90.057501,70.50129 71.82892,88.729977"
       id="path1029"
       inkscape:connector-curvature="0" />
    <path
       style="fill:none;stroke:#000000;stroke-width:0.24694444;stroke-linecap:butt;stroke-linejoin:miter;stroke-miterlimit:4;stroke-dasharray:1.97555556, 1.97555556;stroke-dashoffset:0;stroke-opacity:1"
       d="M 90.057501,70.50129 83.385437,45.600495"
       id="path1047"
       inkscape:connector-curvature="0" />
    <path
       style="fill:#e6e6e6;stroke:#000000;stroke-width:0.26458332px;stroke-linecap:butt;stroke-linejoin:miter;stroke-opacity:1;fill-opacity:0.35836178"
       d="m 90.057503,120.31872 -2e-6,-49.81743 49.817519,2.6e-5 -6.67427,-24.908721 -18.23444,-18.234448 -24.908719,-6.674267 -24.908716,6.674272 -18.234446,18.234435 -6.67427,24.908724 6.674254,24.908708 18.234451,18.234451 z"
       id="path1182"
       inkscape:connector-curvature="0" />
    <path
       style="fill:#1a1a1a;stroke:#000000;stroke-width:0.26458332px;stroke-linecap:butt;stroke-linejoin:miter;stroke-opacity:1;fill-opacity:0.43686005"
       d="m 90.057591,20.68388 -49.823216,-0.0058 0.0058,49.823215 6.674271,-24.908724 18.234445,-18.234435 z"
       id="path1184"
       inkscape:connector-curvature="0" />
    <path
       inkscape:connector-curvature="0"
       id="path1188"
       d="m 139.8748,70.501317 0.006,-49.82322 -49.82322,0.006 24.90873,6.67427 18.23443,18.23445 z"
       style="fill:#1a1a1a;fill-opacity:0.43686009;stroke:#000000;stroke-width:0.26458332px;stroke-linecap:butt;stroke-linejoin:miter;stroke-opacity:1" />
    <path
       style="fill:#1a1a1a;fill-opacity:0.43686009;stroke:#000000;stroke-width:0.26458332px;stroke-linecap:butt;stroke-linejoin:miter;stroke-opacity:1"
       d="m 40.240389,70.501538 -0.006,49.823212 49.82322,-0.006 L 65.14888,113.64448 46.91445,95.41004 Z"
       id="path1190"
       inkscape:connector-curvature="0" />
    <path
       style="fill:#cccccc;stroke:#000000;stroke-width:0.26458332px;stroke-linecap:butt;stroke-linejoin:miter;stroke-opacity:1"
       d="M 40.234388,120.32475 46.91445,95.41004 65.148864,113.64447 Z"
       id="path1192"
       inkscape:connector-curvature="0" />
    <path
       inkscape:connector-curvature="0"
       id="path1194"
       d="m 46.912504,45.600655 -6.672293,-24.916791 24.90868,6.674272 z"
       style="fill:#cccccc;stroke:#000000;stroke-width:0.26458332px;stroke-linecap:butt;stroke-linejoin:miter;stroke-opacity:1" />
    <path
       inkscape:connector-curvature="0"
       id="path1194-6"
       d="m 114.95824,27.356208 24.91679,-6.67229 -6.67427,24.90868 z"
       style="display:inline;fill:#cccccc;stroke:#000000;stroke-width:0.26458332px;stroke-linecap:butt;stroke-linejoin:miter;stroke-opacity:1" />
    <path
       style="fill:none;stroke:#000000;stroke-width:0.26458332px;stroke-linecap:butt;stroke-linejoin:miter;stroke-opacity:1"
       d="m 90.057501,120.31872 24.908809,-6.67425"
       id="path1217"
       inkscape:connector-curvature="0" />
    <path
       style="fill:none;stroke:#000000;stroke-width:0.26458332px;stroke-linecap:butt;stroke-linejoin:miter;stroke-opacity:1"
       d="m 133.20075,95.41004 -18.23444,18.23443"
       id="path1219"
       inkscape:connector-curvature="0" />
    <path
       style="fill:none;stroke:#000000;stroke-width:0.26458332px;stroke-linecap:butt;stroke-linejoin:miter;stroke-opacity:1"
       d="M 139.8748,70.501316 133.20075,95.41004"
       id="path1221"
       inkscape:connector-curvature="0" />
    <path
       style="fill:none;stroke:#000000;stroke-width:0.24694444;stroke-linecap:butt;stroke-linejoin:miter;stroke-opacity:1;stroke-miterlimit:4;stroke-dasharray:1.48166667,1.48166667;stroke-dashoffset:0"
       d="m 108.28626,88.72997 6.68005,24.9145"
       id="path1223"
       inkscape:connector-curvature="0" />
    <path
       style="fill:none;stroke:#000000;stroke-width:0.24694444;stroke-linecap:butt;stroke-linejoin:miter;stroke-opacity:1;stroke-miterlimit:4;stroke-dasharray:1.48166667,1.48166667;stroke-dashoffset:0"
       d="M 114.96631,113.64447 90.057501,70.50129"
       id="path1225"
       inkscape:connector-curvature="0" />
    <path
       style="fill:none;stroke:#000000;stroke-width:0.24694444;stroke-linecap:butt;stroke-linejoin:miter;stroke-opacity:1;stroke-miterlimit:4;stroke-dasharray:1.48166667,1.48166667;stroke-dashoffset:0"
       d="m 108.28626,88.72997 24.91449,6.68007"
       id="path1227"
       inkscape:connector-curvature="0" />
    <path
       style="fill:none;stroke:#000000;stroke-width:0.26458332px;stroke-linecap:butt;stroke-linejoin:miter;stroke-opacity:1"
       d="m 90.057501,70.50129 9e-5,-49.817412"
       id="path1229"
       inkscape:connector-curvature="0" />
    <path
       style="fill:none;stroke:#000000;stroke-width:0.26458332px;stroke-linecap:butt;stroke-linejoin:miter;stroke-opacity:1"
       d="m 90.057501,70.50129 -49.817112,2.48e-4"
       id="path1231"
       inkscape:connector-curvature="0" />
  </g>
</svg>
