<?xml version="1.0" encoding="ISO-8859-1" standalone="no"?>

<svg 
     version="1.1"
     baseProfile="full"
     xmlns="http://www.w3.org/2000/svg"
     xmlns:xlink="http://www.w3.org/1999/xlink"
     xmlns:ev="http://www.w3.org/2001/xml-events"
     width="29.338326612424932cm"
     height="22.407393077140654cm"
     viewBox="0 0 744 568"
     >
<title>

</title>
<g stroke-linejoin="miter" stroke-dashoffset="0.0000" stroke-dasharray="none" stroke-width="1.0000" stroke-miterlimit="10.000" stroke-linecap="square">
<g id="misc">
</g><!-- misc -->
<g id="layer0">
<clipPath id="clip8e31abbd-98eb-4505-9b52-ff0d732f1d1e">
  <path d="M 0.0000 0.0000 L 0.0000 569.00 L 745.00 569.00 L 745.00 0.0000 z"/>
</clipPath>
<g clip-path="url(#clip1)">
<g fill-opacity=".098039" fill-rule="evenodd" stroke="none" fill="#000000">
  <path d="M 164.31 545.41 L 672.18 545.41 L 672.18 37.544 L 164.31 37.544 z"/>
<title>Polygon poly2</title>
<desc>Polygon poly2: Polygon(D, C, 4)</desc>

</g> <!-- drawing style -->
</g> <!-- clip1 -->
<clipPath id="clip1d1a7f08-a061-4f83-973f-ce4a5c46b6cd">
  <path d="M 0.0000 0.0000 L 0.0000 569.00 L 745.00 569.00 L 745.00 0.0000 z"/>
</clipPath>
<g clip-path="url(#clip2)">
<g fill-opacity="1.0000" fill-rule="evenodd" stroke="none" fill="#ffffff">
  <path d="M 164.31 545.41 L 265.89 545.41 L 265.89 443.84 L 164.31 443.84 z"/>
<title>Polygon poly3</title>
<desc>Polygon poly3: Polygon(D, P, 4)</desc>

</g> <!-- drawing style -->
</g> <!-- clip2 -->
<clipPath id="clip74e271cb-7745-4165-a2c2-77fe567f29af">
  <path d="M 0.0000 0.0000 L 0.0000 569.00 L 745.00 569.00 L 745.00 0.0000 z"/>
</clipPath>
<g clip-path="url(#clip3)">
<g stroke-linejoin="round" stroke-width=".50000" stroke-linecap="round" fill="none" stroke-opacity=".69804" stroke="#ffffff">
  <path d="M 164.31 545.41 L 265.89 545.41 L 265.89 443.84 L 164.31 443.84 z"/>
<title>Polygon poly3</title>
<desc>Polygon poly3: Polygon(D, P, 4)</desc>

</g> <!-- drawing style -->
</g> <!-- clip3 -->
<clipPath id="clip025b3713-64f9-48c2-b7f5-46666f5cca6e">
  <path d="M 0.0000 0.0000 L 0.0000 569.00 L 745.00 569.00 L 745.00 0.0000 z"/>
</clipPath>
<g clip-path="url(#clip4)">
<g fill-opacity="1.0000" fill-rule="evenodd" stroke="none" fill="#ffffff">
  <path d="M 570.61 545.41 L 672.18 545.41 L 672.18 443.84 L 570.61 443.84 z"/>
<title>Polygon poly4</title>
<desc>Polygon poly4: Polygon(O, C, 4)</desc>

</g> <!-- drawing style -->
</g> <!-- clip4 -->
<clipPath id="clip5014957f-9eed-47d1-aed8-a00318a8d099">
  <path d="M 0.0000 0.0000 L 0.0000 569.00 L 745.00 569.00 L 745.00 0.0000 z"/>
</clipPath>
<g clip-path="url(#clip5)">
<g stroke-linejoin="round" stroke-width=".50000" stroke-linecap="round" fill="none" stroke-opacity=".69804" stroke="#ffffff">
  <path d="M 570.61 545.41 L 672.18 545.41 L 672.18 443.84 L 570.61 443.84 z"/>
<title>Polygon poly4</title>
<desc>Polygon poly4: Polygon(O, C, 4)</desc>

</g> <!-- drawing style -->
</g> <!-- clip5 -->
<clipPath id="clip35b05f09-cba9-414b-b928-dfff136b6c7a">
  <path d="M 0.0000 0.0000 L 0.0000 569.00 L 745.00 569.00 L 745.00 0.0000 z"/>
</clipPath>
<g clip-path="url(#clip6)">
<g fill-opacity="1.0000" fill-rule="evenodd" stroke="none" fill="#ffffff">
  <path d="M 570.61 139.12 L 672.18 139.12 L 672.18 37.544 L 570.61 37.544 z"/>
<title>Polygon poly5</title>
<desc>Polygon poly5: Polygon(G, M, 4)</desc>

</g> <!-- drawing style -->
</g> <!-- clip6 -->
<clipPath id="clipc754ede3-1ef5-4fba-925f-08f2b07071e7">
  <path d="M 0.0000 0.0000 L 0.0000 569.00 L 745.00 569.00 L 745.00 0.0000 z"/>
</clipPath>
<g clip-path="url(#clip7)">
<g stroke-linejoin="round" stroke-width=".50000" stroke-linecap="round" fill="none" stroke-opacity=".69804" stroke="#ffffff">
  <path d="M 570.61 139.12 L 672.18 139.12 L 672.18 37.544 L 570.61 37.544 z"/>
<title>Polygon poly5</title>
<desc>Polygon poly5: Polygon(G, M, 4)</desc>

</g> <!-- drawing style -->
</g> <!-- clip7 -->
<clipPath id="clip76173264-1289-4746-99fe-e6546882aca8">
  <path d="M 0.0000 0.0000 L 0.0000 569.00 L 745.00 569.00 L 745.00 0.0000 z"/>
</clipPath>
<g clip-path="url(#clip8)">
<g fill-opacity="1.0000" fill-rule="evenodd" stroke="none" fill="#ffffff">
  <path d="M 164.31 139.12 L 265.89 139.12 L 265.89 37.544 L 164.31 37.544 z"/>
<title>Polygon poly6</title>
<desc>Polygon poly6: Polygon(J_2, H, 4)</desc>

</g> <!-- drawing style -->
</g> <!-- clip8 -->
<clipPath id="clip69fe967f-dfeb-4595-96f3-399fa23cd8ab">
  <path d="M 0.0000 0.0000 L 0.0000 569.00 L 745.00 569.00 L 745.00 0.0000 z"/>
</clipPath>
<g clip-path="url(#clip9)">
<g stroke-linejoin="round" stroke-width=".50000" stroke-linecap="round" fill="none" stroke-opacity=".69804" stroke="#ffffff">
  <path d="M 164.31 139.12 L 265.89 139.12 L 265.89 37.544 L 164.31 37.544 z"/>
<title>Polygon poly6</title>
<desc>Polygon poly6: Polygon(J_2, H, 4)</desc>

</g> <!-- drawing style -->
</g> <!-- clip9 -->
<defs>
  <pattern id="texture-0" x="0" y="0" width="28.000" height="28.000" patternUnits="userSpaceOnUse" patternTransform="matrix(.50000,0.0,0.0,.50000,0.0000,0.0000)" >
<clipPath id="clipc2e1eb84-35dd-409f-a132-121ba7f5adc6">
  <path d="M 0.0000 0.0000 L 0.0000 569.00 L 745.00 569.00 L 745.00 0.0000 z"/>
</clipPath>
<g clip-path="url(#clip10)">
<image x="0" y="0" width="28" height="28" xlink:href="data:image/png;base64,iVBORw0KGgoAAAANSUhEUgAAABwAAAAcCAYAAAByDd+UAAAAiklEQVR42r3NwQ3AIAxD0YgtOgtb
dP8RugNVOFSqSiEJdg7Wl09Paq1na+1gT51SyiWZmFYyMf2SiVHBEUYD/zAKOMPg4AqDghYMBlox
COjBtkEvtgVGsDAYxULgDuYGdzEXiMDMIAozgUhsCaKxKcjAfkEWNgSZ2AdkYy8wA3vALKyDmVgH
MzF1boFbw8EYzxefAAAAAElFTkSuQmCC">
<title>Polygon poly1</title>
<desc>Polygon poly1: Polygon(S, R, 4)</desc>
</image>
</g> <!-- clip10 -->
  </pattern>
</defs>
<g stroke="url(#texture-0)">
<clipPath id="clip601be593-6a4b-445e-848e-3bdfd42d7580">
  <path d="M 0.0000 0.0000 L 0.0000 569.00 L 745.00 569.00 L 745.00 0.0000 z"/>
</clipPath>
<g clip-path="url(#clip11)">
<g fill-opacity="1.0000" fill-rule="evenodd" stroke="none" fill="url(#texture-0)">
  <path d="M 291.54 54.500 L 181.27 418.18 L 544.95 528.46 L 655.22 164.78 z"/>
<title>Polygon poly1</title>
<desc>Polygon poly1: Polygon(S, R, 4)</desc>

</g> <!-- drawing style -->
</g> <!-- clip11 -->
<clipPath id="clipc319a8b2-25de-469c-8104-a9fefa72e809">
  <path d="M 0.0000 0.0000 L 0.0000 569.00 L 745.00 569.00 L 745.00 0.0000 z"/>
</clipPath>
<g clip-path="url(#clip12)">
<g stroke-linejoin="round" stroke-width=".50000" stroke-linecap="round" fill="none" stroke-opacity=".69804" stroke="#000000">
  <path d="M 291.54 54.500 L 181.27 418.18 L 544.95 528.46 L 655.22 164.78 z"/>
<title>Polygon poly1</title>
<desc>Polygon poly1: Polygon(S, R, 4)</desc>

</g> <!-- drawing style -->
</g> <!-- clip12 -->
<clipPath id="clip48ce0753-f54b-45a5-9153-a1f6249cc9dd">
  <path d="M 0.0000 0.0000 L 0.0000 569.00 L 745.00 569.00 L 745.00 0.0000 z"/>
</clipPath>
<g clip-path="url(#clip13)">
<g fill-opacity=".24706" fill-rule="evenodd" stroke="none" fill="#000000">
  <path d="M 265.89 443.84 L 570.61 443.84 L 570.61 139.12 L 265.89 139.12 z"/>
<title>Polygon poly7</title>
<desc>Polygon poly7: Polygon(E, F, 4)</desc>

</g> <!-- drawing style -->
</g> <!-- clip13 -->
<clipPath id="clipb7a74964-037d-4797-ac2e-961bf389ca49">
  <path d="M 0.0000 0.0000 L 0.0000 569.00 L 745.00 569.00 L 745.00 0.0000 z"/>
</clipPath>
<g clip-path="url(#clip14)">
<g stroke-linejoin="round" stroke-width=".50000" stroke-linecap="round" fill="none" stroke-opacity=".69804" stroke="#000000">
  <path d="M 265.89 443.84 L 570.61 443.84 L 570.61 139.12 L 265.89 139.12 z"/>
<title>Polygon poly7</title>
<desc>Polygon poly7: Polygon(E, F, 4)</desc>

</g> <!-- drawing style -->
</g> <!-- clip14 -->
<clipPath id="clipcf83c5af-5b9c-45d3-ab15-530f88441e58">
  <path d="M 0.0000 0.0000 L 0.0000 569.00 L 745.00 569.00 L 745.00 0.0000 z"/>
</clipPath>
<g clip-path="url(#clip15)">
<g stroke-linejoin="round" stroke-linecap="round" fill="none" stroke-opacity=".69804" stroke="#000000">
  <path d="M 164.31 37.544 L 672.18 37.544"/>
<title>Segment f</title>
<desc>Segment f: Segment A, B</desc>

</g> <!-- drawing style -->
</g> <!-- clip15 -->
<clipPath id="clip2808d697-f9fa-446d-907f-ff25dc3d6dad">
  <path d="M 0.0000 0.0000 L 0.0000 569.00 L 745.00 569.00 L 745.00 0.0000 z"/>
</clipPath>
<g clip-path="url(#clip16)">
<g stroke-linejoin="round" stroke-linecap="round" fill="none" stroke-opacity=".69804" stroke="#000000">
  <path d="M 672.18 37.544 L 672.18 545.41"/>
<title>Segment g</title>
<desc>Segment g: Segment B, C</desc>

</g> <!-- drawing style -->
</g> <!-- clip16 -->
<clipPath id="clip0723eae8-31ed-42d1-aa74-1b443e0444c8">
  <path d="M 0.0000 0.0000 L 0.0000 569.00 L 745.00 569.00 L 745.00 0.0000 z"/>
</clipPath>
<g clip-path="url(#clip17)">
<g stroke-linejoin="round" stroke-linecap="round" fill="none" stroke-opacity=".69804" stroke="#000000">
  <path d="M 672.18 545.41 L 164.31 545.41"/>
<title>Segment h</title>
<desc>Segment h: Segment C, D</desc>

</g> <!-- drawing style -->
</g> <!-- clip17 -->
<clipPath id="clipe45fc30a-7d5c-48e0-88ba-a1f2766474ee">
  <path d="M 0.0000 0.0000 L 0.0000 569.00 L 745.00 569.00 L 745.00 0.0000 z"/>
</clipPath>
<g clip-path="url(#clip18)">
<g stroke-linejoin="round" stroke-linecap="round" fill="none" stroke-opacity=".69804" stroke="#000000">
  <path d="M 164.31 545.41 L 164.31 37.544"/>
<title>Segment i</title>
<desc>Segment i: Segment D, A</desc>

</g> <!-- drawing style -->
</g> <!-- clip18 -->
<clipPath id="clip802f99ac-1795-49fc-baa5-044069b1c99d">
  <path d="M 0.0000 0.0000 L 0.0000 569.00 L 745.00 569.00 L 745.00 0.0000 z"/>
</clipPath>
<g clip-path="url(#clip19)">
<g stroke-linejoin="round" stroke-linecap="round" fill="none" stroke-opacity=".69804" stroke="#000000">
  <path d="M 164.31 139.12 L 265.89 139.12"/>
<title>Segment j</title>
<desc>Segment j: Segment J_2, H</desc>

</g> <!-- drawing style -->
</g> <!-- clip19 -->
<clipPath id="clipb24e31e3-8d9a-458e-ad01-0e8d0b67575c">
  <path d="M 0.0000 0.0000 L 0.0000 569.00 L 745.00 569.00 L 745.00 0.0000 z"/>
</clipPath>
<g clip-path="url(#clip20)">
<g stroke-linejoin="round" stroke-linecap="round" fill="none" stroke-opacity=".69804" stroke="#000000">
  <path d="M 265.89 139.12 L 265.89 37.544"/>
<title>Segment k</title>
<desc>Segment k: Segment H, K_2</desc>

</g> <!-- drawing style -->
</g> <!-- clip20 -->
<clipPath id="clipca72f605-3c90-426a-9eb4-79b730de90aa">
  <path d="M 0.0000 0.0000 L 0.0000 569.00 L 745.00 569.00 L 745.00 0.0000 z"/>
</clipPath>
<g clip-path="url(#clip21)">
<g stroke-linejoin="round" stroke-linecap="round" fill="none" stroke-opacity=".69804" stroke="#000000">
  <path d="M 570.61 37.544 L 570.61 139.12"/>
<title>Segment l</title>
<desc>Segment l: Segment L, G</desc>

</g> <!-- drawing style -->
</g> <!-- clip21 -->
<clipPath id="clip7f85a212-13ff-4421-97f5-fd15b459dcc9">
  <path d="M 0.0000 0.0000 L 0.0000 569.00 L 745.00 569.00 L 745.00 0.0000 z"/>
</clipPath>
<g clip-path="url(#clip22)">
<g stroke-linejoin="round" stroke-linecap="round" fill="none" stroke-opacity=".69804" stroke="#000000">
  <path d="M 570.61 139.12 L 672.18 139.12"/>
<title>Segment m</title>
<desc>Segment m: Segment G, M</desc>

</g> <!-- drawing style -->
</g> <!-- clip22 -->
<clipPath id="clip89afef12-a91a-4a4f-9ba4-c9c27a1fa9cd">
  <path d="M 0.0000 0.0000 L 0.0000 569.00 L 745.00 569.00 L 745.00 0.0000 z"/>
</clipPath>
<g clip-path="url(#clip23)">
<g stroke-linejoin="round" stroke-linecap="round" fill="none" stroke-opacity=".69804" stroke="#000000">
  <path d="M 672.18 443.84 L 570.61 443.84"/>
<title>Segment n</title>
<desc>Segment n: Segment N, F</desc>

</g> <!-- drawing style -->
</g> <!-- clip23 -->
<clipPath id="clip8b0608b2-cd53-4919-b8b1-0b8a328396ab">
  <path d="M 0.0000 0.0000 L 0.0000 569.00 L 745.00 569.00 L 745.00 0.0000 z"/>
</clipPath>
<g clip-path="url(#clip24)">
<g stroke-linejoin="round" stroke-linecap="round" fill="none" stroke-opacity=".69804" stroke="#000000">
  <path d="M 570.61 443.84 L 570.61 545.41"/>
<title>Segment p</title>
<desc>Segment p: Segment F, O</desc>

</g> <!-- drawing style -->
</g> <!-- clip24 -->
<clipPath id="clipa54dcb7d-c19d-4605-bf59-79a6a5867b65">
  <path d="M 0.0000 0.0000 L 0.0000 569.00 L 745.00 569.00 L 745.00 0.0000 z"/>
</clipPath>
<g clip-path="url(#clip25)">
<g stroke-linejoin="round" stroke-linecap="round" fill="none" stroke-opacity=".69804" stroke="#000000">
  <path d="M 265.89 545.41 L 265.89 443.84"/>
<title>Segment q</title>
<desc>Segment q: Segment P, E</desc>

</g> <!-- drawing style -->
</g> <!-- clip25 -->
<clipPath id="clip89cbe37e-983f-4258-8681-8bbe92240017">
  <path d="M 0.0000 0.0000 L 0.0000 569.00 L 745.00 569.00 L 745.00 0.0000 z"/>
</clipPath>
<g clip-path="url(#clip26)">
<g stroke-linejoin="round" stroke-linecap="round" fill="none" stroke-opacity=".69804" stroke="#000000">
  <path d="M 265.89 443.84 L 164.31 443.84"/>
<title>Segment r</title>
<desc>Segment r: Segment E, Q</desc>

</g> <!-- drawing style -->
</g> <!-- clip26 -->
<clipPath id="clipb29794e2-5cd9-42c5-8e2c-c2eaa0c7753a">
  <path d="M 0.0000 0.0000 L 0.0000 569.00 L 745.00 569.00 L 745.00 0.0000 z"/>
</clipPath>
<g clip-path="url(#clip27)">
<g stroke-linejoin="round" stroke-width=".50000" stroke-linecap="round" fill="none" stroke-opacity=".69804" stroke="#ffffff">
  <path d="M 164.31 545.41 L 265.89 545.41"/>
<title>Segment m_1</title>
<desc>Segment m_1: Segment D, P</desc>

</g> <!-- drawing style -->
</g> <!-- clip27 -->
<clipPath id="clip98b39521-fadf-4895-96c8-c9aae658642e">
  <path d="M 0.0000 0.0000 L 0.0000 569.00 L 745.00 569.00 L 745.00 0.0000 z"/>
</clipPath>
<g clip-path="url(#clip28)">
<g stroke-linejoin="round" stroke-width=".50000" stroke-linecap="round" fill="none" stroke-opacity=".69804" stroke="#ffffff">
  <path d="M 265.89 545.41 L 265.89 443.84"/>
<title>Segment n_1</title>
<desc>Segment n_1: Segment P, Z</desc>

</g> <!-- drawing style -->
</g> <!-- clip28 -->
<clipPath id="clipf0c24318-03b8-4413-b73b-88969ba6cb56">
  <path d="M 0.0000 0.0000 L 0.0000 569.00 L 745.00 569.00 L 745.00 0.0000 z"/>
</clipPath>
<g clip-path="url(#clip29)">
<g stroke-linejoin="round" stroke-width=".50000" stroke-linecap="round" fill="none" stroke-opacity=".69804" stroke="#ffffff">
  <path d="M 265.89 443.84 L 164.31 443.84"/>
<title>Segment p_1</title>
<desc>Segment p_1: Segment Z, A_1</desc>

</g> <!-- drawing style -->
</g> <!-- clip29 -->
<clipPath id="clip42032ba4-af9d-4cfd-9b30-13bcd7597925">
  <path d="M 0.0000 0.0000 L 0.0000 569.00 L 745.00 569.00 L 745.00 0.0000 z"/>
</clipPath>
<g clip-path="url(#clip30)">
<g stroke-linejoin="round" stroke-width=".50000" stroke-linecap="round" fill="none" stroke-opacity=".69804" stroke="#ffffff">
  <path d="M 164.31 443.84 L 164.31 545.41"/>
<title>Segment q_1</title>
<desc>Segment q_1: Segment A_1, D</desc>

</g> <!-- drawing style -->
</g> <!-- clip30 -->
<clipPath id="clip639f3299-8d10-41c8-b9d1-860d39481ff2">
  <path d="M 0.0000 0.0000 L 0.0000 569.00 L 745.00 569.00 L 745.00 0.0000 z"/>
</clipPath>
<g clip-path="url(#clip31)">
<g stroke-linejoin="round" stroke-width=".50000" stroke-linecap="round" fill="none" stroke-opacity=".69804" stroke="#ffffff">
  <path d="M 570.61 545.41 L 672.18 545.41"/>
<title>Segment r_1</title>
<desc>Segment r_1: Segment O, C</desc>

</g> <!-- drawing style -->
</g> <!-- clip31 -->
<clipPath id="clip09707a35-39ff-4960-a82a-c3b52c938d6e">
  <path d="M 0.0000 0.0000 L 0.0000 569.00 L 745.00 569.00 L 745.00 0.0000 z"/>
</clipPath>
<g clip-path="url(#clip32)">
<g stroke-linejoin="round" stroke-width=".50000" stroke-linecap="round" fill="none" stroke-opacity=".69804" stroke="#ffffff">
  <path d="M 672.18 545.41 L 672.18 443.84"/>
<title>Segment s_1</title>
<desc>Segment s_1: Segment C, B_1</desc>

</g> <!-- drawing style -->
</g> <!-- clip32 -->
<clipPath id="clip89c58d96-3873-4ad0-a85e-230f533105f7">
  <path d="M 0.0000 0.0000 L 0.0000 569.00 L 745.00 569.00 L 745.00 0.0000 z"/>
</clipPath>
<g clip-path="url(#clip33)">
<g stroke-linejoin="round" stroke-width=".50000" stroke-linecap="round" fill="none" stroke-opacity=".69804" stroke="#ffffff">
  <path d="M 672.18 443.84 L 570.61 443.84"/>
<title>Segment t_1</title>
<desc>Segment t_1: Segment B_1, C_1</desc>

</g> <!-- drawing style -->
</g> <!-- clip33 -->
<clipPath id="clipea956658-b133-458d-9d18-1afbf47668b5">
  <path d="M 0.0000 0.0000 L 0.0000 569.00 L 745.00 569.00 L 745.00 0.0000 z"/>
</clipPath>
<g clip-path="url(#clip34)">
<g stroke-linejoin="round" stroke-width=".50000" stroke-linecap="round" fill="none" stroke-opacity=".69804" stroke="#ffffff">
  <path d="M 570.61 443.84 L 570.61 545.41"/>
<title>Segment a_1</title>
<desc>Segment a_1: Segment C_1, O</desc>

</g> <!-- drawing style -->
</g> <!-- clip34 -->
<clipPath id="clipb57fff7e-d707-4346-9e35-514acaf4e642">
  <path d="M 0.0000 0.0000 L 0.0000 569.00 L 745.00 569.00 L 745.00 0.0000 z"/>
</clipPath>
<g clip-path="url(#clip35)">
<g stroke-linejoin="round" stroke-width=".50000" stroke-linecap="round" fill="none" stroke-opacity=".69804" stroke="#ffffff">
  <path d="M 570.61 139.12 L 672.18 139.12"/>
<title>Segment b_1</title>
<desc>Segment b_1: Segment G, M</desc>

</g> <!-- drawing style -->
</g> <!-- clip35 -->
<clipPath id="clip689e5cae-5867-4899-b977-46a78ca05689">
  <path d="M 0.0000 0.0000 L 0.0000 569.00 L 745.00 569.00 L 745.00 0.0000 z"/>
</clipPath>
<g clip-path="url(#clip36)">
<g stroke-linejoin="round" stroke-width=".50000" stroke-linecap="round" fill="none" stroke-opacity=".69804" stroke="#ffffff">
  <path d="M 672.18 139.12 L 672.18 37.544"/>
<title>Segment c_1</title>
<desc>Segment c_1: Segment M, D_1</desc>

</g> <!-- drawing style -->
</g> <!-- clip36 -->
<clipPath id="clip5a36e206-b62b-43fe-a6e4-68b10365804f">
  <path d="M 0.0000 0.0000 L 0.0000 569.00 L 745.00 569.00 L 745.00 0.0000 z"/>
</clipPath>
<g clip-path="url(#clip37)">
<g stroke-linejoin="round" stroke-width=".50000" stroke-linecap="round" fill="none" stroke-opacity=".69804" stroke="#ffffff">
  <path d="M 672.18 37.544 L 570.61 37.544"/>
<title>Segment d_1</title>
<desc>Segment d_1: Segment D_1, E_1</desc>

</g> <!-- drawing style -->
</g> <!-- clip37 -->
<clipPath id="clip3e5c2a1c-0abb-4645-9d61-c2013d3462c7">
  <path d="M 0.0000 0.0000 L 0.0000 569.00 L 745.00 569.00 L 745.00 0.0000 z"/>
</clipPath>
<g clip-path="url(#clip38)">
<g stroke-linejoin="round" stroke-width=".50000" stroke-linecap="round" fill="none" stroke-opacity=".69804" stroke="#ffffff">
  <path d="M 570.61 37.544 L 570.61 139.12"/>
<title>Segment e_1</title>
<desc>Segment e_1: Segment E_1, G</desc>

</g> <!-- drawing style -->
</g> <!-- clip38 -->
<clipPath id="clip3f3a586c-a452-4518-b928-53d3a36eed95">
  <path d="M 0.0000 0.0000 L 0.0000 569.00 L 745.00 569.00 L 745.00 0.0000 z"/>
</clipPath>
<g clip-path="url(#clip39)">
<g stroke-linejoin="round" stroke-width=".50000" stroke-linecap="round" fill="none" stroke-opacity=".69804" stroke="#ffffff">
  <path d="M 164.31 139.12 L 265.89 139.12"/>
<title>Segment f_2</title>
<desc>Segment f_2: Segment J_2, H</desc>

</g> <!-- drawing style -->
</g> <!-- clip39 -->
<clipPath id="clip472a9b61-49d4-4c92-bdb9-04c2606599d3">
  <path d="M 0.0000 0.0000 L 0.0000 569.00 L 745.00 569.00 L 745.00 0.0000 z"/>
</clipPath>
<g clip-path="url(#clip40)">
<g stroke-linejoin="round" stroke-width=".50000" stroke-linecap="round" fill="none" stroke-opacity=".69804" stroke="#ffffff">
  <path d="M 265.89 139.12 L 265.89 37.544"/>
<title>Segment g_2</title>
<desc>Segment g_2: Segment H, F_1</desc>

</g> <!-- drawing style -->
</g> <!-- clip40 -->
<clipPath id="clip21063a3c-81eb-45e1-a921-e97c0365478e">
  <path d="M 0.0000 0.0000 L 0.0000 569.00 L 745.00 569.00 L 745.00 0.0000 z"/>
</clipPath>
<g clip-path="url(#clip41)">
<g stroke-linejoin="round" stroke-width=".50000" stroke-linecap="round" fill="none" stroke-opacity=".69804" stroke="#ffffff">
  <path d="M 265.89 37.544 L 164.31 37.544"/>
<title>Segment h_2</title>
<desc>Segment h_2: Segment F_1, G_1</desc>

</g> <!-- drawing style -->
</g> <!-- clip41 -->
<clipPath id="clip91884626-250a-4827-926e-7f4c12543fc6">
  <path d="M 0.0000 0.0000 L 0.0000 569.00 L 745.00 569.00 L 745.00 0.0000 z"/>
</clipPath>
<g clip-path="url(#clip42)">
<g stroke-linejoin="round" stroke-width=".50000" stroke-linecap="round" fill="none" stroke-opacity=".69804" stroke="#ffffff">
  <path d="M 164.31 37.544 L 164.31 139.12"/>
<title>Segment i_2</title>
<desc>Segment i_2: Segment G_1, J_2</desc>

</g> <!-- drawing style -->
</g> <!-- clip42 -->
<clipPath id="clip27a1574f-0e52-49a8-b6e5-39a222d5370d">
  <path d="M 0.0000 0.0000 L 0.0000 569.00 L 745.00 569.00 L 745.00 0.0000 z"/>
</clipPath>
<g clip-path="url(#clip43)">
<g stroke-linejoin="round" stroke-width=".50000" stroke-linecap="round" fill="none" stroke-opacity=".69804" stroke="#000000">
  <path d="M 291.54 54.500 L 181.27 418.18"/>
<title>Segment d</title>
<desc>Segment d: Segment S, R</desc>

</g> <!-- drawing style -->
</g> <!-- clip43 -->
<clipPath id="clip577c9aa2-9e42-4a31-8992-f01eda517b52">
  <path d="M 0.0000 0.0000 L 0.0000 569.00 L 745.00 569.00 L 745.00 0.0000 z"/>
</clipPath>
<g clip-path="url(#clip44)">
<g stroke-linejoin="round" stroke-width=".50000" stroke-linecap="round" fill="none" stroke-opacity=".69804" stroke="#000000">
  <path d="M 181.27 418.18 L 544.95 528.46"/>
<title>Segment e</title>
<desc>Segment e: Segment R, T</desc>

</g> <!-- drawing style -->
</g> <!-- clip44 -->
<clipPath id="clipe10e960e-2b32-4cfe-a898-b5efd932f093">
  <path d="M 0.0000 0.0000 L 0.0000 569.00 L 745.00 569.00 L 745.00 0.0000 z"/>
</clipPath>
<g clip-path="url(#clip45)">
<g stroke-linejoin="round" stroke-width=".50000" stroke-linecap="round" fill="none" stroke-opacity=".69804" stroke="#000000">
  <path d="M 544.95 528.46 L 655.22 164.78"/>
<title>Segment f_1</title>
<desc>Segment f_1: Segment T, U</desc>

</g> <!-- drawing style -->
</g> <!-- clip45 -->
<clipPath id="clipc59d789c-a8a9-4700-baa8-3f0637e01b7f">
  <path d="M 0.0000 0.0000 L 0.0000 569.00 L 745.00 569.00 L 745.00 0.0000 z"/>
</clipPath>
<g clip-path="url(#clip46)">
<g stroke-linejoin="round" stroke-width=".50000" stroke-linecap="round" fill="none" stroke-opacity=".69804" stroke="#000000">
  <path d="M 655.22 164.78 L 291.54 54.500"/>
<title>Segment g_1</title>
<desc>Segment g_1: Segment U, S</desc>

</g> <!-- drawing style -->
</g> <!-- clip46 -->
<clipPath id="clip30d3ff1a-714d-4594-aa81-a39852657791">
  <path d="M 0.0000 0.0000 L 0.0000 569.00 L 745.00 569.00 L 745.00 0.0000 z"/>
</clipPath>
<g clip-path="url(#clip47)">
<g stroke-linejoin="round" stroke-width=".50000" stroke-linecap="round" fill="none" stroke-opacity=".69804" stroke="#000000">
  <path d="M 265.89 443.84 L 570.61 443.84"/>
<title>Segment h_1</title>
<desc>Segment h_1: Segment E, F</desc>

</g> <!-- drawing style -->
</g> <!-- clip47 -->
<clipPath id="clip4c95f5a0-b427-44fb-801f-36280eb40817">
  <path d="M 0.0000 0.0000 L 0.0000 569.00 L 745.00 569.00 L 745.00 0.0000 z"/>
</clipPath>
<g clip-path="url(#clip48)">
<g stroke-linejoin="round" stroke-width=".50000" stroke-linecap="round" fill="none" stroke-opacity=".69804" stroke="#000000">
  <path d="M 570.61 443.84 L 570.61 139.12"/>
<title>Segment j_2</title>
<desc>Segment j_2: Segment F, H_1</desc>

</g> <!-- drawing style -->
</g> <!-- clip48 -->
<clipPath id="clipd77f03cb-1674-451b-aaf4-303e5ac2d98f">
  <path d="M 0.0000 0.0000 L 0.0000 569.00 L 745.00 569.00 L 745.00 0.0000 z"/>
</clipPath>
<g clip-path="url(#clip49)">
<g stroke-linejoin="round" stroke-width=".50000" stroke-linecap="round" fill="none" stroke-opacity=".69804" stroke="#000000">
  <path d="M 570.61 139.12 L 265.89 139.12"/>
<title>Segment k_2</title>
<desc>Segment k_2: Segment H_1, I_1</desc>

</g> <!-- drawing style -->
</g> <!-- clip49 -->
<clipPath id="clipe52036b3-98bc-4a55-8ef3-67671ba768bd">
  <path d="M 0.0000 0.0000 L 0.0000 569.00 L 745.00 569.00 L 745.00 0.0000 z"/>
</clipPath>
<g clip-path="url(#clip50)">
<g stroke-linejoin="round" stroke-width=".50000" stroke-linecap="round" fill="none" stroke-opacity=".69804" stroke="#000000">
  <path d="M 265.89 139.12 L 265.89 443.84"/>
<title>Segment l_2</title>
<desc>Segment l_2: Segment I_1, E</desc>

</g> <!-- drawing style -->
</g> <!-- clip50 -->
<clipPath id="clip8cfa1f9f-4505-45be-816b-d76d4b8dab0f">
  <path d="M 0.0000 0.0000 L 0.0000 569.00 L 745.00 569.00 L 745.00 0.0000 z"/>
</clipPath>
<g clip-path="url(#clip51)">
<g fill-opacity="1.0000" fill-rule="nonzero" stroke="none" fill="#000000">
  <path d="M 166.31 37.544 C 166.31 38.649 165.42 39.544 164.31 39.544 C 163.21 39.544 162.31 38.649 162.31 37.544 C 162.31 36.440 163.21 35.544 164.31 35.544 C 165.42 35.544 166.31 36.440 166.31 37.544 z"/>
<title>Point A</title>
<desc>A = (0, 14)</desc>

</g> <!-- drawing style -->
</g> <!-- clip51 -->
<clipPath id="clipf27f2302-84c6-4f90-81a8-fc70c4abc1ef">
  <path d="M 0.0000 0.0000 L 0.0000 569.00 L 745.00 569.00 L 745.00 0.0000 z"/>
</clipPath>
<g clip-path="url(#clip52)">
<g stroke-linejoin="round" stroke-linecap="round" fill="none" stroke-opacity="1.0000" stroke="#000000">
  <path d="M 166.31 37.544 C 166.31 38.649 165.42 39.544 164.31 39.544 C 163.21 39.544 162.31 38.649 162.31 37.544 C 162.31 36.440 163.21 35.544 164.31 35.544 C 165.42 35.544 166.31 36.440 166.31 37.544 z"/>
<title>Point A</title>
<desc>A = (0, 14)</desc>

</g> <!-- drawing style -->
</g> <!-- clip52 -->
<clipPath id="clipfdd9757a-058a-4ed3-917e-ecebc379ae09">
  <path d="M 0.0000 0.0000 L 0.0000 569.00 L 745.00 569.00 L 745.00 0.0000 z"/>
</clipPath>
<g clip-path="url(#clip53)">
<g fill-opacity="1.0000" fill-rule="nonzero" stroke="none" fill="#000000">
  <path d="M 147.58 18.312 L 143.83 28.469 L 151.33 28.469 L 147.58 18.312 z M 146.02 15.594 L 149.14 15.594 L 156.92 36.000 L 154.05 36.000 L 152.19 30.766 L 142.98 30.766 L 141.12 36.000 L 138.22 36.000 L 146.02 15.594 z"/>
<title>Point A</title>
<desc>A = (0, 14)</desc>

</g> <!-- drawing style -->
</g> <!-- clip53 -->
<clipPath id="clipd4048359-79f1-486f-b78f-17ce23a4fb4a">
  <path d="M 0.0000 0.0000 L 0.0000 569.00 L 745.00 569.00 L 745.00 0.0000 z"/>
</clipPath>
<g clip-path="url(#clip54)">
<g fill-opacity="1.0000" fill-rule="nonzero" stroke="none" fill="#000000">
  <path d="M 674.18 37.544 C 674.18 38.649 673.28 39.544 672.18 39.544 C 671.08 39.544 670.18 38.649 670.18 37.544 C 670.18 36.440 671.08 35.544 672.18 35.544 C 673.28 35.544 674.18 36.440 674.18 37.544 z"/>
<title>Point B</title>
<desc>B = (20, 14)</desc>

</g> <!-- drawing style -->
</g> <!-- clip54 -->
<clipPath id="clip0121d7d2-edf1-45cc-a89e-d46856f7e241">
  <path d="M 0.0000 0.0000 L 0.0000 569.00 L 745.00 569.00 L 745.00 0.0000 z"/>
</clipPath>
<g clip-path="url(#clip55)">
<g stroke-linejoin="round" stroke-linecap="round" fill="none" stroke-opacity="1.0000" stroke="#000000">
  <path d="M 674.18 37.544 C 674.18 38.649 673.28 39.544 672.18 39.544 C 671.08 39.544 670.18 38.649 670.18 37.544 C 670.18 36.440 671.08 35.544 672.18 35.544 C 673.28 35.544 674.18 36.440 674.18 37.544 z"/>
<title>Point B</title>
<desc>B = (20, 14)</desc>

</g> <!-- drawing style -->
</g> <!-- clip55 -->
<clipPath id="clip4155f11d-1e26-4f6c-addc-044755682a7a">
  <path d="M 0.0000 0.0000 L 0.0000 569.00 L 745.00 569.00 L 745.00 0.0000 z"/>
</clipPath>
<g clip-path="url(#clip56)">
<g fill-opacity="1.0000" fill-rule="nonzero" stroke="none" fill="#000000">
  <path d="M 681.52 24.250 L 681.52 31.734 L 685.94 31.734 Q 688.17 31.734 689.24 30.812 Q 690.31 29.891 690.31 27.984 Q 690.31 26.062 689.24 25.156 Q 688.17 24.250 685.94 24.250 L 681.52 24.250 z M 681.52 15.859 L 681.52 22.016 L 685.59 22.016 Q 687.62 22.016 688.62 21.250 Q 689.61 20.484 689.61 18.938 Q 689.61 17.391 688.62 16.625 Q 687.62 15.859 685.59 15.859 L 681.52 15.859 z M 678.75 13.594 L 685.80 13.594 Q 688.97 13.594 690.67 14.906 Q 692.38 16.219 692.38 18.625 Q 692.38 20.500 691.50 21.609 Q 690.62 22.719 688.94 23.000 Q 690.97 23.438 692.10 24.820 Q 693.23 26.203 693.23 28.281 Q 693.23 31.016 691.38 32.508 Q 689.52 34.000 686.08 34.000 L 678.75 34.000 L 678.75 13.594 z"/>
<title>Point B</title>
<desc>B = (20, 14)</desc>

</g> <!-- drawing style -->
</g> <!-- clip56 -->
<clipPath id="clip3b397455-a0a5-47fb-9239-3bef31484f94">
  <path d="M 0.0000 0.0000 L 0.0000 569.00 L 745.00 569.00 L 745.00 0.0000 z"/>
</clipPath>
<g clip-path="url(#clip57)">
<g fill-opacity="1.0000" fill-rule="nonzero" stroke="none" fill="#000000">
  <path d="M 674.18 545.41 C 674.18 546.52 673.28 547.41 672.18 547.41 C 671.08 547.41 670.18 546.52 670.18 545.41 C 670.18 544.31 671.08 543.41 672.18 543.41 C 673.28 543.41 674.18 544.31 674.18 545.41 z"/>
<title>Point C</title>
<desc>C = (20, -6)</desc>

</g> <!-- drawing style -->
</g> <!-- clip57 -->
<clipPath id="clip171b3a45-ceb4-4be9-8b14-3e449cd20ee6">
  <path d="M 0.0000 0.0000 L 0.0000 569.00 L 745.00 569.00 L 745.00 0.0000 z"/>
</clipPath>
<g clip-path="url(#clip58)">
<g stroke-linejoin="round" stroke-linecap="round" fill="none" stroke-opacity="1.0000" stroke="#000000">
  <path d="M 674.18 545.41 C 674.18 546.52 673.28 547.41 672.18 547.41 C 671.08 547.41 670.18 546.52 670.18 545.41 C 670.18 544.31 671.08 543.41 672.18 543.41 C 673.28 543.41 674.18 544.31 674.18 545.41 z"/>
<title>Point C</title>
<desc>C = (20, -6)</desc>

</g> <!-- drawing style -->
</g> <!-- clip58 -->
<clipPath id="clip7368277d-b645-45d2-968f-5beeb087e7c6">
  <path d="M 0.0000 0.0000 L 0.0000 569.00 L 745.00 569.00 L 745.00 0.0000 z"/>
</clipPath>
<g clip-path="url(#clip59)">
<g fill-opacity="1.0000" fill-rule="nonzero" stroke="none" fill="#000000">
  <path d="M 696.03 547.16 L 696.03 550.08 Q 694.64 548.77 693.06 548.12 Q 691.48 547.48 689.70 547.48 Q 686.20 547.48 684.34 549.62 Q 682.48 551.77 682.48 555.81 Q 682.48 559.84 684.34 561.98 Q 686.20 564.12 689.70 564.12 Q 691.48 564.12 693.06 563.48 Q 694.64 562.84 696.03 561.55 L 696.03 564.42 Q 694.58 565.41 692.96 565.90 Q 691.34 566.39 689.55 566.39 Q 684.91 566.39 682.24 563.55 Q 679.58 560.72 679.58 555.81 Q 679.58 550.89 682.24 548.05 Q 684.91 545.22 689.55 545.22 Q 691.38 545.22 692.99 545.70 Q 694.61 546.19 696.03 547.16 z"/>
<title>Point C</title>
<desc>C = (20, -6)</desc>

</g> <!-- drawing style -->
</g> <!-- clip59 -->
<clipPath id="clip99566550-5d55-457c-934c-ec92d14a771f">
  <path d="M 0.0000 0.0000 L 0.0000 569.00 L 745.00 569.00 L 745.00 0.0000 z"/>
</clipPath>
<g clip-path="url(#clip60)">
<g fill-opacity="1.0000" fill-rule="nonzero" stroke="none" fill="#000000">
  <path d="M 166.31 545.41 C 166.31 546.52 165.42 547.41 164.31 547.41 C 163.21 547.41 162.31 546.52 162.31 545.41 C 162.31 544.31 163.21 543.41 164.31 543.41 C 165.42 543.41 166.31 544.31 166.31 545.41 z"/>
<title>Point D</title>
<desc>D = (0, -6)</desc>

</g> <!-- drawing style -->
</g> <!-- clip60 -->
<clipPath id="clip8cb34c84-c474-44d1-aee1-ffb731fe31f1">
  <path d="M 0.0000 0.0000 L 0.0000 569.00 L 745.00 569.00 L 745.00 0.0000 z"/>
</clipPath>
<g clip-path="url(#clip61)">
<g stroke-linejoin="round" stroke-linecap="round" fill="none" stroke-opacity="1.0000" stroke="#000000">
  <path d="M 166.31 545.41 C 166.31 546.52 165.42 547.41 164.31 547.41 C 163.21 547.41 162.31 546.52 162.31 545.41 C 162.31 544.31 163.21 543.41 164.31 543.41 C 165.42 543.41 166.31 544.31 166.31 545.41 z"/>
<title>Point D</title>
<desc>D = (0, -6)</desc>

</g> <!-- drawing style -->
</g> <!-- clip61 -->
<clipPath id="clip09740397-7641-4f6f-87cc-7ba6adfcdb35">
  <path d="M 0.0000 0.0000 L 0.0000 569.00 L 745.00 569.00 L 745.00 0.0000 z"/>
</clipPath>
<g clip-path="url(#clip62)">
<g fill-opacity="1.0000" fill-rule="nonzero" stroke="none" fill="#000000">
  <path d="M 142.52 539.86 L 142.52 555.73 L 145.84 555.73 Q 150.08 555.73 152.04 553.82 Q 154.00 551.91 154.00 547.77 Q 154.00 543.67 152.04 541.77 Q 150.08 539.86 145.84 539.86 L 142.52 539.86 z M 139.75 537.59 L 145.42 537.59 Q 151.36 537.59 154.13 540.05 Q 156.91 542.52 156.91 547.77 Q 156.91 553.05 154.12 555.52 Q 151.33 558.00 145.42 558.00 L 139.75 558.00 L 139.75 537.59 z"/>
<title>Point D</title>
<desc>D = (0, -6)</desc>

</g> <!-- drawing style -->
</g> <!-- clip62 -->
<clipPath id="clip8237de6d-0933-4ed4-b6fd-3ede3240bd3a">
  <path d="M 0.0000 0.0000 L 0.0000 569.00 L 745.00 569.00 L 745.00 0.0000 z"/>
</clipPath>
<g clip-path="url(#clip63)">
<g fill-opacity="1.0000" fill-rule="nonzero" stroke="none" fill="#000000">
  <path d="M 267.89 443.84 C 267.89 444.94 266.99 445.84 265.89 445.84 C 264.78 445.84 263.89 444.94 263.89 443.84 C 263.89 442.73 264.78 441.84 265.89 441.84 C 266.99 441.84 267.89 442.73 267.89 443.84 z"/>
<title>Point E</title>
<desc>E = (4, -2)</desc>

</g> <!-- drawing style -->
</g> <!-- clip63 -->
<clipPath id="clip6c2d6a50-9c5f-4bf8-b30d-ca32e565d310">
  <path d="M 0.0000 0.0000 L 0.0000 569.00 L 745.00 569.00 L 745.00 0.0000 z"/>
</clipPath>
<g clip-path="url(#clip64)">
<g stroke-linejoin="round" stroke-linecap="round" fill="none" stroke-opacity="1.0000" stroke="#000000">
  <path d="M 267.89 443.84 C 267.89 444.94 266.99 445.84 265.89 445.84 C 264.78 445.84 263.89 444.94 263.89 443.84 C 263.89 442.73 264.78 441.84 265.89 441.84 C 266.99 441.84 267.89 442.73 267.89 443.84 z"/>
<title>Point E</title>
<desc>E = (4, -2)</desc>

</g> <!-- drawing style -->
</g> <!-- clip64 -->
<clipPath id="clip969ed66f-c074-45b1-ac73-e676226d32c4">
  <path d="M 0.0000 0.0000 L 0.0000 569.00 L 745.00 569.00 L 745.00 0.0000 z"/>
</clipPath>
<g clip-path="url(#clip65)">
<g fill-opacity="1.0000" fill-rule="nonzero" stroke="none" fill="#000000">
  <path d="M 246.75 453.59 L 259.66 453.59 L 259.66 455.91 L 249.52 455.91 L 249.52 461.95 L 259.23 461.95 L 259.23 464.28 L 249.52 464.28 L 249.52 471.67 L 259.91 471.67 L 259.91 474.00 L 246.75 474.00 L 246.75 453.59 z"/>
<title>Point E</title>
<desc>E = (4, -2)</desc>

</g> <!-- drawing style -->
</g> <!-- clip65 -->
<clipPath id="clip2f545fce-5037-475a-94ab-d0d7b46cdca1">
  <path d="M 0.0000 0.0000 L 0.0000 569.00 L 745.00 569.00 L 745.00 0.0000 z"/>
</clipPath>
<g clip-path="url(#clip66)">
<g fill-opacity="1.0000" fill-rule="nonzero" stroke="none" fill="#000000">
  <path d="M 572.61 443.84 C 572.61 444.94 571.71 445.84 570.61 445.84 C 569.50 445.84 568.61 444.94 568.61 443.84 C 568.61 442.73 569.50 441.84 570.61 441.84 C 571.71 441.84 572.61 442.73 572.61 443.84 z"/>
<title>Point F</title>
<desc>F = (16, -2)</desc>

</g> <!-- drawing style -->
</g> <!-- clip66 -->
<clipPath id="clipa00ddad3-8d8d-48ed-9a3b-d250f19570cc">
  <path d="M 0.0000 0.0000 L 0.0000 569.00 L 745.00 569.00 L 745.00 0.0000 z"/>
</clipPath>
<g clip-path="url(#clip67)">
<g stroke-linejoin="round" stroke-linecap="round" fill="none" stroke-opacity="1.0000" stroke="#000000">
  <path d="M 572.61 443.84 C 572.61 444.94 571.71 445.84 570.61 445.84 C 569.50 445.84 568.61 444.94 568.61 443.84 C 568.61 442.73 569.50 441.84 570.61 441.84 C 571.71 441.84 572.61 442.73 572.61 443.84 z"/>
<title>Point F</title>
<desc>F = (16, -2)</desc>

</g> <!-- drawing style -->
</g> <!-- clip67 -->
<clipPath id="clip7d28ab52-4719-4eee-90c3-008b82f716c2">
  <path d="M 0.0000 0.0000 L 0.0000 569.00 L 745.00 569.00 L 745.00 0.0000 z"/>
</clipPath>
<g clip-path="url(#clip68)">
<g fill-opacity="1.0000" fill-rule="nonzero" stroke="none" fill="#000000">
  <path d="M 579.75 451.59 L 591.48 451.59 L 591.48 453.91 L 582.52 453.91 L 582.52 459.92 L 590.61 459.92 L 590.61 462.25 L 582.52 462.25 L 582.52 472.00 L 579.75 472.00 L 579.75 451.59 z"/>
<title>Point F</title>
<desc>F = (16, -2)</desc>

</g> <!-- drawing style -->
</g> <!-- clip68 -->
<clipPath id="clip798be622-2041-4dc9-a2a7-17f3614172ac">
  <path d="M 0.0000 0.0000 L 0.0000 569.00 L 745.00 569.00 L 745.00 0.0000 z"/>
</clipPath>
<g clip-path="url(#clip69)">
<g fill-opacity="1.0000" fill-rule="nonzero" stroke="none" fill="#000000">
  <path d="M 572.61 139.12 C 572.61 140.22 571.71 141.12 570.61 141.12 C 569.50 141.12 568.61 140.22 568.61 139.12 C 568.61 138.01 569.50 137.12 570.61 137.12 C 571.71 137.12 572.61 138.01 572.61 139.12 z"/>
<title>Point G</title>
<desc>G = (16, 10)</desc>

</g> <!-- drawing style -->
</g> <!-- clip69 -->
<clipPath id="clipad89e2c0-f7a8-4bf3-b0f3-8c3f1deac083">
  <path d="M 0.0000 0.0000 L 0.0000 569.00 L 745.00 569.00 L 745.00 0.0000 z"/>
</clipPath>
<g clip-path="url(#clip70)">
<g stroke-linejoin="round" stroke-linecap="round" fill="none" stroke-opacity="1.0000" stroke="#000000">
  <path d="M 572.61 139.12 C 572.61 140.22 571.71 141.12 570.61 141.12 C 569.50 141.12 568.61 140.22 568.61 139.12 C 568.61 138.01 569.50 137.12 570.61 137.12 C 571.71 137.12 572.61 138.01 572.61 139.12 z"/>
<title>Point G</title>
<desc>G = (16, 10)</desc>

</g> <!-- drawing style -->
</g> <!-- clip70 -->
<clipPath id="clipbff891aa-db8e-4ee7-afa8-09becafedf1b">
  <path d="M 0.0000 0.0000 L 0.0000 569.00 L 745.00 569.00 L 745.00 0.0000 z"/>
</clipPath>
<g clip-path="url(#clip71)">
<g fill-opacity="1.0000" fill-rule="nonzero" stroke="none" fill="#000000">
  <path d="M 591.67 127.09 L 591.67 121.61 L 587.16 121.61 L 587.16 119.33 L 594.41 119.33 L 594.41 128.09 Q 592.80 129.23 590.88 129.81 Q 588.95 130.39 586.77 130.39 Q 581.97 130.39 579.27 127.59 Q 576.58 124.80 576.58 119.81 Q 576.58 114.81 579.27 112.02 Q 581.97 109.22 586.77 109.22 Q 588.75 109.22 590.55 109.71 Q 592.34 110.20 593.88 111.16 L 593.88 114.09 Q 592.34 112.80 590.62 112.14 Q 588.89 111.48 586.98 111.48 Q 583.25 111.48 581.37 113.58 Q 579.48 115.67 579.48 119.81 Q 579.48 123.94 581.37 126.03 Q 583.25 128.12 586.98 128.12 Q 588.45 128.12 589.60 127.88 Q 590.75 127.62 591.67 127.09 z"/>
<title>Point G</title>
<desc>G = (16, 10)</desc>

</g> <!-- drawing style -->
</g> <!-- clip71 -->
<clipPath id="clip58c28576-8f7c-4cec-8ab1-6473e8cb8271">
  <path d="M 0.0000 0.0000 L 0.0000 569.00 L 745.00 569.00 L 745.00 0.0000 z"/>
</clipPath>
<g clip-path="url(#clip72)">
<g fill-opacity="1.0000" fill-rule="nonzero" stroke="none" fill="#000000">
  <path d="M 267.89 139.12 C 267.89 140.22 266.99 141.12 265.89 141.12 C 264.78 141.12 263.89 140.22 263.89 139.12 C 263.89 138.01 264.78 137.12 265.89 137.12 C 266.99 137.12 267.89 138.01 267.89 139.12 z"/>
<title>Point H</title>
<desc>H = (4, 10)</desc>

</g> <!-- drawing style -->
</g> <!-- clip72 -->
<clipPath id="clip377c6a79-8baf-4821-8b28-91530ff5ace2">
  <path d="M 0.0000 0.0000 L 0.0000 569.00 L 745.00 569.00 L 745.00 0.0000 z"/>
</clipPath>
<g clip-path="url(#clip73)">
<g stroke-linejoin="round" stroke-linecap="round" fill="none" stroke-opacity="1.0000" stroke="#000000">
  <path d="M 267.89 139.12 C 267.89 140.22 266.99 141.12 265.89 141.12 C 264.78 141.12 263.89 140.22 263.89 139.12 C 263.89 138.01 264.78 137.12 265.89 137.12 C 266.99 137.12 267.89 138.01 267.89 139.12 z"/>
<title>Point H</title>
<desc>H = (4, 10)</desc>

</g> <!-- drawing style -->
</g> <!-- clip73 -->
<clipPath id="clipff251480-7f88-464c-9f8b-3320e1c4b3ad">
  <path d="M 0.0000 0.0000 L 0.0000 569.00 L 745.00 569.00 L 745.00 0.0000 z"/>
</clipPath>
<g clip-path="url(#clip74)">
<g fill-opacity="1.0000" fill-rule="nonzero" stroke="none" fill="#000000">
  <path d="M 240.75 113.59 L 243.52 113.59 L 243.52 121.95 L 253.55 121.95 L 253.55 113.59 L 256.31 113.59 L 256.31 134.00 L 253.55 134.00 L 253.55 124.28 L 243.52 124.28 L 243.52 134.00 L 240.75 134.00 L 240.75 113.59 z"/>
<title>Point H</title>
<desc>H = (4, 10)</desc>

</g> <!-- drawing style -->
</g> <!-- clip74 -->
<clipPath id="clip7252bca0-ea00-4c9e-8e1b-f26ea9e86fc4">
  <path d="M 0.0000 0.0000 L 0.0000 569.00 L 745.00 569.00 L 745.00 0.0000 z"/>
</clipPath>
<g clip-path="url(#clip75)">
<g fill-opacity="1.0000" fill-rule="nonzero" stroke="none" fill="#000000">
  <path d="M 293.54 54.500 C 293.54 55.605 292.65 56.500 291.54 56.500 C 290.44 56.500 289.54 55.605 289.54 54.500 C 289.54 53.396 290.44 52.500 291.54 52.500 C 292.65 52.500 293.54 53.396 293.54 54.500 z"/>
<title>Point S</title>
<desc>Point S: Intersection of s and t</desc>

</g> <!-- drawing style -->
</g> <!-- clip75 -->
<clipPath id="clipb87fcce9-2cc5-454f-b2ce-9aaf0c85267e">
  <path d="M 0.0000 0.0000 L 0.0000 569.00 L 745.00 569.00 L 745.00 0.0000 z"/>
</clipPath>
<g clip-path="url(#clip76)">
<g stroke-linejoin="round" stroke-linecap="round" fill="none" stroke-opacity="1.0000" stroke="#000000">
  <path d="M 293.54 54.500 C 293.54 55.605 292.65 56.500 291.54 56.500 C 290.44 56.500 289.54 55.605 289.54 54.500 C 289.54 53.396 290.44 52.500 291.54 52.500 C 292.65 52.500 293.54 53.396 293.54 54.500 z"/>
<title>Point S</title>
<desc>Point S: Intersection of s and t</desc>

</g> <!-- drawing style -->
</g> <!-- clip76 -->
<clipPath id="clip2acf2c6b-2f07-4172-bf54-c99e389cdea2">
  <path d="M 0.0000 0.0000 L 0.0000 569.00 L 745.00 569.00 L 745.00 0.0000 z"/>
</clipPath>
<g clip-path="url(#clip77)">
<g fill-opacity="1.0000" fill-rule="nonzero" stroke="none" fill="#000000">
  <path d="M 317.98 32.250 L 317.98 34.953 Q 316.41 34.203 315.02 33.828 Q 313.62 33.453 312.33 33.453 Q 310.06 33.453 308.84 34.328 Q 307.62 35.203 307.62 36.828 Q 307.62 38.172 308.44 38.867 Q 309.25 39.562 311.52 39.984 L 313.19 40.328 Q 316.28 40.906 317.75 42.391 Q 319.22 43.875 319.22 46.359 Q 319.22 49.328 317.23 50.859 Q 315.23 52.391 311.39 52.391 Q 309.95 52.391 308.31 52.062 Q 306.67 51.734 304.92 51.094 L 304.92 48.250 Q 306.61 49.203 308.23 49.680 Q 309.84 50.156 311.39 50.156 Q 313.77 50.156 315.05 49.227 Q 316.33 48.297 316.33 46.578 Q 316.33 45.062 315.41 44.219 Q 314.48 43.375 312.38 42.953 L 310.70 42.625 Q 307.61 42.000 306.23 40.688 Q 304.84 39.375 304.84 37.047 Q 304.84 34.328 306.75 32.773 Q 308.66 31.219 312.02 31.219 Q 313.45 31.219 314.94 31.477 Q 316.42 31.734 317.98 32.250 z"/>
<title>Point S</title>
<desc>Point S: Intersection of s and t</desc>

</g> <!-- drawing style -->
</g> <!-- clip77 -->
<clipPath id="clipa35a5c30-1c84-49fd-b312-f073d915affa">
  <path d="M 0.0000 0.0000 L 0.0000 569.00 L 745.00 569.00 L 745.00 0.0000 z"/>
</clipPath>
<g clip-path="url(#clip78)">
<g fill-opacity="1.0000" fill-rule="nonzero" stroke="none" fill="#000000">
  <path d="M 674.18 37.544 C 674.18 38.649 673.28 39.544 672.18 39.544 C 671.08 39.544 670.18 38.649 670.18 37.544 C 670.18 36.440 671.08 35.544 672.18 35.544 C 673.28 35.544 674.18 36.440 674.18 37.544 z"/>
<title>Point V</title>
<desc>Point V: Polygon(D, C, 4)</desc>

</g> <!-- drawing style -->
</g> <!-- clip78 -->
<clipPath id="clip6c2f8099-edca-4d91-aeb3-71ee07e4e10e">
  <path d="M 0.0000 0.0000 L 0.0000 569.00 L 745.00 569.00 L 745.00 0.0000 z"/>
</clipPath>
<g clip-path="url(#clip79)">
<g stroke-linejoin="round" stroke-linecap="round" fill="none" stroke-opacity="1.0000" stroke="#000000">
  <path d="M 674.18 37.544 C 674.18 38.649 673.28 39.544 672.18 39.544 C 671.08 39.544 670.18 38.649 670.18 37.544 C 670.18 36.440 671.08 35.544 672.18 35.544 C 673.28 35.544 674.18 36.440 674.18 37.544 z"/>
<title>Point V</title>
<desc>Point V: Polygon(D, C, 4)</desc>

</g> <!-- drawing style -->
</g> <!-- clip79 -->
<clipPath id="clip210d035b-ca28-43d5-aec7-a3f71fe119f0">
  <path d="M 0.0000 0.0000 L 0.0000 569.00 L 745.00 569.00 L 745.00 0.0000 z"/>
</clipPath>
<g clip-path="url(#clip80)">
<g fill-opacity="1.0000" fill-rule="nonzero" stroke="none" fill="#000000">
  <path d="M 166.31 37.544 C 166.31 38.649 165.42 39.544 164.31 39.544 C 163.21 39.544 162.31 38.649 162.31 37.544 C 162.31 36.440 163.21 35.544 164.31 35.544 C 165.42 35.544 166.31 36.440 166.31 37.544 z"/>
<title>Point W</title>
<desc>Point W: Polygon(D, C, 4)</desc>

</g> <!-- drawing style -->
</g> <!-- clip80 -->
<clipPath id="clip574740ab-473a-4b1a-a7be-49f08dbe7104">
  <path d="M 0.0000 0.0000 L 0.0000 569.00 L 745.00 569.00 L 745.00 0.0000 z"/>
</clipPath>
<g clip-path="url(#clip81)">
<g stroke-linejoin="round" stroke-linecap="round" fill="none" stroke-opacity="1.0000" stroke="#000000">
  <path d="M 166.31 37.544 C 166.31 38.649 165.42 39.544 164.31 39.544 C 163.21 39.544 162.31 38.649 162.31 37.544 C 162.31 36.440 163.21 35.544 164.31 35.544 C 165.42 35.544 166.31 36.440 166.31 37.544 z"/>
<title>Point W</title>
<desc>Point W: Polygon(D, C, 4)</desc>

</g> <!-- drawing style -->
</g> <!-- clip81 -->
<clipPath id="clip0225c629-e6ae-411e-80df-686976aafa12">
  <path d="M 0.0000 0.0000 L 0.0000 569.00 L 745.00 569.00 L 745.00 0.0000 z"/>
</clipPath>
<g clip-path="url(#clip82)">
<g fill-opacity="1.0000" fill-rule="nonzero" stroke="none" fill="#000000">
  <path d="M 267.89 443.84 C 267.89 444.94 266.99 445.84 265.89 445.84 C 264.78 445.84 263.89 444.94 263.89 443.84 C 263.89 442.73 264.78 441.84 265.89 441.84 C 266.99 441.84 267.89 442.73 267.89 443.84 z"/>
<title>Point Z</title>
<desc>Point Z: Polygon(D, P, 4)</desc>

</g> <!-- drawing style -->
</g> <!-- clip82 -->
<clipPath id="clip4dd38726-2624-43b2-8ace-b25845d0ca77">
  <path d="M 0.0000 0.0000 L 0.0000 569.00 L 745.00 569.00 L 745.00 0.0000 z"/>
</clipPath>
<g clip-path="url(#clip83)">
<g stroke-linejoin="round" stroke-linecap="round" fill="none" stroke-opacity="1.0000" stroke="#000000">
  <path d="M 267.89 443.84 C 267.89 444.94 266.99 445.84 265.89 445.84 C 264.78 445.84 263.89 444.94 263.89 443.84 C 263.89 442.73 264.78 441.84 265.89 441.84 C 266.99 441.84 267.89 442.73 267.89 443.84 z"/>
<title>Point Z</title>
<desc>Point Z: Polygon(D, P, 4)</desc>

</g> <!-- drawing style -->
</g> <!-- clip83 -->
<clipPath id="clipe2b3c034-7ba7-4ce2-9449-1cf0a5e937fa">
  <path d="M 0.0000 0.0000 L 0.0000 569.00 L 745.00 569.00 L 745.00 0.0000 z"/>
</clipPath>
<g clip-path="url(#clip84)">
<g fill-opacity="1.0000" fill-rule="nonzero" stroke="none" fill="#000000">
  <path d="M 166.31 443.84 C 166.31 444.94 165.42 445.84 164.31 445.84 C 163.21 445.84 162.31 444.94 162.31 443.84 C 162.31 442.73 163.21 441.84 164.31 441.84 C 165.42 441.84 166.31 442.73 166.31 443.84 z"/>
<title>Point A_1</title>
<desc>Point A_1: Polygon(D, P, 4)</desc>

</g> <!-- drawing style -->
</g> <!-- clip84 -->
<clipPath id="clip12226949-8497-44c8-9d66-59e4ac46d259">
  <path d="M 0.0000 0.0000 L 0.0000 569.00 L 745.00 569.00 L 745.00 0.0000 z"/>
</clipPath>
<g clip-path="url(#clip85)">
<g stroke-linejoin="round" stroke-linecap="round" fill="none" stroke-opacity="1.0000" stroke="#000000">
  <path d="M 166.31 443.84 C 166.31 444.94 165.42 445.84 164.31 445.84 C 163.21 445.84 162.31 444.94 162.31 443.84 C 162.31 442.73 163.21 441.84 164.31 441.84 C 165.42 441.84 166.31 442.73 166.31 443.84 z"/>
<title>Point A_1</title>
<desc>Point A_1: Polygon(D, P, 4)</desc>

</g> <!-- drawing style -->
</g> <!-- clip85 -->
<clipPath id="clip1f31f68e-d86c-44e6-8c49-d6998a2a83f0">
  <path d="M 0.0000 0.0000 L 0.0000 569.00 L 745.00 569.00 L 745.00 0.0000 z"/>
</clipPath>
<g clip-path="url(#clip86)">
<g fill-opacity="1.0000" fill-rule="nonzero" stroke="none" fill="#000000">
  <path d="M 674.18 443.84 C 674.18 444.94 673.28 445.84 672.18 445.84 C 671.08 445.84 670.18 444.94 670.18 443.84 C 670.18 442.73 671.08 441.84 672.18 441.84 C 673.28 441.84 674.18 442.73 674.18 443.84 z"/>
<title>Point B_1</title>
<desc>Point B_1: Polygon(O, C, 4)</desc>

</g> <!-- drawing style -->
</g> <!-- clip86 -->
<clipPath id="clip94434468-01b7-4186-932b-5282854fc09d">
  <path d="M 0.0000 0.0000 L 0.0000 569.00 L 745.00 569.00 L 745.00 0.0000 z"/>
</clipPath>
<g clip-path="url(#clip87)">
<g stroke-linejoin="round" stroke-linecap="round" fill="none" stroke-opacity="1.0000" stroke="#000000">
  <path d="M 674.18 443.84 C 674.18 444.94 673.28 445.84 672.18 445.84 C 671.08 445.84 670.18 444.94 670.18 443.84 C 670.18 442.73 671.08 441.84 672.18 441.84 C 673.28 441.84 674.18 442.73 674.18 443.84 z"/>
<title>Point B_1</title>
<desc>Point B_1: Polygon(O, C, 4)</desc>

</g> <!-- drawing style -->
</g> <!-- clip87 -->
<clipPath id="clipb860338a-adb3-49f1-b96b-18921a12ab3a">
  <path d="M 0.0000 0.0000 L 0.0000 569.00 L 745.00 569.00 L 745.00 0.0000 z"/>
</clipPath>
<g clip-path="url(#clip88)">
<g fill-opacity="1.0000" fill-rule="nonzero" stroke="none" fill="#000000">
  <path d="M 572.61 443.84 C 572.61 444.94 571.71 445.84 570.61 445.84 C 569.50 445.84 568.61 444.94 568.61 443.84 C 568.61 442.73 569.50 441.84 570.61 441.84 C 571.71 441.84 572.61 442.73 572.61 443.84 z"/>
<title>Point C_1</title>
<desc>Point C_1: Polygon(O, C, 4)</desc>

</g> <!-- drawing style -->
</g> <!-- clip88 -->
<clipPath id="clip622ce2db-f7a8-47e5-84f8-329201b02191">
  <path d="M 0.0000 0.0000 L 0.0000 569.00 L 745.00 569.00 L 745.00 0.0000 z"/>
</clipPath>
<g clip-path="url(#clip89)">
<g stroke-linejoin="round" stroke-linecap="round" fill="none" stroke-opacity="1.0000" stroke="#000000">
  <path d="M 572.61 443.84 C 572.61 444.94 571.71 445.84 570.61 445.84 C 569.50 445.84 568.61 444.94 568.61 443.84 C 568.61 442.73 569.50 441.84 570.61 441.84 C 571.71 441.84 572.61 442.73 572.61 443.84 z"/>
<title>Point C_1</title>
<desc>Point C_1: Polygon(O, C, 4)</desc>

</g> <!-- drawing style -->
</g> <!-- clip89 -->
<clipPath id="clip3cf661c9-01d4-4943-bb67-5fce412959d7">
  <path d="M 0.0000 0.0000 L 0.0000 569.00 L 745.00 569.00 L 745.00 0.0000 z"/>
</clipPath>
<g clip-path="url(#clip90)">
<g fill-opacity="1.0000" fill-rule="nonzero" stroke="none" fill="#000000">
  <path d="M 674.18 37.544 C 674.18 38.649 673.28 39.544 672.18 39.544 C 671.08 39.544 670.18 38.649 670.18 37.544 C 670.18 36.440 671.08 35.544 672.18 35.544 C 673.28 35.544 674.18 36.440 674.18 37.544 z"/>
<title>Point D_1</title>
<desc>Point D_1: Polygon(G, M, 4)</desc>

</g> <!-- drawing style -->
</g> <!-- clip90 -->
<clipPath id="clip3a1c5fb2-65df-42f5-8315-cbf1d3e7716e">
  <path d="M 0.0000 0.0000 L 0.0000 569.00 L 745.00 569.00 L 745.00 0.0000 z"/>
</clipPath>
<g clip-path="url(#clip91)">
<g stroke-linejoin="round" stroke-linecap="round" fill="none" stroke-opacity="1.0000" stroke="#000000">
  <path d="M 674.18 37.544 C 674.18 38.649 673.28 39.544 672.18 39.544 C 671.08 39.544 670.18 38.649 670.18 37.544 C 670.18 36.440 671.08 35.544 672.18 35.544 C 673.28 35.544 674.18 36.440 674.18 37.544 z"/>
<title>Point D_1</title>
<desc>Point D_1: Polygon(G, M, 4)</desc>

</g> <!-- drawing style -->
</g> <!-- clip91 -->
<clipPath id="clip4f927f56-6c94-4acf-b64b-927d08c47c6d">
  <path d="M 0.0000 0.0000 L 0.0000 569.00 L 745.00 569.00 L 745.00 0.0000 z"/>
</clipPath>
<g clip-path="url(#clip92)">
<g fill-opacity="1.0000" fill-rule="nonzero" stroke="none" fill="#000000">
  <path d="M 166.31 37.544 C 166.31 38.649 165.42 39.544 164.31 39.544 C 163.21 39.544 162.31 38.649 162.31 37.544 C 162.31 36.440 163.21 35.544 164.31 35.544 C 165.42 35.544 166.31 36.440 166.31 37.544 z"/>
<title>Point G_1</title>
<desc>Point G_1: Polygon(J_2, H, 4)</desc>

</g> <!-- drawing style -->
</g> <!-- clip92 -->
<clipPath id="clipf9a29ebd-d66c-4182-ac60-b140271f48b8">
  <path d="M 0.0000 0.0000 L 0.0000 569.00 L 745.00 569.00 L 745.00 0.0000 z"/>
</clipPath>
<g clip-path="url(#clip93)">
<g stroke-linejoin="round" stroke-linecap="round" fill="none" stroke-opacity="1.0000" stroke="#000000">
  <path d="M 166.31 37.544 C 166.31 38.649 165.42 39.544 164.31 39.544 C 163.21 39.544 162.31 38.649 162.31 37.544 C 162.31 36.440 163.21 35.544 164.31 35.544 C 165.42 35.544 166.31 36.440 166.31 37.544 z"/>
<title>Point G_1</title>
<desc>Point G_1: Polygon(J_2, H, 4)</desc>

</g> <!-- drawing style -->
</g> <!-- clip93 -->
<clipPath id="clip7dd9ac22-6f8e-41ae-be7e-4446f50727dd">
  <path d="M 0.0000 0.0000 L 0.0000 569.00 L 745.00 569.00 L 745.00 0.0000 z"/>
</clipPath>
<g clip-path="url(#clip94)">
<g fill-opacity="1.0000" fill-rule="nonzero" stroke="none" fill="#000000">
  <path d="M 183.27 418.18 C 183.27 419.29 182.37 420.18 181.27 420.18 C 180.16 420.18 179.27 419.29 179.27 418.18 C 179.27 417.08 180.16 416.18 181.27 416.18 C 182.37 416.18 183.27 417.08 183.27 418.18 z"/>
<title>Point R</title>
<desc>Point R: Intersection of s and c</desc>

</g> <!-- drawing style -->
</g> <!-- clip94 -->
<clipPath id="clipc4566db5-5bba-4577-9bc8-6f810d47eb4c">
  <path d="M 0.0000 0.0000 L 0.0000 569.00 L 745.00 569.00 L 745.00 0.0000 z"/>
</clipPath>
<g clip-path="url(#clip95)">
<g stroke-linejoin="round" stroke-linecap="round" fill="none" stroke-opacity="1.0000" stroke="#000000">
  <path d="M 183.27 418.18 C 183.27 419.29 182.37 420.18 181.27 420.18 C 180.16 420.18 179.27 419.29 179.27 418.18 C 179.27 417.08 180.16 416.18 181.27 416.18 C 182.37 416.18 183.27 417.08 183.27 418.18 z"/>
<title>Point R</title>
<desc>Point R: Intersection of s and c</desc>

</g> <!-- drawing style -->
</g> <!-- clip95 -->
<clipPath id="clip89c3636b-b7c0-4d59-91c2-6b077c10500d">
  <path d="M 0.0000 0.0000 L 0.0000 569.00 L 745.00 569.00 L 745.00 0.0000 z"/>
</clipPath>
<g clip-path="url(#clip96)">
<g fill-opacity="1.0000" fill-rule="nonzero" stroke="none" fill="#000000">
  <path d="M 176.42 398.42 Q 177.31 398.73 178.16 399.72 Q 179.00 400.70 179.84 402.42 L 182.66 408.00 L 179.69 408.00 L 177.08 402.77 Q 176.06 400.72 175.11 400.05 Q 174.16 399.38 172.52 399.38 L 169.52 399.38 L 169.52 408.00 L 166.75 408.00 L 166.75 387.59 L 172.98 387.59 Q 176.48 387.59 178.20 389.05 Q 179.92 390.52 179.92 393.47 Q 179.92 395.39 179.03 396.66 Q 178.14 397.94 176.42 398.42 z M 169.52 389.86 L 169.52 397.11 L 172.98 397.11 Q 174.98 397.11 176.00 396.18 Q 177.02 395.25 177.02 393.47 Q 177.02 391.67 176.00 390.77 Q 174.98 389.86 172.98 389.86 L 169.52 389.86 z"/>
<title>Point R</title>
<desc>Point R: Intersection of s and c</desc>

</g> <!-- drawing style -->
</g> <!-- clip96 -->
<clipPath id="clipce6a8d60-6eac-40b5-880c-b5396c906a4c">
  <path d="M 0.0000 0.0000 L 0.0000 569.00 L 745.00 569.00 L 745.00 0.0000 z"/>
</clipPath>
<g clip-path="url(#clip97)">
<g fill-opacity="1.0000" fill-rule="nonzero" stroke="none" fill="#000000">
  <path d="M 546.95 528.46 C 546.95 529.56 546.05 530.46 544.95 530.46 C 543.84 530.46 542.95 529.56 542.95 528.46 C 542.95 527.35 543.84 526.46 544.95 526.46 C 546.05 526.46 546.95 527.35 546.95 528.46 z"/>
<title>Point T</title>
<desc>Point T: Polygon(S, R, 4)</desc>

</g> <!-- drawing style -->
</g> <!-- clip97 -->
<clipPath id="clip17159ba8-e058-4be0-8bc4-d184df2c20a4">
  <path d="M 0.0000 0.0000 L 0.0000 569.00 L 745.00 569.00 L 745.00 0.0000 z"/>
</clipPath>
<g clip-path="url(#clip98)">
<g stroke-linejoin="round" stroke-linecap="round" fill="none" stroke-opacity="1.0000" stroke="#000000">
  <path d="M 546.95 528.46 C 546.95 529.56 546.05 530.46 544.95 530.46 C 543.84 530.46 542.95 529.56 542.95 528.46 C 542.95 527.35 543.84 526.46 544.95 526.46 C 546.05 526.46 546.95 527.35 546.95 528.46 z"/>
<title>Point T</title>
<desc>Point T: Polygon(S, R, 4)</desc>

</g> <!-- drawing style -->
</g> <!-- clip98 -->
<clipPath id="clip49449ed2-f9a6-4c71-a89a-9c38f07c360b">
  <path d="M 0.0000 0.0000 L 0.0000 569.00 L 745.00 569.00 L 745.00 0.0000 z"/>
</clipPath>
<g clip-path="url(#clip99)">
<g fill-opacity="1.0000" fill-rule="nonzero" stroke="none" fill="#000000">
  <path d="M 518.92 517.59 L 536.19 517.59 L 536.19 519.91 L 528.94 519.91 L 528.94 538.00 L 526.17 538.00 L 526.17 519.91 L 518.92 519.91 L 518.92 517.59 z"/>
<title>Point T</title>
<desc>Point T: Polygon(S, R, 4)</desc>

</g> <!-- drawing style -->
</g> <!-- clip99 -->
<clipPath id="clipd95c3459-7dc3-46a5-ab5f-dfd0d5d94ee4">
  <path d="M 0.0000 0.0000 L 0.0000 569.00 L 745.00 569.00 L 745.00 0.0000 z"/>
</clipPath>
<g clip-path="url(#clip100)">
<g fill-opacity="1.0000" fill-rule="nonzero" stroke="none" fill="#000000">
  <path d="M 657.22 164.78 C 657.22 165.88 656.33 166.78 655.22 166.78 C 654.12 166.78 653.22 165.88 653.22 164.78 C 653.22 163.67 654.12 162.78 655.22 162.78 C 656.33 162.78 657.22 163.67 657.22 164.78 z"/>
<title>Point U</title>
<desc>Point U: Polygon(S, R, 4)</desc>

</g> <!-- drawing style -->
</g> <!-- clip100 -->
<clipPath id="clipcd3ffaf5-12a5-4a8e-a871-2449b9fef5d9">
  <path d="M 0.0000 0.0000 L 0.0000 569.00 L 745.00 569.00 L 745.00 0.0000 z"/>
</clipPath>
<g clip-path="url(#clip101)">
<g stroke-linejoin="round" stroke-linecap="round" fill="none" stroke-opacity="1.0000" stroke="#000000">
  <path d="M 657.22 164.78 C 657.22 165.88 656.33 166.78 655.22 166.78 C 654.12 166.78 653.22 165.88 653.22 164.78 C 653.22 163.67 654.12 162.78 655.22 162.78 C 656.33 162.78 657.22 163.67 657.22 164.78 z"/>
<title>Point U</title>
<desc>Point U: Polygon(S, R, 4)</desc>

</g> <!-- drawing style -->
</g> <!-- clip101 -->
<clipPath id="clip40314b16-bbcf-4e5d-93a7-fdba9af3205c">
  <path d="M 0.0000 0.0000 L 0.0000 569.00 L 745.00 569.00 L 745.00 0.0000 z"/>
</clipPath>
<g clip-path="url(#clip102)">
<g fill-opacity="1.0000" fill-rule="nonzero" stroke="none" fill="#000000">
  <path d="M 653.44 175.59 L 656.20 175.59 L 656.20 187.98 Q 656.20 191.27 657.40 192.71 Q 658.59 194.16 661.25 194.16 Q 663.91 194.16 665.09 192.71 Q 666.28 191.27 666.28 187.98 L 666.28 175.59 L 669.06 175.59 L 669.06 188.33 Q 669.06 192.33 667.09 194.36 Q 665.11 196.39 661.25 196.39 Q 657.39 196.39 655.41 194.36 Q 653.44 192.33 653.44 188.33 L 653.44 175.59 z"/>
<title>Point U</title>
<desc>Point U: Polygon(S, R, 4)</desc>

</g> <!-- drawing style -->
</g> <!-- clip102 -->
<clipPath id="clip275d7d51-4a57-492a-b0f2-aa24fb31e377">
  <path d="M 0.0000 0.0000 L 0.0000 569.00 L 745.00 569.00 L 745.00 0.0000 z"/>
</clipPath>
<g clip-path="url(#clip103)">
<g fill-opacity="1.0000" fill-rule="nonzero" stroke="none" fill="#000000">
  <path d="M 267.89 37.544 C 267.89 38.649 266.99 39.544 265.89 39.544 C 264.78 39.544 263.89 38.649 263.89 37.544 C 263.89 36.440 264.78 35.544 265.89 35.544 C 266.99 35.544 267.89 36.440 267.89 37.544 z"/>
<title>Point J</title>
<desc>Point J: Intersection of f and k</desc>

</g> <!-- drawing style -->
</g> <!-- clip103 -->
<clipPath id="clip6ba90681-d1d3-4b05-98a9-f41e7e2248a9">
  <path d="M 0.0000 0.0000 L 0.0000 569.00 L 745.00 569.00 L 745.00 0.0000 z"/>
</clipPath>
<g clip-path="url(#clip104)">
<g stroke-linejoin="round" stroke-linecap="round" fill="none" stroke-opacity="1.0000" stroke="#000000">
  <path d="M 267.89 37.544 C 267.89 38.649 266.99 39.544 265.89 39.544 C 264.78 39.544 263.89 38.649 263.89 37.544 C 263.89 36.440 264.78 35.544 265.89 35.544 C 266.99 35.544 267.89 36.440 267.89 37.544 z"/>
<title>Point J</title>
<desc>Point J: Intersection of f and k</desc>

</g> <!-- drawing style -->
</g> <!-- clip104 -->
<clipPath id="clip0f37378c-dea8-4335-93e8-dbc500232093">
  <path d="M 0.0000 0.0000 L 0.0000 569.00 L 745.00 569.00 L 745.00 0.0000 z"/>
</clipPath>
<g clip-path="url(#clip105)">
<g fill-opacity="1.0000" fill-rule="nonzero" stroke="none" fill="#000000">
  <path d="M 255.75 7.5938 L 258.52 7.5938 L 258.52 26.578 Q 258.52 30.266 257.11 31.938 Q 255.70 33.609 252.61 33.609 L 251.55 33.609 L 251.55 31.281 L 252.41 31.281 Q 254.25 31.281 255.00 30.258 Q 255.75 29.234 255.75 26.578 L 255.75 7.5938 z"/>
<title>Point J</title>
<desc>Point J: Intersection of f and k</desc>

</g> <!-- drawing style -->
</g> <!-- clip105 -->
<clipPath id="clipa8dd1452-308d-437d-af86-ceadd2231326">
  <path d="M 0.0000 0.0000 L 0.0000 569.00 L 745.00 569.00 L 745.00 0.0000 z"/>
</clipPath>
<g clip-path="url(#clip106)">
<g fill-opacity="1.0000" fill-rule="nonzero" stroke="none" fill="#000000">
  <path d="M 572.61 37.544 C 572.61 38.649 571.71 39.544 570.61 39.544 C 569.50 39.544 568.61 38.649 568.61 37.544 C 568.61 36.440 569.50 35.544 570.61 35.544 C 571.71 35.544 572.61 36.440 572.61 37.544 z"/>
<title>Point K</title>
<desc>Point K: Intersection of f and l</desc>

</g> <!-- drawing style -->
</g> <!-- clip106 -->
<clipPath id="clip390bf6f8-d927-42d7-9e99-f73b1414dd4c">
  <path d="M 0.0000 0.0000 L 0.0000 569.00 L 745.00 569.00 L 745.00 0.0000 z"/>
</clipPath>
<g clip-path="url(#clip107)">
<g stroke-linejoin="round" stroke-linecap="round" fill="none" stroke-opacity="1.0000" stroke="#000000">
  <path d="M 572.61 37.544 C 572.61 38.649 571.71 39.544 570.61 39.544 C 569.50 39.544 568.61 38.649 568.61 37.544 C 568.61 36.440 569.50 35.544 570.61 35.544 C 571.71 35.544 572.61 36.440 572.61 37.544 z"/>
<title>Point K</title>
<desc>Point K: Intersection of f and l</desc>

</g> <!-- drawing style -->
</g> <!-- clip107 -->
<clipPath id="clipa6b8c243-fa5b-4b7d-9c95-639859a39d5f">
  <path d="M 0.0000 0.0000 L 0.0000 569.00 L 745.00 569.00 L 745.00 0.0000 z"/>
</clipPath>
<g clip-path="url(#clip108)">
<g fill-opacity="1.0000" fill-rule="nonzero" stroke="none" fill="#000000">
  <path d="M 571.75 7.5938 L 574.52 7.5938 L 574.52 16.219 L 583.67 7.5938 L 587.22 7.5938 L 577.09 17.109 L 587.95 28.000 L 584.31 28.000 L 574.52 18.172 L 574.52 28.000 L 571.75 28.000 L 571.75 7.5938 z"/>
<title>Point K</title>
<desc>Point K: Intersection of f and l</desc>

</g> <!-- drawing style -->
</g> <!-- clip108 -->
</g><!-- layer0 -->
</g> <!-- color -->
</g> <!-- default stroke -->
</svg> <!-- bounding box -->
